<svg width="100%" height="100%" viewBox="0 0 700 193" version="1.1" xmlns="http://www.w3.org/2000/svg" xmlns:xlink="http://www.w3.org/1999/xlink" xml:space="preserve" xmlns:serif="http://www.serif.com/" style="fill-rule:evenodd;clip-rule:evenodd;stroke-linejoin:round;stroke-miterlimit:2;">
    <rect id="dichloroethane" x="0" y="0.487" width="699.257" height="192.369" style="fill:none;"/>
    <path d="M178.518,77.17L179.012,75.325L180.858,74.83L221.622,115.595L221.128,117.44L219.283,117.935L178.518,77.17Z" style="fill: var(--pst-color-text-base);fill-rule:nonzero;"/>
    <path d="M225.502,104.313L192.14,70.951L189.8,73.29L223.162,106.652L225.502,104.313Z" style="fill: var(--pst-color-text-base);"/>
    <path d="M112.183,102.445L112.183,78.759L115.317,78.759L115.317,88.486L127.629,88.486L127.629,78.759L130.763,78.759L130.763,102.445L127.629,102.445L127.629,91.281L115.317,91.281L115.317,102.445L112.183,102.445Z" style="fill: var(--pst-color-text-base);fill-rule:nonzero;"/>
    <path d="M185.129,29.499L185.129,5.813L188.264,5.813L188.264,15.539L200.575,15.539L200.575,5.813L203.71,5.813L203.71,29.499L200.575,29.499L200.575,18.334L188.264,18.334L188.264,29.499L185.129,29.499Z" style="fill: var(--pst-color-text-base);fill-rule:nonzero;"/>
    <path d="M269.361,113.73L269.361,90.044L272.495,90.044L272.495,99.77L284.807,99.77L284.807,90.044L287.941,90.044L287.941,113.73L284.807,113.73L284.807,102.566L272.495,102.566L272.495,113.73L269.361,113.73Z" style="fill: var(--pst-color-text-base);fill-rule:nonzero;"/>
    <path d="M196.414,186.676L196.414,162.99L199.549,162.99L199.549,172.717L211.86,172.717L211.86,162.99L214.995,162.99L214.995,186.676L211.86,186.676L211.86,175.512L199.549,175.512L199.549,186.676L196.414,186.676Z" style="fill: var(--pst-color-text-base);fill-rule:nonzero;"/>
    <g transform="matrix(5.51486,0,0,5.51486,-5.7357,-10.208)">
        <g transform="matrix(6,0,0,6,2,20.8512)"><path d="M0.588,-0.251L0.683,-0.227C0.663,-0.149 0.627,-0.09 0.575,-0.049C0.524,-0.008 0.461,0.012 0.386,0.012C0.309,0.012 0.246,-0.003 0.198,-0.035C0.15,-0.066 0.113,-0.112 0.088,-0.171C0.062,-0.231 0.05,-0.295 0.05,-0.363C0.05,-0.438 0.064,-0.503 0.093,-0.558C0.121,-0.614 0.162,-0.656 0.214,-0.685C0.267,-0.714 0.325,-0.728 0.388,-0.728C0.459,-0.728 0.52,-0.71 0.568,-0.673C0.617,-0.637 0.651,-0.586 0.67,-0.52L0.577,-0.498C0.561,-0.55 0.536,-0.588 0.505,-0.611C0.473,-0.635 0.434,-0.647 0.386,-0.647C0.331,-0.647 0.285,-0.634 0.248,-0.607C0.211,-0.581 0.185,-0.546 0.17,-0.501C0.155,-0.457 0.147,-0.411 0.147,-0.364C0.147,-0.303 0.156,-0.25 0.174,-0.204C0.192,-0.159 0.219,-0.125 0.257,-0.103C0.294,-0.08 0.335,-0.069 0.378,-0.069C0.431,-0.069 0.476,-0.084 0.513,-0.115C0.55,-0.145 0.575,-0.191 0.588,-0.251Z" style="fill: var(--pst-color-text-base);fill-rule:nonzero;"/></g>
        <g transform="matrix(6,0,0,6,6.33276,20.8512)">
            <rect x="0.064" y="-0.716" width="0.088" height="0.716" style="fill: var(--pst-color-text-base);fill-rule:nonzero;"/>
        </g>
        <g transform="matrix(4.5,0,0,4.5,7.66552,22.1227)">
            <path d="M0.503,-0.084L0.503,-0L0.03,-0C0.03,-0.021 0.033,-0.042 0.041,-0.061C0.053,-0.093 0.072,-0.125 0.098,-0.156C0.125,-0.188 0.163,-0.224 0.213,-0.265C0.291,-0.328 0.344,-0.379 0.371,-0.416C0.398,-0.454 0.412,-0.489 0.412,-0.522C0.412,-0.557 0.4,-0.586 0.375,-0.61C0.35,-0.634 0.317,-0.646 0.277,-0.646C0.235,-0.646 0.201,-0.633 0.176,-0.608C0.15,-0.583 0.138,-0.547 0.137,-0.502L0.047,-0.512C0.053,-0.579 0.076,-0.63 0.117,-0.666C0.157,-0.701 0.211,-0.719 0.279,-0.719C0.348,-0.719 0.402,-0.7 0.442,-0.662C0.482,-0.624 0.502,-0.576 0.502,-0.52C0.502,-0.491 0.497,-0.463 0.485,-0.436C0.473,-0.408 0.454,-0.379 0.427,-0.348C0.399,-0.318 0.354,-0.276 0.291,-0.222C0.238,-0.178 0.204,-0.148 0.189,-0.132C0.174,-0.116 0.162,-0.1 0.152,-0.084L0.503,-0.084Z" style="fill: var(--pst-color-text-base);fill-rule:nonzero;"/>
        </g>
        <g transform="matrix(6,0,0,6,13.5015,20.8512)"> 
            <path d="M0.25,-0.116L0.25,-0.312L0.056,-0.312L0.056,-0.394L0.25,-0.394L0.25,-0.589L0.333,-0.589L0.333,-0.394L0.528,-0.394L0.528,-0.312L0.333,-0.312L0.333,-0.116L0.25,-0.116Z" style="fill: var(--pst-color-text-base);fill-rule:nonzero;"/>
        </g>
    </g>
    <path d="M530.378,45.005L530.378,21.319L533.513,21.319L533.513,31.045L545.824,31.045L545.824,21.319L548.959,21.319L548.959,45.005L545.824,45.005L545.824,33.84L533.513,33.84L533.513,45.005L530.378,45.005Z" style="fill: var(--pst-color-text-base);fill-rule:nonzero;"/>
    <path d="M515.034,102.269L515.034,78.583L518.169,78.583L518.169,88.31L530.48,88.31L530.48,78.583L533.615,78.583L533.615,102.269L530.48,102.269L530.48,91.105L518.169,91.105L518.169,102.269L515.034,102.269Z" style="fill: var(--pst-color-text-base);fill-rule:nonzero;"/>
    <path d="M656.14,170.767L656.14,147.081L659.275,147.081L659.275,156.807L671.586,156.807L671.586,147.081L674.721,147.081L674.721,170.767L671.586,170.767L671.586,159.602L659.275,159.602L659.275,170.767L656.14,170.767Z" style="fill: var(--pst-color-text-base);fill-rule:nonzero;"/>
    <path d="M671.484,113.502L671.484,89.816L674.619,89.816L674.619,99.542L686.93,99.542L686.93,89.816L690.065,89.816L690.065,113.502L686.93,113.502L686.93,102.338L674.619,102.338L674.619,113.502L671.484,113.502Z" style="fill: var(--pst-color-text-base);fill-rule:nonzero;"/>
    <path d="M604.446,21.558L607.581,22.35C606.924,24.924 605.741,26.887 604.034,28.239C602.327,29.591 600.24,30.266 597.773,30.266C595.221,30.266 593.144,29.747 591.545,28.707C589.945,27.668 588.728,26.163 587.893,24.191C587.059,22.22 586.641,20.104 586.641,17.842C586.641,15.375 587.113,13.224 588.055,11.387C588.998,9.551 590.339,8.156 592.078,7.203C593.818,6.249 595.732,5.773 597.822,5.773C600.192,5.773 602.184,6.376 603.8,7.582C605.416,8.789 606.541,10.485 607.177,12.672L604.091,13.399C603.541,11.675 602.744,10.42 601.699,9.634C600.655,8.848 599.341,8.455 597.757,8.455C595.937,8.455 594.415,8.891 593.193,9.763C591.97,10.636 591.111,11.807 590.616,13.278C590.12,14.748 589.873,16.264 589.873,17.826C589.873,19.84 590.166,21.598 590.753,23.101C591.34,24.603 592.253,25.726 593.492,26.47C594.73,27.213 596.072,27.584 597.515,27.584C599.271,27.584 600.757,27.078 601.974,26.066C603.191,25.053 604.015,23.551 604.446,21.558Z" style="fill: var(--pst-color-text-base);fill-rule:nonzero;"/>
    <rect x="611.007" y="6.177" width="2.908" height="23.686" style="fill: var(--pst-color-text-base);fill-rule:nonzero;"/>
    <path d="M600.055,178.008L603.19,178.8C602.533,181.374 601.35,183.337 599.643,184.689C597.936,186.041 595.849,186.716 593.382,186.716C590.83,186.716 588.754,186.197 587.154,185.157C585.554,184.118 584.337,182.613 583.503,180.642C582.668,178.67 582.25,176.554 582.25,174.292C582.25,171.825 582.722,169.674 583.664,167.837C584.607,166.001 585.948,164.606 587.687,163.653C589.427,162.699 591.341,162.223 593.431,162.223C595.801,162.223 597.793,162.826 599.409,164.032C601.025,165.239 602.15,166.935 602.786,169.122L599.7,169.849C599.15,168.125 598.353,166.871 597.309,166.084C596.264,165.298 594.95,164.905 593.366,164.905C591.546,164.905 590.025,165.341 588.802,166.213C587.579,167.086 586.72,168.257 586.225,169.728C585.729,171.198 585.482,172.714 585.482,174.276C585.482,176.29 585.775,178.048 586.362,179.551C586.949,181.054 587.862,182.176 589.101,182.92C590.34,183.663 591.681,184.034 593.124,184.034C594.88,184.034 596.366,183.528 597.583,182.516C598.8,181.503 599.624,180.001 600.055,178.008Z" style="fill: var(--pst-color-text-base);fill-rule:nonzero;"/>
    <rect x="606.616" y="162.627" width="2.908" height="23.686" style="fill: var(--pst-color-text-base);fill-rule:nonzero;"/>
    <path d="M177.661,73.974L179.012,75.325L178.518,77.17L139.495,87.626L138.639,84.43L177.661,73.974Z" style="fill: var(--pst-color-text-base);fill-rule:nonzero;"/>
    <path d="M180.858,74.83L179.012,75.325L177.661,73.974L187.522,37.174L190.718,38.03L180.858,74.83Z" style="fill: var(--pst-color-text-base);fill-rule:nonzero;"/>
    <path d="M222.479,118.791L221.128,117.44L221.622,115.595L260.198,105.259L261.054,108.455L222.479,118.791Z" style="fill: var(--pst-color-text-base);fill-rule:nonzero;"/>
    <path d="M219.283,117.935L221.128,117.44L222.479,118.791L212.585,155.717L209.388,154.86L219.283,117.935Z" style="fill: var(--pst-color-text-base);fill-rule:nonzero;"/>
    <rect x="319.641" y="95.417" width="146.42" height="3.309" style="fill: var(--pst-color-text-base);"/>
    <path d="M494.738,97.072L461.649,105.62C461.649,105.62 465.786,100.812 465.786,97.072C465.786,93.211 461.649,88.248 461.649,88.248L494.738,97.072Z" style="fill: var(--pst-color-text-base);fill-rule:nonzero;"/>
    <path d="M581.103,77.065L581.597,75.22L583.443,74.726L624.013,115.296L623.518,117.141L621.673,117.635L581.103,77.065Z" style="fill: var(--pst-color-text-base);fill-rule:nonzero;"/>
    <path d="M580.741,72.024L581.597,75.22L578.401,74.364L553.671,49.634L556.011,47.294L580.741,72.024Z" style="fill: var(--pst-color-text-base);fill-rule:nonzero;"/>
    <path d="M578.401,74.364L581.597,75.22L581.103,77.065L542.347,87.45L541.49,84.254L578.401,74.364Z" style="fill: var(--pst-color-text-base);fill-rule:nonzero;"/>
    <path d="M624.374,120.337L623.518,117.141L626.714,117.997L651.259,142.543L648.92,144.882L624.374,120.337Z" style="fill: var(--pst-color-text-base);fill-rule:nonzero;"/>
    <path d="M626.714,117.997L623.518,117.141L624.013,115.296L662.322,105.031L663.178,108.227L626.714,117.997Z" style="fill: var(--pst-color-text-base);fill-rule:nonzero;"/>
    <path d="M583.443,74.726L581.597,75.22L580.741,72.024L590.398,35.982L593.594,36.838L583.443,74.726Z" style="fill: var(--pst-color-text-base);fill-rule:nonzero;"/>
    <path d="M621.673,117.635L623.518,117.141L624.374,120.337L614.505,157.17L611.309,156.314L621.673,117.635Z" style="fill: var(--pst-color-text-base);fill-rule:nonzero;"/>
    <g transform="matrix(1,0,0,1,-1794.91,-1764.21)">
        <g transform="matrix(33.0892,0,0,33.0892,2108.2,1837.53)">
            <path d="M0.082,-0L0.082,-0.716L0.565,-0.716L0.565,-0.631L0.177,-0.631L0.177,-0.41L0.513,-0.41L0.513,-0.325L0.177,-0.325L0.177,-0L0.082,-0Z" style="fill: var(--pst-color-text-base);fill-rule:nonzero;"/>
        </g>
        <g transform="matrix(33.0892,0,0,33.0892,2128.41,1837.53)">
            <path d="M0.421,-0.167L0.512,-0.156C0.497,-0.103 0.471,-0.062 0.432,-0.032C0.393,-0.003 0.344,0.012 0.284,0.012C0.208,0.012 0.148,-0.012 0.103,-0.058C0.059,-0.105 0.037,-0.171 0.037,-0.255C0.037,-0.342 0.059,-0.41 0.104,-0.458C0.149,-0.506 0.207,-0.53 0.279,-0.53C0.348,-0.53 0.405,-0.507 0.449,-0.459C0.493,-0.412 0.515,-0.346 0.515,-0.26C0.515,-0.255 0.514,-0.247 0.514,-0.237L0.127,-0.237C0.131,-0.18 0.147,-0.136 0.176,-0.106C0.205,-0.076 0.241,-0.061 0.284,-0.061C0.316,-0.061 0.344,-0.069 0.367,-0.086C0.389,-0.103 0.408,-0.13 0.421,-0.167ZM0.132,-0.309L0.422,-0.309C0.418,-0.353 0.407,-0.385 0.389,-0.407C0.361,-0.441 0.324,-0.458 0.28,-0.458C0.239,-0.458 0.205,-0.444 0.178,-0.417C0.15,-0.39 0.135,-0.354 0.132,-0.309Z" style="fill: var(--pst-color-text-base);fill-rule:nonzero;"/>
        </g>
        <g transform="matrix(33.0892,0,0,33.0892,2146.82,1837.53)">
            <path d="M0.588,-0.251L0.683,-0.227C0.663,-0.149 0.627,-0.09 0.575,-0.049C0.524,-0.008 0.461,0.012 0.386,0.012C0.309,0.012 0.246,-0.003 0.198,-0.035C0.15,-0.066 0.113,-0.112 0.088,-0.171C0.062,-0.231 0.05,-0.295 0.05,-0.363C0.05,-0.438 0.064,-0.503 0.093,-0.558C0.121,-0.614 0.162,-0.656 0.214,-0.685C0.267,-0.714 0.325,-0.728 0.388,-0.728C0.459,-0.728 0.52,-0.71 0.568,-0.673C0.617,-0.637 0.651,-0.586 0.67,-0.52L0.577,-0.498C0.561,-0.55 0.536,-0.588 0.505,-0.611C0.473,-0.635 0.434,-0.647 0.386,-0.647C0.331,-0.647 0.285,-0.634 0.248,-0.607C0.211,-0.581 0.185,-0.546 0.17,-0.501C0.155,-0.457 0.147,-0.411 0.147,-0.364C0.147,-0.303 0.156,-0.25 0.174,-0.204C0.192,-0.159 0.219,-0.125 0.257,-0.103C0.294,-0.08 0.335,-0.069 0.378,-0.069C0.431,-0.069 0.476,-0.084 0.513,-0.115C0.55,-0.145 0.575,-0.191 0.588,-0.251Z" style="fill: var(--pst-color-text-base);fill-rule:nonzero;"/>
        </g>
        <g transform="matrix(33.0892,0,0,33.0892,2170.71,1837.53)">
            <rect x="0.064" y="-0.716" width="0.088" height="0.716" style="fill: var(--pst-color-text-base);fill-rule:nonzero;"/>
        </g>
        <g transform="matrix(19.291,0,0,19.291,2178.06,1848.55)">
            <path d="M0.042,-0.189L0.13,-0.201C0.14,-0.151 0.157,-0.115 0.181,-0.093C0.206,-0.071 0.235,-0.06 0.27,-0.06C0.311,-0.06 0.346,-0.074 0.375,-0.103C0.403,-0.132 0.417,-0.167 0.417,-0.209C0.417,-0.25 0.404,-0.283 0.378,-0.309C0.352,-0.336 0.318,-0.349 0.277,-0.349C0.261,-0.349 0.24,-0.345 0.215,-0.339L0.225,-0.416C0.231,-0.415 0.236,-0.415 0.239,-0.415C0.277,-0.415 0.31,-0.425 0.34,-0.444C0.37,-0.464 0.385,-0.494 0.385,-0.535C0.385,-0.567 0.374,-0.594 0.353,-0.615C0.331,-0.636 0.303,-0.646 0.268,-0.646C0.234,-0.646 0.205,-0.636 0.183,-0.614C0.16,-0.593 0.145,-0.561 0.139,-0.518L0.051,-0.533C0.062,-0.592 0.086,-0.638 0.124,-0.67C0.162,-0.703 0.209,-0.719 0.266,-0.719C0.305,-0.719 0.341,-0.71 0.374,-0.694C0.407,-0.677 0.432,-0.654 0.449,-0.625C0.467,-0.596 0.476,-0.565 0.476,-0.533C0.476,-0.502 0.467,-0.474 0.451,-0.448C0.434,-0.423 0.41,-0.403 0.377,-0.388C0.419,-0.378 0.452,-0.358 0.476,-0.327C0.499,-0.296 0.511,-0.258 0.511,-0.211C0.511,-0.149 0.488,-0.096 0.442,-0.052C0.397,-0.009 0.339,0.013 0.27,0.013C0.207,0.013 0.155,-0.006 0.113,-0.043C0.072,-0.081 0.048,-0.129 0.042,-0.189Z" style="fill: var(--pst-color-text-base);fill-rule:nonzero;"/>
        </g>
        <g transform="matrix(33.0892,0,0,33.0892,2197.99,1837.53)">
            <path d="M0.234,0.21C0.185,0.149 0.144,0.078 0.111,-0.004C0.077,-0.086 0.061,-0.171 0.061,-0.259C0.061,-0.337 0.073,-0.411 0.098,-0.482C0.127,-0.564 0.173,-0.646 0.234,-0.728L0.297,-0.728C0.257,-0.66 0.231,-0.612 0.219,-0.583C0.199,-0.538 0.183,-0.491 0.172,-0.442C0.158,-0.382 0.151,-0.32 0.151,-0.259C0.151,-0.102 0.2,0.054 0.297,0.21L0.234,0.21Z" style="fill: var(--pst-color-text-base);fill-rule:nonzero;"/>
        </g>
        <g transform="matrix(33.0892,0,0,33.0892,2209.01,1837.53)">
            <path d="M0.404,-0.19L0.491,-0.179C0.481,-0.119 0.457,-0.073 0.418,-0.039C0.379,-0.005 0.332,0.012 0.275,0.012C0.204,0.012 0.147,-0.011 0.104,-0.058C0.061,-0.104 0.039,-0.171 0.039,-0.257C0.039,-0.313 0.048,-0.362 0.067,-0.404C0.085,-0.446 0.114,-0.478 0.152,-0.499C0.19,-0.52 0.231,-0.53 0.275,-0.53C0.332,-0.53 0.378,-0.516 0.414,-0.488C0.449,-0.459 0.472,-0.419 0.482,-0.366L0.397,-0.353C0.389,-0.388 0.374,-0.414 0.354,-0.432C0.333,-0.449 0.308,-0.458 0.279,-0.458C0.235,-0.458 0.199,-0.442 0.171,-0.41C0.143,-0.379 0.129,-0.328 0.129,-0.26C0.129,-0.19 0.143,-0.139 0.169,-0.108C0.196,-0.076 0.231,-0.061 0.274,-0.061C0.308,-0.061 0.337,-0.071 0.36,-0.092C0.383,-0.113 0.398,-0.146 0.404,-0.19Z" style="fill: var(--pst-color-text-base);fill-rule:nonzero;"/>
        </g>
        <g transform="matrix(33.0892,0,0,33.0892,2225.55,1837.53)">
            <path d="M0.404,-0.064C0.372,-0.036 0.34,-0.017 0.31,-0.005C0.28,0.006 0.248,0.012 0.213,0.012C0.156,0.012 0.113,-0.002 0.082,-0.03C0.051,-0.058 0.036,-0.093 0.036,-0.137C0.036,-0.162 0.042,-0.185 0.053,-0.206C0.065,-0.227 0.08,-0.244 0.099,-0.257C0.118,-0.27 0.139,-0.279 0.162,-0.286C0.179,-0.29 0.205,-0.295 0.24,-0.299C0.311,-0.307 0.363,-0.317 0.397,-0.329C0.397,-0.341 0.397,-0.349 0.397,-0.352C0.397,-0.388 0.389,-0.413 0.373,-0.428C0.35,-0.448 0.317,-0.458 0.272,-0.458C0.231,-0.458 0.201,-0.45 0.181,-0.436C0.161,-0.421 0.147,-0.396 0.137,-0.359L0.051,-0.371C0.059,-0.407 0.072,-0.437 0.09,-0.46C0.108,-0.482 0.134,-0.5 0.167,-0.512C0.201,-0.524 0.241,-0.53 0.285,-0.53C0.329,-0.53 0.365,-0.525 0.393,-0.515C0.421,-0.504 0.441,-0.491 0.454,-0.475C0.467,-0.46 0.476,-0.44 0.481,-0.416C0.484,-0.401 0.486,-0.374 0.486,-0.334L0.486,-0.217C0.486,-0.136 0.488,-0.084 0.491,-0.062C0.495,-0.041 0.503,-0.02 0.514,-0L0.422,-0C0.413,-0.018 0.407,-0.04 0.404,-0.064ZM0.397,-0.26C0.365,-0.247 0.317,-0.236 0.253,-0.227C0.217,-0.222 0.192,-0.216 0.177,-0.209C0.162,-0.203 0.15,-0.193 0.142,-0.181C0.134,-0.168 0.13,-0.154 0.13,-0.139C0.13,-0.116 0.139,-0.096 0.156,-0.081C0.174,-0.065 0.2,-0.057 0.234,-0.057C0.268,-0.057 0.298,-0.065 0.325,-0.079C0.351,-0.094 0.37,-0.114 0.383,-0.14C0.392,-0.16 0.397,-0.189 0.397,-0.228L0.397,-0.26Z" style="fill: var(--pst-color-text-base);fill-rule:nonzero;"/>
        </g>
        <g transform="matrix(33.0892,0,0,33.0892,2243.95,1837.53)">
            <path d="M0.258,-0.079L0.271,-0.001C0.246,0.004 0.224,0.007 0.204,0.007C0.172,0.007 0.147,0.002 0.13,-0.008C0.112,-0.018 0.1,-0.032 0.093,-0.048C0.086,-0.065 0.082,-0.099 0.082,-0.152L0.082,-0.45L0.018,-0.45L0.018,-0.519L0.082,-0.519L0.082,-0.647L0.169,-0.7L0.169,-0.519L0.258,-0.519L0.258,-0.45L0.169,-0.45L0.169,-0.147C0.169,-0.122 0.171,-0.106 0.174,-0.099C0.177,-0.091 0.182,-0.086 0.189,-0.082C0.196,-0.077 0.206,-0.075 0.219,-0.075C0.229,-0.075 0.242,-0.076 0.258,-0.079Z" style="fill: var(--pst-color-text-base);fill-rule:nonzero;"/>
        </g>
        <g transform="matrix(33.0892,0,0,33.0892,2253.15,1837.53)">
            <rect x="0.091" y="-0.1" width="0.1" height="0.1" style="fill: var(--pst-color-text-base);fill-rule:nonzero;"/>
        </g>
        <g transform="matrix(33.0892,0,0,33.0892,2262.34,1837.53)">
            <path d="M0.124,0.21L0.061,0.21C0.158,0.054 0.207,-0.102 0.207,-0.259C0.207,-0.32 0.2,-0.381 0.186,-0.441C0.174,-0.49 0.159,-0.537 0.139,-0.582C0.126,-0.611 0.1,-0.66 0.061,-0.728L0.124,-0.728C0.185,-0.646 0.23,-0.564 0.259,-0.482C0.284,-0.411 0.297,-0.337 0.297,-0.259C0.297,-0.171 0.28,-0.086 0.246,-0.004C0.213,0.078 0.172,0.149 0.124,0.21Z" style="fill: var(--pst-color-text-base);fill-rule:nonzero;"/>
        </g>
    </g>
</svg>
