<svg width="100%" height="100%"  class="main-svg" xmlns="http://www.w3.org/2000/svg" xmlns:xlink="http://www.w3.org/1999/xlink" 
 style="" viewBox="0 0 900 510">
 

<defs id="defs-1bbf7f"><g class="clips"><clipPath id="clip1bbf7fxyplot" class="plotclip"><rect width="600" height="400"/></clipPath><clipPath class="axesclip" id="clip1bbf7fx"><rect x="150" y="0" width="600" height="510"/></clipPath><clipPath class="axesclip" id="clip1bbf7fy"><rect x="0" y="30" width="900" height="400"/></clipPath><clipPath class="axesclip" id="clip1bbf7fxy"><rect x="150" y="30" width="600" height="400"/></clipPath></g><g class="gradients"/><g class="patterns"/></defs><g class="bglayer"><rect class="bg" x="150" y="30" width="600" height="400" style="fill: rgb(0, 0, 0); fill-opacity: 0; stroke-width: 0;"/></g><g class="layer-below"><g class="imagelayer"/><g class="shapelayer"/></g><g class="cartesianlayer"><g class="subplot xy"><g class="layer-subplot"><g class="shapelayer"/><g class="imagelayer"/></g><g class="minor-gridlayer"><g class="x"/><g class="y"/></g><g class="gridlayer"><g class="x"/><g class="y"/></g><g class="zerolinelayer"/><path class="xlines-below"/><path class="ylines-below"/><g class="overlines-below"/><g class="xaxislayer-below"/><g class="yaxislayer-below"/><g class="overaxes-below"/><g class="plot" transform="translate(150,30)" clip-path="url(#clip1bbf7fxyplot)"><g class="scatterlayer mlayer"><g class="trace scatter trace920e40" style="stroke-miterlimit: 2; opacity: 1;"><g class="fills"/><g class="errorbars"/><g class="lines"/><g class="points"><path class="point" transform="translate(7.06,372.18)" d="M3.5,0A3.5,3.5 0 1,1 0,-3.5A3.5,3.5 0 0,1 3.5,0Z" style="opacity: 1; stroke-width: 0px; fill: rgb(244, 144, 7); fill-opacity: 1;"/><path class="point" transform="translate(2.47,396.24)" d="M3.5,0A3.5,3.5 0 1,1 0,-3.5A3.5,3.5 0 0,1 3.5,0Z" style="opacity: 1; stroke-width: 0px; fill: rgb(244, 144, 7); fill-opacity: 1;"/><path class="point" transform="translate(55.79,340.18)" d="M3.5,0A3.5,3.5 0 1,1 0,-3.5A3.5,3.5 0 0,1 3.5,0Z" style="opacity: 1; stroke-width: 0px; fill: rgb(244, 144, 7); fill-opacity: 1;"/><path class="point" transform="translate(77.68,346.17)" d="M3.5,0A3.5,3.5 0 1,1 0,-3.5A3.5,3.5 0 0,1 3.5,0Z" style="opacity: 1; stroke-width: 0px; fill: rgb(244, 144, 7); fill-opacity: 1;"/><path class="point" transform="translate(82.27,327)" d="M3.5,0A3.5,3.5 0 1,1 0,-3.5A3.5,3.5 0 0,1 3.5,0Z" style="opacity: 1; stroke-width: 0px; fill: rgb(244, 144, 7); fill-opacity: 1;"/><path class="point" transform="translate(81.57,309.34)" d="M3.5,0A3.5,3.5 0 1,1 0,-3.5A3.5,3.5 0 0,1 3.5,0Z" style="opacity: 1; stroke-width: 0px; fill: rgb(244, 144, 7); fill-opacity: 1;"/><path class="point" transform="translate(65.33,287.94)" d="M3.5,0A3.5,3.5 0 1,1 0,-3.5A3.5,3.5 0 0,1 3.5,0Z" style="opacity: 1; stroke-width: 0px; fill: rgb(244, 144, 7); fill-opacity: 1;"/><path class="point" transform="translate(100.28,306.31)" d="M3.5,0A3.5,3.5 0 1,1 0,-3.5A3.5,3.5 0 0,1 3.5,0Z" style="opacity: 1; stroke-width: 0px; fill: rgb(244, 144, 7); fill-opacity: 1;"/><path class="point" transform="translate(21.89,209.07)" d="M3.5,0A3.5,3.5 0 1,1 0,-3.5A3.5,3.5 0 0,1 3.5,0Z" style="opacity: 1; stroke-width: 0px; fill: rgb(244, 144, 7); fill-opacity: 1;"/><path class="point" transform="translate(22.25,221.84)" d="M3.5,0A3.5,3.5 0 1,1 0,-3.5A3.5,3.5 0 0,1 3.5,0Z" style="opacity: 1; stroke-width: 0px; fill: rgb(244, 144, 7); fill-opacity: 1;"/><path class="point" transform="translate(102.75,198.08)" d="M3.5,0A3.5,3.5 0 1,1 0,-3.5A3.5,3.5 0 0,1 3.5,0Z" style="opacity: 1; stroke-width: 0px; fill: rgb(244, 144, 7); fill-opacity: 1;"/><path class="point" transform="translate(108.76,232.65)" d="M3.5,0A3.5,3.5 0 1,1 0,-3.5A3.5,3.5 0 0,1 3.5,0Z" style="opacity: 1; stroke-width: 0px; fill: rgb(244, 144, 7); fill-opacity: 1;"/><path class="point" transform="translate(125.35,287.12)" d="M3.5,0A3.5,3.5 0 1,1 0,-3.5A3.5,3.5 0 0,1 3.5,0Z" style="opacity: 1; stroke-width: 0px; fill: rgb(244, 144, 7); fill-opacity: 1;"/><path class="point" transform="translate(138.42,279.21)" d="M3.5,0A3.5,3.5 0 1,1 0,-3.5A3.5,3.5 0 0,1 3.5,0Z" style="opacity: 1; stroke-width: 0px; fill: rgb(244, 144, 7); fill-opacity: 1;"/><path class="point" transform="translate(152.9,262.66)" d="M3.5,0A3.5,3.5 0 1,1 0,-3.5A3.5,3.5 0 0,1 3.5,0Z" style="opacity: 1; stroke-width: 0px; fill: rgb(244, 144, 7); fill-opacity: 1;"/><path class="point" transform="translate(159.25,235.22)" d="M3.5,0A3.5,3.5 0 1,1 0,-3.5A3.5,3.5 0 0,1 3.5,0Z" style="opacity: 1; stroke-width: 0px; fill: rgb(244, 144, 7); fill-opacity: 1;"/><path class="point" transform="translate(173.02,195.74)" d="M3.5,0A3.5,3.5 0 1,1 0,-3.5A3.5,3.5 0 0,1 3.5,0Z" style="opacity: 1; stroke-width: 0px; fill: rgb(244, 144, 7); fill-opacity: 1;"/><path class="point" transform="translate(193.15,199.86)" d="M3.5,0A3.5,3.5 0 1,1 0,-3.5A3.5,3.5 0 0,1 3.5,0Z" style="opacity: 1; stroke-width: 0px; fill: rgb(244, 144, 7); fill-opacity: 1;"/><path class="point" transform="translate(192.8,224.66)" d="M3.5,0A3.5,3.5 0 1,1 0,-3.5A3.5,3.5 0 0,1 3.5,0Z" style="opacity: 1; stroke-width: 0px; fill: rgb(244, 144, 7); fill-opacity: 1;"/><path class="point" transform="translate(193.5,238.94)" d="M3.5,0A3.5,3.5 0 1,1 0,-3.5A3.5,3.5 0 0,1 3.5,0Z" style="opacity: 1; stroke-width: 0px; fill: rgb(244, 144, 7); fill-opacity: 1;"/><path class="point" transform="translate(178.67,244.59)" d="M3.5,0A3.5,3.5 0 1,1 0,-3.5A3.5,3.5 0 0,1 3.5,0Z" style="opacity: 1; stroke-width: 0px; fill: rgb(244, 144, 7); fill-opacity: 1;"/><path class="point" transform="translate(204.8,270.12)" d="M3.5,0A3.5,3.5 0 1,1 0,-3.5A3.5,3.5 0 0,1 3.5,0Z" style="opacity: 1; stroke-width: 0px; fill: rgb(244, 144, 7); fill-opacity: 1;"/><path class="point" transform="translate(206.57,281.01)" d="M3.5,0A3.5,3.5 0 1,1 0,-3.5A3.5,3.5 0 0,1 3.5,0Z" style="opacity: 1; stroke-width: 0px; fill: rgb(244, 144, 7); fill-opacity: 1;"/><path class="point" transform="translate(180.08,292.32)" d="M3.5,0A3.5,3.5 0 1,1 0,-3.5A3.5,3.5 0 0,1 3.5,0Z" style="opacity: 1; stroke-width: 0px; fill: rgb(244, 144, 7); fill-opacity: 1;"/><path class="point" transform="translate(223.16,295.65)" d="M3.5,0A3.5,3.5 0 1,1 0,-3.5A3.5,3.5 0 0,1 3.5,0Z" style="opacity: 1; stroke-width: 0px; fill: rgb(244, 144, 7); fill-opacity: 1;"/><path class="point" transform="translate(223.87,358.41)" d="M3.5,0A3.5,3.5 0 1,1 0,-3.5A3.5,3.5 0 0,1 3.5,0Z" style="opacity: 1; stroke-width: 0px; fill: rgb(244, 144, 7); fill-opacity: 1;"/><path class="point" transform="translate(223.52,399.75)" d="M3.5,0A3.5,3.5 0 1,1 0,-3.5A3.5,3.5 0 0,1 3.5,0Z" style="opacity: 1; stroke-width: 0px; fill: rgb(244, 144, 7); fill-opacity: 1;"/><path class="point" transform="translate(596.05,352.35)" d="M3.5,0A3.5,3.5 0 1,1 0,-3.5A3.5,3.5 0 0,1 3.5,0Z" style="opacity: 1; stroke-width: 0px; fill: rgb(244, 144, 7); fill-opacity: 1;"/><path class="point" transform="translate(596.4,373.02)" d="M3.5,0A3.5,3.5 0 1,1 0,-3.5A3.5,3.5 0 0,1 3.5,0Z" style="opacity: 1; stroke-width: 0px; fill: rgb(244, 144, 7); fill-opacity: 1;"/><path class="point" transform="translate(596.05,399.7)" d="M3.5,0A3.5,3.5 0 1,1 0,-3.5A3.5,3.5 0 0,1 3.5,0Z" style="opacity: 1; stroke-width: 0px; fill: rgb(244, 144, 7); fill-opacity: 1;"/><path class="point" transform="translate(129.24,5.26)" d="M3.5,0A3.5,3.5 0 1,1 0,-3.5A3.5,3.5 0 0,1 3.5,0Z" style="opacity: 1; stroke-width: 0px; fill: rgb(244, 144, 7); fill-opacity: 1;"/><path class="point" transform="translate(134.53,46.59)" d="M3.5,0A3.5,3.5 0 1,1 0,-3.5A3.5,3.5 0 0,1 3.5,0Z" style="opacity: 1; stroke-width: 0px; fill: rgb(244, 144, 7); fill-opacity: 1;"/><path class="point" transform="translate(135.59,59.37)" d="M3.5,0A3.5,3.5 0 1,1 0,-3.5A3.5,3.5 0 0,1 3.5,0Z" style="opacity: 1; stroke-width: 0px; fill: rgb(244, 144, 7); fill-opacity: 1;"/></g><g class="text"><g class="textpoint" transform="translate(5.375,2.5)"><text x="7.06" y="372.18" text-anchor="start" style="font-family: 'Open Sans', verdana, arial, sans-serif; font-size: 10px; fill: var(--pst-color-text-base); fill-opacity: 1; white-space: pre;"> Zn-air</text></g><g class="textpoint" transform="translate(5.375,2.5)"><text x="2.47" y="396.24" text-anchor="start" style="font-family: 'Open Sans', verdana, arial, sans-serif; font-size: 10px; fill: var(--pst-color-text-base); fill-opacity: 1; white-space: pre;"> Li-ion</text></g><g class="textpoint" transform="translate(-5.375,-7.875)"><text x="55.79" y="340.18" text-anchor="end" style="font-family: 'Open Sans', verdana, arial, sans-serif; font-size: 10px; fill: var(--pst-color-text-base); fill-opacity: 1; white-space: pre;"> Sodium</text></g><g class="textpoint" transform="translate(5.375,2.5)"><text x="77.68" y="346.17" text-anchor="start" style="font-family: 'Open Sans', verdana, arial, sans-serif; font-size: 10px; fill: var(--pst-color-text-base); fill-opacity: 1; white-space: pre;"> NH​<tspan style="font-size:70%" dy="0.3em">3</tspan><tspan dy="-0.21em">​</tspan>(<tspan style="font-style:italic">l</tspan>)</text></g><g class="textpoint" transform="translate(5.375,2.5)"><text x="82.27" y="327" text-anchor="start" style="font-family: 'Open Sans', verdana, arial, sans-serif; font-size: 10px; fill: var(--pst-color-text-base); fill-opacity: 1; white-space: pre;"> CH​<tspan style="font-size:70%" dy="0.3em">3</tspan><tspan dy="-0.21em">​</tspan>OH</text></g><g class="textpoint" transform="translate(-5.375,2.5)"><text x="81.57" y="309.34" text-anchor="end" style="font-family: 'Open Sans', verdana, arial, sans-serif; font-size: 10px; fill: var(--pst-color-text-base); fill-opacity: 1; white-space: pre;"> Hydrazine</text></g><g class="textpoint" transform="translate(0,-7.875)"><text x="65.33" y="287.94" text-anchor="middle" style="font-family: 'Open Sans', verdana, arial, sans-serif; font-size: 10px; fill: var(--pst-color-text-base); fill-opacity: 1; white-space: pre;"> Glucose</text></g><g class="textpoint" transform="translate(5.375,2.5)"><text x="100.28" y="306.31" text-anchor="start" style="font-family: 'Open Sans', verdana, arial, sans-serif; font-size: 10px; fill: var(--pst-color-text-base); fill-opacity: 1; white-space: pre;"> Bituminous</text></g><g class="textpoint" transform="translate(5.375,2.5)"><text x="21.89" y="209.07" text-anchor="start" style="font-family: 'Open Sans', verdana, arial, sans-serif; font-size: 10px; fill: var(--pst-color-text-base); fill-opacity: 1; white-space: pre;"> Iron</text></g><g class="textpoint" transform="translate(5.375,2.5)"><text x="22.25" y="221.84" text-anchor="start" style="font-family: 'Open Sans', verdana, arial, sans-serif; font-size: 10px; fill: var(--pst-color-text-base); fill-opacity: 1; white-space: pre;"> Zinc</text></g><g class="textpoint" transform="translate(5.375,2.5)"><text x="102.75" y="198.08" text-anchor="start" style="font-family: 'Open Sans', verdana, arial, sans-serif; font-size: 10px; fill: var(--pst-color-text-base); fill-opacity: 1; white-space: pre;"> Mg</text></g><g class="textpoint" transform="translate(0,-7.875)"><text x="108.76" y="232.65" text-anchor="middle" style="font-family: 'Open Sans', verdana, arial, sans-serif; font-size: 10px; fill: var(--pst-color-text-base); fill-opacity: 1; white-space: pre;"> Polyester</text></g><g class="textpoint" transform="translate(5.375,2.5)"><text x="125.35" y="287.12" text-anchor="start" style="font-family: 'Open Sans', verdana, arial, sans-serif; font-size: 10px; fill: var(--pst-color-text-base); fill-opacity: 1; white-space: pre;"> Ethanol</text></g><g class="textpoint" transform="translate(0,-7.875)"><text x="138.42" y="279.21" text-anchor="middle" style="font-family: 'Open Sans', verdana, arial, sans-serif; font-size: 10px; fill: var(--pst-color-text-base); fill-opacity: 1; white-space: pre;"> Gasohol</text></g><g class="textpoint" transform="translate(5.375,2.5)"><text x="152.9" y="262.66" text-anchor="start" style="font-family: 'Open Sans', verdana, arial, sans-serif; font-size: 10px; fill: var(--pst-color-text-base); fill-opacity: 1; white-space: pre;"> Butanol</text></g><g class="textpoint" transform="translate(0,-7.875)"><text x="159.25" y="235.22" text-anchor="middle" style="font-family: 'Open Sans', verdana, arial, sans-serif; font-size: 10px; fill: var(--pst-color-text-base); fill-opacity: 1; white-space: pre;"> Fat</text></g><g class="textpoint" transform="translate(0,-7.875)"><text x="173.02" y="195.74" text-anchor="middle" style="font-family: 'Open Sans', verdana, arial, sans-serif; font-size: 10px; fill: var(--pst-color-text-base); fill-opacity: 1; white-space: pre;"> Polystyrene</text></g><g class="textpoint" transform="translate(5.375,2.5)"><text x="193.15" y="199.86" text-anchor="start" style="font-family: 'Open Sans', verdana, arial, sans-serif; font-size: 10px; fill: var(--pst-color-text-base); fill-opacity: 1; white-space: pre;"> Polyethylene</text></g><g class="textpoint" transform="translate(5.375,2.5)"><text x="192.8" y="224.66" text-anchor="start" style="font-family: 'Open Sans', verdana, arial, sans-serif; font-size: 10px; fill: var(--pst-color-text-base); fill-opacity: 1; white-space: pre;"> Diesel</text></g><g class="textpoint" transform="translate(5.375,2.5)"><text x="193.5" y="238.94" text-anchor="start" style="font-family: 'Open Sans', verdana, arial, sans-serif; font-size: 10px; fill: var(--pst-color-text-base); fill-opacity: 1; white-space: pre;"> Gasoline</text></g><g class="textpoint" transform="translate(-5.375,2.5)"><text x="178.67" y="244.59" text-anchor="end" style="font-family: 'Open Sans', verdana, arial, sans-serif; font-size: 10px; fill: var(--pst-color-text-base); fill-opacity: 1; white-space: pre;"> Kerosene</text></g><g class="textpoint" transform="translate(5.375,2.5)"><text x="204.8" y="270.12" text-anchor="start" style="font-family: 'Open Sans', verdana, arial, sans-serif; font-size: 10px; fill: var(--pst-color-text-base); fill-opacity: 1; white-space: pre;"> Butane (<tspan style="font-style:italic">l</tspan>)</text></g><g class="textpoint" transform="translate(5.375,2.5)"><text x="206.57" y="281.01" text-anchor="start" style="font-family: 'Open Sans', verdana, arial, sans-serif; font-size: 10px; fill: var(--pst-color-text-base); fill-opacity: 1; white-space: pre;"> Propane (<tspan style="font-style:italic">l</tspan>)</text></g><g class="textpoint" transform="translate(5.375,2.5)"><text x="180.08" y="292.32" text-anchor="start" style="font-family: 'Open Sans', verdana, arial, sans-serif; font-size: 10px; fill: var(--pst-color-text-base); fill-opacity: 1; white-space: pre;"> Li</text></g><g class="textpoint" transform="translate(5.375,2.5)"><text x="223.16" y="295.65" text-anchor="start" style="font-family: 'Open Sans', verdana, arial, sans-serif; font-size: 10px; fill: var(--pst-color-text-base); fill-opacity: 1; white-space: pre;"> Natural Gas (<tspan style="font-style:italic">l</tspan>)</text></g><g class="textpoint" transform="translate(5.375,2.5)"><text x="223.87" y="358.41" text-anchor="start" style="font-family: 'Open Sans', verdana, arial, sans-serif; font-size: 10px; fill: var(--pst-color-text-base); fill-opacity: 1; white-space: pre;"> Natural Gas (250 bar)</text></g><g class="textpoint" transform="translate(5.375,-7.875)"><text x="223.52" y="399.75" text-anchor="start" style="font-family: 'Open Sans', verdana, arial, sans-serif; font-size: 10px; fill: var(--pst-color-text-base); fill-opacity: 1; white-space: pre;"> Natural Gas (1 bar)</text></g><g class="textpoint" transform="translate(-5.375,-7.875)"><text x="596.05" y="352.35" text-anchor="end" style="font-family: 'Open Sans', verdana, arial, sans-serif; font-size: 10px; fill: var(--pst-color-text-base); fill-opacity: 1; white-space: pre;"> Hydrogen (<tspan style="font-style:italic">l</tspan>)</text></g><g class="textpoint" transform="translate(-5.375,-7.875)"><text x="596.4" y="373.02" text-anchor="end" style="font-family: 'Open Sans', verdana, arial, sans-serif; font-size: 10px; fill: var(--pst-color-text-base); fill-opacity: 1; white-space: pre;"> Hydrogen (700 bar)</text></g><g class="textpoint" transform="translate(-5.375,-7.875)"><text x="596.05" y="399.7" text-anchor="end" style="font-family: 'Open Sans', verdana, arial, sans-serif; font-size: 10px; fill: var(--pst-color-text-base); fill-opacity: 1; white-space: pre;"> Hydrogen (1 bar)</text></g><g class="textpoint" transform="translate(5.375,2.5)"><text x="129.24" y="5.26" text-anchor="start" style="font-family: 'Open Sans', verdana, arial, sans-serif; font-size: 10px; fill: var(--pst-color-text-base); fill-opacity: 1; white-space: pre;"> Aluminum</text></g><g class="textpoint" transform="translate(5.375,2.5)"><text x="134.53" y="46.59" text-anchor="start" style="font-family: 'Open Sans', verdana, arial, sans-serif; font-size: 10px; fill: var(--pst-color-text-base); fill-opacity: 1; white-space: pre;"> Silicon</text></g><g class="textpoint" transform="translate(5.375,2.5)"><text x="135.59" y="59.37" text-anchor="start" style="font-family: 'Open Sans', verdana, arial, sans-serif; font-size: 10px; fill: var(--pst-color-text-base); fill-opacity: 1; white-space: pre;"> Anthracite</text></g></g></g></g></g><g class="overplot"/><path class="xlines-above crisp" d="M148.5,430.75H751.5M148.5,29.25H751.5" style="fill: none; stroke-width: 1.5px; stroke: var(--pst-color-text-base); stroke-opacity: 1;"/><path class="ylines-above crisp" d="M149.25,30V430M750.75,30V430" style="fill: none; stroke-width: 1.5px; stroke: var(--pst-color-text-base); stroke-opacity: 1;"/><g class="overlines-above"/><g class="xaxislayer-above"><path class="xtick ticks crisp" d="M0,431.5v8" transform="translate(150,0)" style="stroke: var(--pst-color-text-base); stroke-opacity: 1; stroke-width: 1.5px;"/><path class="xtick ticks crisp" d="M0,431.5v8" transform="translate(233.32999999999998,0)" style="stroke: var(--pst-color-text-base); stroke-opacity: 1; stroke-width: 1.5px;"/><path class="xtick ticks crisp" d="M0,431.5v8" transform="translate(316.66999999999996,0)" style="stroke: var(--pst-color-text-base); stroke-opacity: 1; stroke-width: 1.5px;"/><path class="xtick ticks crisp" d="M0,431.5v8" transform="translate(400,0)" style="stroke: var(--pst-color-text-base); stroke-opacity: 1; stroke-width: 1.5px;"/><path class="xtick ticks crisp" d="M0,431.5v8" transform="translate(483.33,0)" style="stroke: var(--pst-color-text-base); stroke-opacity: 1; stroke-width: 1.5px;"/><path class="xtick ticks crisp" d="M0,431.5v8" transform="translate(566.6700000000001,0)" style="stroke: var(--pst-color-text-base); stroke-opacity: 1; stroke-width: 1.5px;"/><path class="xtick ticks crisp" d="M0,431.5v8" transform="translate(650,0)" style="stroke: var(--pst-color-text-base); stroke-opacity: 1; stroke-width: 1.5px;"/><path class="xtick ticks crisp" d="M0,431.5v8" transform="translate(733.33,0)" style="stroke: var(--pst-color-text-base); stroke-opacity: 1; stroke-width: 1.5px;"/><g class="xtick"><text text-anchor="middle" x="0" y="470.7" transform="translate(150,0)" style="font-family: Helvetica, arial, sans-serif; font-size: 26px; fill: var(--pst-color-text-base); fill-opacity: 1; white-space: pre; opacity: 1;">0</text></g><g class="xtick"><text text-anchor="middle" x="0" y="470.7" style="font-family: Helvetica, arial, sans-serif; font-size: 26px; fill: var(--pst-color-text-base); fill-opacity: 1; white-space: pre; opacity: 1;" transform="translate(233.32999999999998,0)">20</text></g><g class="xtick"><text text-anchor="middle" x="0" y="470.7" style="font-family: Helvetica, arial, sans-serif; font-size: 26px; fill: var(--pst-color-text-base); fill-opacity: 1; white-space: pre; opacity: 1;" transform="translate(316.66999999999996,0)">40</text></g><g class="xtick"><text text-anchor="middle" x="0" y="470.7" style="font-family: Helvetica, arial, sans-serif; font-size: 26px; fill: var(--pst-color-text-base); fill-opacity: 1; white-space: pre; opacity: 1;" transform="translate(400,0)">60</text></g><g class="xtick"><text text-anchor="middle" x="0" y="470.7" style="font-family: Helvetica, arial, sans-serif; font-size: 26px; fill: var(--pst-color-text-base); fill-opacity: 1; white-space: pre; opacity: 1;" transform="translate(483.33,0)">80</text></g><g class="xtick"><text text-anchor="middle" x="0" y="470.7" style="font-family: Helvetica, arial, sans-serif; font-size: 26px; fill: var(--pst-color-text-base); fill-opacity: 1; white-space: pre; opacity: 1;" transform="translate(566.6700000000001,0)">100</text></g><g class="xtick"><text text-anchor="middle" x="0" y="470.7" style="font-family: Helvetica, arial, sans-serif; font-size: 26px; fill: var(--pst-color-text-base); fill-opacity: 1; white-space: pre; opacity: 1;" transform="translate(650,0)">120</text></g><g class="xtick"><text text-anchor="middle" x="0" y="470.7" style="font-family: Helvetica, arial, sans-serif; font-size: 26px; fill: var(--pst-color-text-base); fill-opacity: 1; white-space: pre; opacity: 1;" transform="translate(733.33,0)">140</text></g></g><g class="yaxislayer-above"><path class="ytick ticks crisp" d="M148.5,0h-8" transform="translate(0,430)" style="stroke: var(--pst-color-text-base); stroke-opacity: 1; stroke-width: 1.5px;"/><path class="ytick ticks crisp" d="M148.5,0h-8" transform="translate(0,382.94)" style="stroke: var(--pst-color-text-base); stroke-opacity: 1; stroke-width: 1.5px;"/><path class="ytick ticks crisp" d="M148.5,0h-8" transform="translate(0,335.88)" style="stroke: var(--pst-color-text-base); stroke-opacity: 1; stroke-width: 1.5px;"/><path class="ytick ticks crisp" d="M148.5,0h-8" transform="translate(0,288.82)" style="stroke: var(--pst-color-text-base); stroke-opacity: 1; stroke-width: 1.5px;"/><path class="ytick ticks crisp" d="M148.5,0h-8" transform="translate(0,241.76)" style="stroke: var(--pst-color-text-base); stroke-opacity: 1; stroke-width: 1.5px;"/><path class="ytick ticks crisp" d="M148.5,0h-8" transform="translate(0,194.71)" style="stroke: var(--pst-color-text-base); stroke-opacity: 1; stroke-width: 1.5px;"/><path class="ytick ticks crisp" d="M148.5,0h-8" transform="translate(0,147.65)" style="stroke: var(--pst-color-text-base); stroke-opacity: 1; stroke-width: 1.5px;"/><path class="ytick ticks crisp" d="M148.5,0h-8" transform="translate(0,100.59)" style="stroke: var(--pst-color-text-base); stroke-opacity: 1; stroke-width: 1.5px;"/><path class="ytick ticks crisp" d="M148.5,0h-8" transform="translate(0,53.53)" style="stroke: var(--pst-color-text-base); stroke-opacity: 1; stroke-width: 1.5px;"/><g class="ytick"><text text-anchor="end" x="135.3" y="9.1" transform="translate(0,430)" style="font-family: Helvetica, arial, sans-serif; font-size: 26px; fill: var(--pst-color-text-base); fill-opacity: 1; white-space: pre; opacity: 1;">0</text></g><g class="ytick"><text text-anchor="end" x="135.3" y="9.1" style="font-family: Helvetica, arial, sans-serif; font-size: 26px; fill: var(--pst-color-text-base); fill-opacity: 1; white-space: pre; opacity: 1;" transform="translate(0,382.94)">10</text></g><g class="ytick"><text text-anchor="end" x="135.3" y="9.1" style="font-family: Helvetica, arial, sans-serif; font-size: 26px; fill: var(--pst-color-text-base); fill-opacity: 1; white-space: pre; opacity: 1;" transform="translate(0,335.88)">20</text></g><g class="ytick"><text text-anchor="end" x="135.3" y="9.1" style="font-family: Helvetica, arial, sans-serif; font-size: 26px; fill: var(--pst-color-text-base); fill-opacity: 1; white-space: pre; opacity: 1;" transform="translate(0,288.82)">30</text></g><g class="ytick"><text text-anchor="end" x="135.3" y="9.1" style="font-family: Helvetica, arial, sans-serif; font-size: 26px; fill: var(--pst-color-text-base); fill-opacity: 1; white-space: pre; opacity: 1;" transform="translate(0,241.76)">40</text></g><g class="ytick"><text text-anchor="end" x="135.3" y="9.1" style="font-family: Helvetica, arial, sans-serif; font-size: 26px; fill: var(--pst-color-text-base); fill-opacity: 1; white-space: pre; opacity: 1;" transform="translate(0,194.71)">50</text></g><g class="ytick"><text text-anchor="end" x="135.3" y="9.1" style="font-family: Helvetica, arial, sans-serif; font-size: 26px; fill: var(--pst-color-text-base); fill-opacity: 1; white-space: pre; opacity: 1;" transform="translate(0,147.65)">60</text></g><g class="ytick"><text text-anchor="end" x="135.3" y="9.1" style="font-family: Helvetica, arial, sans-serif; font-size: 26px; fill: var(--pst-color-text-base); fill-opacity: 1; white-space: pre; opacity: 1;" transform="translate(0,100.59)">70</text></g><g class="ytick"><text text-anchor="end" x="135.3" y="9.1" style="font-family: Helvetica, arial, sans-serif; font-size: 26px; fill: var(--pst-color-text-base); fill-opacity: 1; white-space: pre; opacity: 1;" transform="translate(0,53.53)">80</text></g></g><g class="overaxes-above"/></g></g><g class="polarlayer"/><g class="smithlayer"/><g class="ternarylayer"/><g class="geolayer"/><g class="funnelarealayer"/><g class="pielayer"/><g class="iciclelayer"/><g class="treemaplayer"/><g class="sunburstlayer"/><g class="glimages"/><defs id="topdefs-1bbf7f"><g class="clips"/></defs><g class="layer-above"><g class="imagelayer"/><g class="shapelayer"/></g><g class="infolayer"><g class="g-gtitle"/><g class="g-xtitle" transform="translate(0,-20.703125)"><text class="xtitle" x="450" y="524.5" text-anchor="middle" style="font-family: Helvetica, arial, sans-serif; font-size: 28px; fill: var(--pst-color-text-base); opacity: 1; font-weight: normal; white-space: pre;">Specific Energy  (MJ/kg)</text></g><g class="g-ytitle"><text class="ytitle" transform="rotate(-90,83.5,230)" x="83.5" y="230" text-anchor="middle" style="font-family: Helvetica, arial, sans-serif; font-size: 28px; fill: var(--pst-color-text-base); opacity: 1; font-weight: normal; white-space: pre;">Energy Density (MJ/L)</text></g></g></svg>