<svg xmlns="http://www.w3.org/2000/svg" width="780" height="560" class="main-svg">
    <defs>
        <clipPath id="a" class="plotclip">
            <path d="M0 0h480v430H0z" />
        </clipPath>
        <clipPath id="b" class="plotclip">
            <path d="M0 0h480v430H0z" />
        </clipPath>
        <clipPath id="c" class="axesclip">
            <path d="M150 50h480v430H150z" />
        </clipPath>
    </defs>
    <g class="cartesianlayer">
        <g class="subplot xy">
            <g class="plot" clip-path="url(#a)" transform="translate(150 50)">
                <g class="scatterlayer mlayer">
                    <g class="trace scatter trace6a056c" style="stroke-miterlimit:2;opacity:1">
                        <g class="lines">
                            <path d="m0 94.72 480 101.71" class="js-line"
                                style="vector-effect:none;fill:none;stroke:var(--pst-color-text-base);stroke-opacity:1;stroke-dasharray:9px,9px;stroke-width:2px;opacity:1" />
                        </g>
                    </g>
                    <g class="trace scatter trace980724" style="stroke-miterlimit:2;opacity:1">
                        <g class="lines">
                            <path d="m0 245.71 480 101.71" class="js-line"
                                style="vector-effect:none;fill:none;stroke:var(--pst-color-text-base);stroke-opacity:1;stroke-dasharray:9px,9px;stroke-width:2px;opacity:1" />
                        </g>
                    </g>
                </g>
            </g>
            <g class="overplot">
                <g class="xy2" clip-path="url(#b)" transform="translate(150 50)">
                    <g class="scatterlayer mlayer">
                        <g class="trace scatter tracea81727" style="stroke-miterlimit:2;opacity:1">
                            <g class="points">
                                <path d="M3 0a3 3 0 1 1-3-3 3 3 0 0 1 3 3" class="point"
                                    style="opacity:1;stroke-width:0;fill:#4286f4;fill-opacity:1"
                                    transform="translate(0 -614.29)" />
                            </g>
                        </g>
                    </g>
                </g>
            </g>
            <path d="M148.5 480.75h483m-483-431.5h483" class="xlines-above crisp"
                style="fill:none;stroke-width:1.5px;stroke:var(--pst-color-text-base);stroke-opacity:1" />
            <path d="M149.25 50v430m481.5-430v430" class="ylines-above crisp"
                style="fill:none;stroke-width:1.5px;stroke:var(--pst-color-text-base);stroke-opacity:1" />
            <g class="overlines-above">
                <path d="M630.75 50v430M149.25 50v430" class="xy2-y crisp"
                    style="fill:none;stroke-width:1.5px;stroke:var(--pst-color-text-base);stroke-opacity:1" />
            </g>
            <g class="xaxislayer-above">
                <path d="M0 481.5v8m0-441v-8" class="xtick ticks crisp"
                    style="stroke:var(--pst-color-text-base);stroke-opacity:1;stroke-width:1.5px" transform="translate(150)" />
                <path d="M0 481.5v8m0-441v-8" class="xtick ticks crisp"
                    style="stroke:var(--pst-color-text-base);stroke-opacity:1;stroke-width:1.5px" transform="translate(184.29)" />
                <path d="M0 481.5v8m0-441v-8" class="xtick ticks crisp"
                    style="stroke:var(--pst-color-text-base);stroke-opacity:1;stroke-width:1.5px" transform="translate(218.57)" />
                <path d="M0 481.5v8m0-441v-8" class="xtick ticks crisp"
                    style="stroke:var(--pst-color-text-base);stroke-opacity:1;stroke-width:1.5px" transform="translate(252.86)" />
                <path d="M0 481.5v8m0-441v-8" class="xtick ticks crisp"
                    style="stroke:var(--pst-color-text-base);stroke-opacity:1;stroke-width:1.5px" transform="translate(287.14)" />
                <path d="M0 481.5v8m0-441v-8" class="xtick ticks crisp"
                    style="stroke:var(--pst-color-text-base);stroke-opacity:1;stroke-width:1.5px" transform="translate(321.43)" />
                <path d="M0 481.5v8m0-441v-8" class="xtick ticks crisp"
                    style="stroke:var(--pst-color-text-base);stroke-opacity:1;stroke-width:1.5px" transform="translate(355.71)" />
                <path d="M0 481.5v8m0-441v-8" class="xtick ticks crisp"
                    style="stroke:var(--pst-color-text-base);stroke-opacity:1;stroke-width:1.5px" transform="translate(390)" />
                <path d="M0 481.5v8m0-441v-8" class="xtick ticks crisp"
                    style="stroke:var(--pst-color-text-base);stroke-opacity:1;stroke-width:1.5px" transform="translate(424.29)" />
                <path d="M0 481.5v8m0-441v-8" class="xtick ticks crisp"
                    style="stroke:var(--pst-color-text-base);stroke-opacity:1;stroke-width:1.5px" transform="translate(458.57)" />
                <path d="M0 481.5v8m0-441v-8" class="xtick ticks crisp"
                    style="stroke:var(--pst-color-text-base);stroke-opacity:1;stroke-width:1.5px" transform="translate(492.86)" />
                <path d="M0 481.5v8m0-441v-8" class="xtick ticks crisp"
                    style="stroke:var(--pst-color-text-base);stroke-opacity:1;stroke-width:1.5px" transform="translate(527.14)" />
                <path d="M0 481.5v8m0-441v-8" class="xtick ticks crisp"
                    style="stroke:var(--pst-color-text-base);stroke-opacity:1;stroke-width:1.5px" transform="translate(561.43)" />
                <path d="M0 481.5v8m0-441v-8" class="xtick ticks crisp"
                    style="stroke:var(--pst-color-text-base);stroke-opacity:1;stroke-width:1.5px" transform="translate(595.71)" />
                <path d="M0 481.5v8m0-441v-8" class="xtick ticks crisp"
                    style="stroke:var(--pst-color-text-base);stroke-opacity:1;stroke-width:1.5px" transform="translate(630)" /><text y="508.7"
                    class="xtick"
                    style="font-family:Helvetica,arial,sans-serif;font-size:16px;fill:var(--pst-color-text-base);fill-opacity:1; opacity:1"
                    text-anchor="middle" transform="translate(150)">0</text><text y="508.7" class="xtick"
                    style="font-family:Helvetica,arial,sans-serif;font-size:16px;fill:var(--pst-color-text-base);fill-opacity:1; opacity:1"
                    text-anchor="middle" transform="translate(184.29)">1</text><text y="508.7" class="xtick"
                    style="font-family:Helvetica,arial,sans-serif;font-size:16px;fill:var(--pst-color-text-base);fill-opacity:1; opacity:1"
                    text-anchor="middle" transform="translate(218.57)">2</text><text y="508.7" class="xtick"
                    style="font-family:Helvetica,arial,sans-serif;font-size:16px;fill:var(--pst-color-text-base);fill-opacity:1; opacity:1"
                    text-anchor="middle" transform="translate(252.86)">3</text><text y="508.7" class="xtick"
                    style="font-family:Helvetica,arial,sans-serif;font-size:16px;fill:var(--pst-color-text-base);fill-opacity:1; opacity:1"
                    text-anchor="middle" transform="translate(287.14)">4</text><text y="508.7" class="xtick"
                    style="font-family:Helvetica,arial,sans-serif;font-size:16px;fill:var(--pst-color-text-base);fill-opacity:1; opacity:1"
                    text-anchor="middle" transform="translate(321.43)">5</text><text y="508.7" class="xtick"
                    style="font-family:Helvetica,arial,sans-serif;font-size:16px;fill:var(--pst-color-text-base);fill-opacity:1; opacity:1"
                    text-anchor="middle" transform="translate(355.71)">6</text><text y="508.7" class="xtick"
                    style="font-family:Helvetica,arial,sans-serif;font-size:16px;fill:var(--pst-color-text-base);fill-opacity:1; opacity:1"
                    text-anchor="middle" transform="translate(390)">7</text><text y="508.7" class="xtick"
                    style="font-family:Helvetica,arial,sans-serif;font-size:16px;fill:var(--pst-color-text-base);fill-opacity:1; opacity:1"
                    text-anchor="middle" transform="translate(424.29)">8</text><text y="508.7" class="xtick"
                    style="font-family:Helvetica,arial,sans-serif;font-size:16px;fill:var(--pst-color-text-base);fill-opacity:1; opacity:1"
                    text-anchor="middle" transform="translate(458.57)">9</text><text y="508.7" class="xtick"
                    style="font-family:Helvetica,arial,sans-serif;font-size:16px;fill:var(--pst-color-text-base);fill-opacity:1; opacity:1"
                    text-anchor="middle" transform="translate(492.86)">10</text><text y="508.7" class="xtick"
                    style="font-family:Helvetica,arial,sans-serif;font-size:16px;fill:var(--pst-color-text-base);fill-opacity:1; opacity:1"
                    text-anchor="middle" transform="translate(527.14)">11</text><text y="508.7" class="xtick"
                    style="font-family:Helvetica,arial,sans-serif;font-size:16px;fill:var(--pst-color-text-base);fill-opacity:1; opacity:1"
                    text-anchor="middle" transform="translate(561.43)">12</text><text y="508.7" class="xtick"
                    style="font-family:Helvetica,arial,sans-serif;font-size:16px;fill:var(--pst-color-text-base);fill-opacity:1; opacity:1"
                    text-anchor="middle" transform="translate(595.71)">13</text><text y="508.7" class="xtick"
                    style="font-family:Helvetica,arial,sans-serif;font-size:16px;fill:var(--pst-color-text-base);fill-opacity:1; opacity:1"
                    text-anchor="middle" transform="translate(630)">14</text>
            </g>
            <g class="yaxislayer-above">
                <path d="M148.5 0h-8m491 0h8" class="ytick ticks crisp"
                    style="stroke:var(--pst-color-text-base);stroke-opacity:1;stroke-width:1.5px" transform="translate(0 480)" />
                <path d="M148.5 0h-8m491 0h8" class="ytick ticks crisp"
                    style="stroke:var(--pst-color-text-base);stroke-opacity:1;stroke-width:1.5px" transform="translate(0 418.57)" />
                <path d="M148.5 0h-8m491 0h8" class="ytick ticks crisp"
                    style="stroke:var(--pst-color-text-base);stroke-opacity:1;stroke-width:1.5px" transform="translate(0 357.14)" />
                <path d="M148.5 0h-8m491 0h8" class="ytick ticks crisp"
                    style="stroke:var(--pst-color-text-base);stroke-opacity:1;stroke-width:1.5px" transform="translate(0 295.71)" />
                <path d="M148.5 0h-8m491 0h8" class="ytick ticks crisp"
                    style="stroke:var(--pst-color-text-base);stroke-opacity:1;stroke-width:1.5px" transform="translate(0 234.29)" />
                <path d="M148.5 0h-8m491 0h8" class="ytick ticks crisp"
                    style="stroke:var(--pst-color-text-base);stroke-opacity:1;stroke-width:1.5px" transform="translate(0 172.86)" />
                <path d="M148.5 0h-8m491 0h8" class="ytick ticks crisp"
                    style="stroke:var(--pst-color-text-base);stroke-opacity:1;stroke-width:1.5px" transform="translate(0 111.43)" />
                <path d="M148.5 0h-8m491 0h8" class="ytick ticks crisp"
                    style="stroke:var(--pst-color-text-base);stroke-opacity:1;stroke-width:1.5px" transform="translate(0 50)" /><text
                    x="137.3" y="5.6" class="ytick"
                    style="font-family:Helvetica,arial,sans-serif;font-size:16px;fill:var(--pst-color-text-base);fill-opacity:1; opacity:1"
                    text-anchor="end" transform="translate(0 480)">−1.5</text><text x="137.3" y="5.6" class="ytick"
                    style="font-family:Helvetica,arial,sans-serif;font-size:16px;fill:var(--pst-color-text-base);fill-opacity:1; opacity:1"
                    text-anchor="end" transform="translate(0 418.57)">−1</text><text x="137.3" y="5.6" class="ytick"
                    style="font-family:Helvetica,arial,sans-serif;font-size:16px;fill:var(--pst-color-text-base);fill-opacity:1; opacity:1"
                    text-anchor="end" transform="translate(0 357.14)">−0.5</text><text x="137.3" y="5.6" class="ytick"
                    style="font-family:Helvetica,arial,sans-serif;font-size:16px;fill:var(--pst-color-text-base);fill-opacity:1; opacity:1"
                    text-anchor="end" transform="translate(0 295.71)">0</text><text x="137.3" y="5.6" class="ytick"
                    style="font-family:Helvetica,arial,sans-serif;font-size:16px;fill:var(--pst-color-text-base);fill-opacity:1; opacity:1"
                    text-anchor="end" transform="translate(0 234.29)">0.5</text><text x="137.3" y="5.6" class="ytick"
                    style="font-family:Helvetica,arial,sans-serif;font-size:16px;fill:var(--pst-color-text-base);fill-opacity:1; opacity:1"
                    text-anchor="end" transform="translate(0 172.86)">1</text><text x="137.3" y="5.6" class="ytick"
                    style="font-family:Helvetica,arial,sans-serif;font-size:16px;fill:var(--pst-color-text-base);fill-opacity:1; opacity:1"
                    text-anchor="end" transform="translate(0 111.43)">1.5</text><text x="137.3" y="5.6" class="ytick"
                    style="font-family:Helvetica,arial,sans-serif;font-size:16px;fill:var(--pst-color-text-base);fill-opacity:1; opacity:1"
                    text-anchor="end" transform="translate(0 50)">2</text>
            </g>
            <g class="overaxes-above">
                <g class="xy2-y">
                    <path d="M631.5 0h8m-491 0h-8" class="y2tick ticks crisp"
                        style="stroke:var(--pst-color-text-base);stroke-opacity:1;stroke-width:1.5px" transform="translate(0 480)" />
                    <path d="M631.5 0h8m-491 0h-8" class="y2tick ticks crisp"
                        style="stroke:var(--pst-color-text-base);stroke-opacity:1;stroke-width:1.5px" transform="translate(0 418.57)" />
                    <path d="M631.5 0h8m-491 0h-8" class="y2tick ticks crisp"
                        style="stroke:var(--pst-color-text-base);stroke-opacity:1;stroke-width:1.5px" transform="translate(0 357.14)" />
                    <path d="M631.5 0h8m-491 0h-8" class="y2tick ticks crisp"
                        style="stroke:var(--pst-color-text-base);stroke-opacity:1;stroke-width:1.5px" transform="translate(0 295.71)" />
                    <path d="M631.5 0h8m-491 0h-8" class="y2tick ticks crisp"
                        style="stroke:var(--pst-color-text-base);stroke-opacity:1;stroke-width:1.5px" transform="translate(0 234.29)" />
                    <path d="M631.5 0h8m-491 0h-8" class="y2tick ticks crisp"
                        style="stroke:var(--pst-color-text-base);stroke-opacity:1;stroke-width:1.5px" transform="translate(0 172.86)" />
                    <path d="M631.5 0h8m-491 0h-8" class="y2tick ticks crisp"
                        style="stroke:var(--pst-color-text-base);stroke-opacity:1;stroke-width:1.5px" transform="translate(0 111.43)" />
                    <path d="M631.5 0h8m-491 0h-8" class="y2tick ticks crisp"
                        style="stroke:var(--pst-color-text-base);stroke-opacity:1;stroke-width:1.5px" transform="translate(0 50)" /><text
                        x="642.7" y="5.6" class="y2tick"
                        style="font-family:Helvetica,arial,sans-serif;font-size:16px;fill:var(--pst-color-text-base);fill-opacity:1; opacity:1"
                        transform="translate(0 480)">-1.5</text><text x="642.7" y="5.6" class="y2tick"
                        style="font-family:Helvetica,arial,sans-serif;font-size:16px;fill:var(--pst-color-text-base);fill-opacity:1; opacity:1"
                        transform="translate(0 418.57)">-1.0</text><text x="642.7" y="5.6" class="y2tick"
                        style="font-family:Helvetica,arial,sans-serif;font-size:16px;fill:var(--pst-color-text-base);fill-opacity:1; opacity:1"
                        transform="translate(0 357.14)">-0.5</text><text x="642.7" y="5.6" class="y2tick"
                        style="font-family:Helvetica,arial,sans-serif;font-size:16px;fill:var(--pst-color-text-base);fill-opacity:1; opacity:1"
                        transform="translate(0 295.71)">0.0</text><text x="642.7" y="5.6" class="y2tick"
                        style="font-family:Helvetica,arial,sans-serif;font-size:16px;fill:var(--pst-color-text-base);fill-opacity:1; opacity:1"
                        transform="translate(0 234.29)">0.5</text><text x="642.7" y="5.6" class="y2tick"
                        style="font-family:Helvetica,arial,sans-serif;font-size:16px;fill:var(--pst-color-text-base);fill-opacity:1; opacity:1"
                        transform="translate(0 172.86)">1.0</text><text x="642.7" y="5.6" class="y2tick"
                        style="font-family:Helvetica,arial,sans-serif;font-size:16px;fill:var(--pst-color-text-base);fill-opacity:1; opacity:1"
                        transform="translate(0 111.43)">1.5</text><text x="642.7" y="5.6" class="y2tick"
                        style="font-family:Helvetica,arial,sans-serif;font-size:16px;fill:var(--pst-color-text-base);fill-opacity:1; opacity:1"
                        transform="translate(0 50)">2.0</text>
                </g>
            </g>
        </g>
    </g>
    <g class="layer-above">
        <g class="shapelayer">
            <g class="shape-group" clip-path="url(#c)" data-index="0">
                <path fill="none" d="M287.14 173.78v14.53" data-index="0"
                    style="opacity:1;stroke:orange;stroke-opacity:1;fill:var(--pst-color-text-base);fill-opacity:0;stroke-width:2px" />
            </g>
            <g class="shape-group" clip-path="url(#c)" data-index="1">
                <path fill="none" d="M287.14 188.31h68.57" data-index="1"
                    style="opacity:1;stroke:orange;stroke-opacity:1;fill:var(--pst-color-text-base);fill-opacity:0;stroke-width:2px" />
            </g>
        </g>
    </g>
    <g class="infolayer">
        <g class="g-xtitle"><text x="390" y="574.5" class="xtitle"
                style="font-family:Helvetica,arial,sans-serif;font-size:28px;fill:var(--pst-color-text-base);opacity:1; "
                text-anchor="middle" transform="translate(0 -21)">pH</text></g>
        <g class="g-ytitle"><text x="83.5" y="265" class="ytitle"
                style="font-family:Helvetica,arial,sans-serif;font-size:28px;fill:var(--pst-color-text-base);opacity:1; "
                text-anchor="middle" transform="rotate(-90 83.5 265)">E (V)</text></g>
        <g class="annotation" data-index="0" style="opacity:1">
            <g class="annotation-text-g">
                <g class="cursor-pointer">
                    <path fill="none" d="M.5.5h27v20H.5z" class="bg"
                        style="stroke-width:1px;stroke:var(--pst-color-text-base);stroke-opacity:0;fill:var(--pst-color-text-base);fill-opacity:0"
                        transform="translate(376 224)" /><text x="13.906" y="14" class="annotation-text"
                        style="font-family:&quot;Open Sans&quot;,verdana,arial,sans-serif;font-size:12px;fill:var(--pst-color-text-base);fill-opacity:1; "
                        text-anchor="middle" transform="translate(376 254)">H​<tspan dy=".3em" style="font-size:70%">2
                        </tspan>
                        <tspan dy="-.21em">​</tspan>O
                    </text>
                </g>
            </g>
        </g>
        <g class="annotation" data-index="1" style="opacity:1">
            <g class="annotation-text-g">
                <g class="cursor-pointer">
                    <path fill="none" d="M.5.5h18v20H.5z" class="bg"
                        style="stroke-width:1px;stroke:var(--pst-color-text-base);stroke-opacity:0;fill:var(--pst-color-text-base);fill-opacity:0"
                        transform="translate(381 101)" /><text x="9.406" y="14" class="annotation-text"
                        style="font-family:&quot;Open Sans&quot;,verdana,arial,sans-serif;font-size:12px;fill:var(--pst-color-text-base);fill-opacity:1; "
                        text-anchor="middle" transform="translate(381 101)">O​<tspan dy=".3em" style="font-size:70%">2
                        </tspan>
                        <tspan dy="-.21em">​</tspan>
                    </text>
                </g>
            </g>
        </g>
        <g class="annotation" data-index="2" style="opacity:1">
            <g class="annotation-text-g">
                <g class="cursor-pointer">
                    <path fill="none" d="M.5.5h17v20H.5z" class="bg"
                        style="stroke-width:1px;stroke:var(--pst-color-text-base);stroke-opacity:0;fill:var(--pst-color-text-base);fill-opacity:0"
                        transform="translate(381 408)" /><text x="9.188" y="14" class="annotation-text"
                        style="font-family:&quot;Open Sans&quot;,verdana,arial,sans-serif;font-size:12px;fill:var(--pst-color-text-base);fill-opacity:1; "
                        text-anchor="middle" transform="translate(381 408)">H​<tspan dy=".3em" style="font-size:70%">2
                        </tspan>
                        <tspan dy="-.21em">​</tspan>
                    </text>
                </g>
            </g>
        </g>
        <g class="annotation" data-index="3" style="opacity:1">
            <g class="annotation-text-g">
                <g class="cursor-pointer">
                    <path fill="none" d="M.5.5h122v18H.5z" class="bg"
                        style="stroke-width:1px;stroke:var(--pst-color-text-base);stroke-opacity:0;fill:var(--pst-color-text-base);fill-opacity:0"
                        transform="translate(226 188)" /><text x="61.484" y="14" class="annotation-text"
                        style="font-family:&quot;Open Sans&quot;,verdana,arial,sans-serif;font-size:12px;fill:var(--pst-color-text-base);fill-opacity:1; "
                        text-anchor="middle" transform="translate(226 188)">slope = 0.059 V/pH</text>
                </g>
            </g>
        </g>
        <g class="annotation" data-index="4" style="opacity:1">
            <g class="annotation-text-g">
                <g class="cursor-pointer">
                    <path fill="none" d="M.5.5h170v21H.5z" class="bg"
                        style="stroke-width:1px;stroke:var(--pst-color-text-base);stroke-opacity:0;fill:var(--pst-color-text-base);fill-opacity:0"
                        transform="rotate(12 -491.024 793.367)" /><text x="85.328" y="15.547" class="annotation-text"
                        style="font-family:&quot;Open Sans&quot;,verdana,arial,sans-serif;font-size:12px;fill:var(--pst-color-text-base);fill-opacity:1; "
                        text-anchor="middle" transform="rotate(12 -491.024 793.367) translate(15,0)">O​<tspan dy=".3em"
                            style="font-size:70%">2</tspan>
                        <tspan dy="-.21em">​</tspan> + 4 H​<tspan dy="-.6em" style="font-size:70%">+</tspan>
                        <tspan dy=".42em">​</tspan> + 4 e​<tspan dy="-.6em" style="font-size:70%">-</tspan>
                        <tspan dy=".42em">​</tspan> --&gt; 2 H​<tspan dy=".3em" style="font-size:70%">2</tspan>
                        <tspan dy="-.21em">​</tspan>O
                    </text>
                </g>
            </g>
        </g>
        <g class="annotation" data-index="5" style="opacity:1">
            <g class="annotation-text-g">
                <g class="cursor-pointer">
                    <path fill="none" d="M.5.5h178v21H.5z" class="bg"
                        style="stroke-width:1px;stroke:var(--pst-color-text-base);stroke-opacity:0;fill:var(--pst-color-text-base);fill-opacity:0"
                        transform="rotate(12 -635.18 2227.156)" /><text x="89.281" y="15.547" class="annotation-text"
                        style="font-family:&quot;Open Sans&quot;,verdana,arial,sans-serif;font-size:12px;fill:var(--pst-color-text-base);fill-opacity:1; "
                        text-anchor="middle" transform="rotate(12 -635.18 2227.156)">O​<tspan dy=".3em"
                            style="font-size:70%">2</tspan>
                        <tspan dy="-.21em">​</tspan> + 2 H​<tspan dy=".3em" style="font-size:70%">2</tspan>
                        <tspan dy="-.21em">​</tspan>O + 4 e​<tspan dy="-.6em" style="font-size:70%">-</tspan>
                        <tspan dy=".42em">​</tspan> --&gt; 4 OH​<tspan dy="-.6em" style="font-size:70%">–</tspan>
                        <tspan dy=".42em">​</tspan>
                    </text>
                </g>
            </g>
        </g>
        <g class="annotation" data-index="6" style="opacity:1">
            <g class="annotation-text-g">
                <g class="cursor-pointer">
                    <path fill="none" d="M.5.5h111v21H.5z" class="bg"
                        style="stroke-width:1px;stroke:var(--pst-color-text-base);stroke-opacity:0;fill:var(--pst-color-text-base);fill-opacity:0"
                        transform="rotate(12 -1225.437 862.03)" /><text x="56.047" y="15.547" class="annotation-text"
                        style="font-family:&quot;Open Sans&quot;,verdana,arial,sans-serif;font-size:12px;fill:var(--pst-color-text-base);fill-opacity:1; "
                        text-anchor="middle" transform="rotate(12 -1225.437 862.03) translate(15,0)">2H​<tspan dy="-.6em"
                            style="font-size:70%">+</tspan>
                        <tspan dy=".42em">​</tspan> + 2 e​<tspan dy="-.6em" style="font-size:70%">-</tspan>
                        <tspan dy=".42em">​</tspan> --&gt; H​<tspan dy=".3em" style="font-size:70%">2</tspan>
                        <tspan dy="-.21em">​</tspan>
                    </text>
                </g>
            </g>
        </g>
        <g class="annotation" data-index="7" style="opacity:1">
            <g class="annotation-text-g">
                <g class="cursor-pointer">
                    <path fill="none" d="M.5.5h179v21H.5z" class="bg"
                        style="stroke-width:1px;stroke:var(--pst-color-text-base);stroke-opacity:0;fill:var(--pst-color-text-base);fill-opacity:0"
                        transform="rotate(12 -1367.818 2251.907)" /><text x="89.828" y="15.547" class="annotation-text"
                        style="font-family:&quot;Open Sans&quot;,verdana,arial,sans-serif;font-size:12px;fill:var(--pst-color-text-base);fill-opacity:1; "
                        text-anchor="middle" transform="rotate(12 -1367.818 2251.907)">2 H​<tspan dy=".3em"
                            style="font-size:70%">2</tspan>
                        <tspan dy="-.21em">​</tspan>O + 2 e​<tspan dy="-.6em" style="font-size:70%">–</tspan>
                        <tspan dy=".42em">​</tspan> --&gt; H​<tspan dy=".3em" style="font-size:70%">2</tspan>
                        <tspan dy="-.21em">​</tspan> + 2 OH​<tspan dy="-.6em" style="font-size:70%">–</tspan>
                        <tspan dy=".42em">​</tspan>
                    </text>
                </g>
            </g>
        </g>
    </g>
</svg>