<svg class="main-svg" xmlns="http://www.w3.org/2000/svg" xmlns:xlink="http://www.w3.org/1999/xlink" width="100%"
    height="100%" style="" viewBox="0 0 780 510">
    <rect x="0" y="0" width="780" height="510" style="fill: rgb(0, 0, 0); fill-opacity: 0;" />
    <defs id="defs-80a009">
        <g class="clips">
            <clipPath id="clip80a009xyplot" class="plotclip">
                <rect width="480" height="400" />
            </clipPath>
            <clipPath class="axesclip" id="clip80a009x">
                <rect x="150" y="0" width="480" height="510" />
            </clipPath>
            <clipPath class="axesclip" id="clip80a009y">
                <rect x="0" y="30" width="780" height="400" />
            </clipPath>
            <clipPath class="axesclip" id="clip80a009xy">
                <rect x="150" y="30" width="480" height="400" />
            </clipPath>
        </g>
        <g class="gradients" />
        <g class="patterns" />
    </defs>
    <g class="bglayer">
        <rect class="bg" x="150" y="30" width="480" height="400"
            style="fill: rgb(0, 0, 0); fill-opacity: 0; stroke-width: 0;" />
    </g>
    <g class="layer-below">
        <g class="imagelayer" />
        <g class="shapelayer" />
    </g>
    <g class="cartesianlayer">
        <g class="subplot xy">
            <g class="layer-subplot">
                <g class="shapelayer" />
                <g class="imagelayer" />
            </g>
            <g class="minor-gridlayer">
                <g class="x" />
                <g class="y" />
            </g>
            <g class="gridlayer">
                <g class="x" />
                <g class="y" />
            </g>
            <g class="zerolinelayer" />
            <path class="xlines-below" />
            <path class="ylines-below" />
            <g class="overlines-below" />
            <g class="xaxislayer-below" />
            <g class="yaxislayer-below" />
            <g class="overaxes-below" />
            <g class="plot" transform="translate(150,30)" clip-path="url(#clip80a009xyplot)">
                <g class="scatterlayer mlayer">
                    <g class="trace scatter trace07f185" style="stroke-miterlimit: 2; opacity: 1;">
                        <g class="fills" />
                        <g class="errorbars" />
                        <g class="lines">
                            <path class="js-line"
                                d="M0,15.38L0.73,42.53L0.78,42.62L2.58,44.47L2.74,44.56L7.08,46.04L7.52,46.13L18.06,47.51L19.14,47.61L46.9,49.08L49.49,49.18L120.91,50.84L126.37,50.93L428.09,56.1L430.24,56.19L457.49,58.22L458.1,58.32L465.18,60.16L465.36,60.26L467.46,62.19L467.51,62.29L468.21,65.7L468.21,65.79L468.29,81.4L468.29,81.49L468.29,476.92"
                                style="vector-effect: none; fill: none; stroke: rgb(248, 151, 31); stroke-opacity: 1; stroke-width: 2px; opacity: 1;" />
                        </g>
                        <g class="points" />
                        <g class="text" />
                    </g>
                </g>
            </g>
            <g class="overplot" />
            <path class="xlines-above crisp" d="M148.5,430.75H631.5M148.5,29.25H631.5"
                style="fill: none; stroke-width: 1.5px; stroke: var(--pst-color-text-base); stroke-opacity: 1;" />
            <path class="ylines-above crisp" d="M149.25,30V430M630.75,30V430"
                style="fill: none; stroke-width: 1.5px; stroke: var(--pst-color-text-base); stroke-opacity: 1;" />
            <g class="overlines-above" />
            <g class="xaxislayer-above">
                <path class="xtick ticks crisp" d="M0,431.5v8" transform="translate(150,0)"
                    style="stroke: var(--pst-color-text-base); stroke-opacity: 1; stroke-width: 1.5px;" />
                <path class="xtick ticks crisp" d="M0,431.5v8" transform="translate(243.66,0)"
                    style="stroke: var(--pst-color-text-base); stroke-opacity: 1; stroke-width: 1.5px;" />
                <path class="xtick ticks crisp" d="M0,431.5v8" transform="translate(337.32,0)"
                    style="stroke: var(--pst-color-text-base); stroke-opacity: 1; stroke-width: 1.5px;" />
                <path class="xtick ticks crisp" d="M0,431.5v8" transform="translate(430.98,0)"
                    style="stroke: var(--pst-color-text-base); stroke-opacity: 1; stroke-width: 1.5px;" />
                <path class="xtick ticks crisp" d="M0,431.5v8" transform="translate(524.63,0)"
                    style="stroke: var(--pst-color-text-base); stroke-opacity: 1; stroke-width: 1.5px;" />
                <path class="xtick ticks crisp" d="M0,431.5v8" transform="translate(618.29,0)"
                    style="stroke: var(--pst-color-text-base); stroke-opacity: 1; stroke-width: 1.5px;" />
                <g class="xtick"><text text-anchor="middle" x="0" y="470.7" transform="translate(150,0)"
                        style="font-family: Helvetica, arial, sans-serif; font-size: 26px; fill: var(--pst-color-text-base); fill-opacity: 1; white-space: pre; opacity: 1;">0</text>
                </g>
                <g class="xtick"><text text-anchor="middle" x="0" y="470.7"
                        style="font-family: Helvetica, arial, sans-serif; font-size: 26px; fill: var(--pst-color-text-base); fill-opacity: 1; white-space: pre; opacity: 1;"
                        transform="translate(243.66,0)">0.2</text></g>
                <g class="xtick"><text text-anchor="middle" x="0" y="470.7"
                        style="font-family: Helvetica, arial, sans-serif; font-size: 26px; fill: var(--pst-color-text-base); fill-opacity: 1; white-space: pre; opacity: 1;"
                        transform="translate(337.32,0)">0.4</text></g>
                <g class="xtick"><text text-anchor="middle" x="0" y="470.7"
                        style="font-family: Helvetica, arial, sans-serif; font-size: 26px; fill: var(--pst-color-text-base); fill-opacity: 1; white-space: pre; opacity: 1;"
                        transform="translate(430.98,0)">0.6</text></g>
                <g class="xtick"><text text-anchor="middle" x="0" y="470.7"
                        style="font-family: Helvetica, arial, sans-serif; font-size: 26px; fill: var(--pst-color-text-base); fill-opacity: 1; white-space: pre; opacity: 1;"
                        transform="translate(524.63,0)">0.8</text></g>
                <g class="xtick"><text text-anchor="middle" x="0" y="470.7"
                        style="font-family: Helvetica, arial, sans-serif; font-size: 26px; fill: var(--pst-color-text-base); fill-opacity: 1; white-space: pre; opacity: 1;"
                        transform="translate(618.29,0)">1</text></g>
            </g>
            <g class="yaxislayer-above">
                <path class="ytick ticks crisp" d="M148.5,0h-8" transform="translate(0,430)"
                    style="stroke: var(--pst-color-text-base); stroke-opacity: 1; stroke-width: 1.5px;" />
                <path class="ytick ticks crisp" d="M148.5,0h-8" transform="translate(0,353.08)"
                    style="stroke: var(--pst-color-text-base); stroke-opacity: 1; stroke-width: 1.5px;" />
                <path class="ytick ticks crisp" d="M148.5,0h-8" transform="translate(0,276.15)"
                    style="stroke: var(--pst-color-text-base); stroke-opacity: 1; stroke-width: 1.5px;" />
                <path class="ytick ticks crisp" d="M148.5,0h-8" transform="translate(0,199.23)"
                    style="stroke: var(--pst-color-text-base); stroke-opacity: 1; stroke-width: 1.5px;" />
                <path class="ytick ticks crisp" d="M148.5,0h-8" transform="translate(0,122.31)"
                    style="stroke: var(--pst-color-text-base); stroke-opacity: 1; stroke-width: 1.5px;" />
                <path class="ytick ticks crisp" d="M148.5,0h-8" transform="translate(0,45.38)"
                    style="stroke: var(--pst-color-text-base); stroke-opacity: 1; stroke-width: 1.5px;" />
                <g class="ytick"><text text-anchor="end" x="135.3" y="9.1" transform="translate(0,430)"
                        style="font-family: Helvetica, arial, sans-serif; font-size: 26px; fill: var(--pst-color-text-base); fill-opacity: 1; white-space: pre; opacity: 1;">0.5</text>
                </g>
                <g class="ytick"><text text-anchor="end" x="135.3" y="9.1"
                        style="font-family: Helvetica, arial, sans-serif; font-size: 26px; fill: var(--pst-color-text-base); fill-opacity: 1; white-space: pre; opacity: 1;"
                        transform="translate(0,353.08)">1</text></g>
                <g class="ytick"><text text-anchor="end" x="135.3" y="9.1"
                        style="font-family: Helvetica, arial, sans-serif; font-size: 26px; fill: var(--pst-color-text-base); fill-opacity: 1; white-space: pre; opacity: 1;"
                        transform="translate(0,276.15)">1.5</text></g>
                <g class="ytick"><text text-anchor="end" x="135.3" y="9.1"
                        style="font-family: Helvetica, arial, sans-serif; font-size: 26px; fill: var(--pst-color-text-base); fill-opacity: 1; white-space: pre; opacity: 1;"
                        transform="translate(0,199.23)">2</text></g>
                <g class="ytick"><text text-anchor="end" x="135.3" y="9.1"
                        style="font-family: Helvetica, arial, sans-serif; font-size: 26px; fill: var(--pst-color-text-base); fill-opacity: 1; white-space: pre; opacity: 1;"
                        transform="translate(0,122.31)">2.5</text></g>
                <g class="ytick"><text text-anchor="end" x="135.3" y="9.1"
                        style="font-family: Helvetica, arial, sans-serif; font-size: 26px; fill: var(--pst-color-text-base); fill-opacity: 1; white-space: pre; opacity: 1;"
                        transform="translate(0,45.38)">3</text></g>
            </g>
            <g class="overaxes-above" />
        </g>
    </g>
    <g class="polarlayer" />
    <g class="smithlayer" />
    <g class="ternarylayer" />
    <g class="geolayer" />
    <g class="funnelarealayer" />
    <g class="pielayer" />
    <g class="iciclelayer" />
    <g class="treemaplayer" />
    <g class="sunburstlayer" />
    <g class="glimages" />
    <defs id="topdefs-80a009">
        <g class="clips" />
    </defs>
    <g class="layer-above">
        <g class="imagelayer" />
        <g class="shapelayer" />
    </g>
    <g class="infolayer">
        <g class="g-gtitle" />
        <g class="g-xtitle" transform="translate(0,-24.890625)"><text class="xtitle" x="370" y="524.5"
                text-anchor="middle"
                style="font-family: Helvetica, arial, sans-serif; font-size: 28px; fill: var(--pst-color-text-base); opacity: 1; font-weight: normal; white-space: pre;">
                <tspan style="font-style:italic">x</tspan> in <tspan style="font-style:italic">(1-x)</tspan> Li  + (1-<tspan style="font-style:italic">x</tspan>)/​<tspan style="font-size:80%" dy="0.1em">2</tspan><tspan dy="-0.11em">​</tspan> I​<tspan style="font-size:70%" dy="0.3em">2</tspan> <tspan dy="-0.21em">​</tspan> --> <tspan style="font-style:italic">x</tspan> LiI<tspan dy="-0.21em">​</tspan> 
            </text></g>
        <g class="g-ytitle"><text class="ytitle" transform="rotate(-90,83.5,230)" x="83.5" y="230" text-anchor="middle"
                style="font-family: Helvetica, arial, sans-serif; font-size: 28px; fill: var(--pst-color-text-base); opacity: 1; font-weight: normal; white-space: pre;">Voltage (V)</text></g>
    </g>
</svg>