<svg width="100%" height="100%" viewBox="0 0 773 189" version="1.1" xmlns="http://www.w3.org/2000/svg" xmlns:xlink="http://www.w3.org/1999/xlink" xml:space="preserve" xmlns:serif="http://www.serif.com/" style="fill-rule:evenodd;clip-rule:evenodd;stroke-linejoin:round;stroke-miterlimit:2;">
    <rect id="oxychlorination" x="0" y="-0" width="772.272" height="188.795" style="fill:none;"/>
    <g>
        <path d="M178.518,73.859L179.012,72.014L180.858,71.519L221.622,112.284L221.128,114.129L219.283,114.624L178.518,73.859Z" style="fill: var(--pst-color-text-base);fill-rule:nonzero;"/>
        <path d="M225.502,101.002L192.14,67.64L189.8,69.98L223.162,103.342L225.502,101.002Z" style="fill: var(--pst-color-text-base);"/>
        <path d="M112.183,99.134L112.183,75.448L115.317,75.448L115.317,85.175L127.629,85.175L127.629,75.448L130.763,75.448L130.763,99.134L127.629,99.134L127.629,87.97L115.317,87.97L115.317,99.134L112.183,99.134Z" style="fill: var(--pst-color-text-base);fill-rule:nonzero;"/>
        <path d="M185.129,26.188L185.129,2.502L188.264,2.502L188.264,12.229L200.575,12.229L200.575,2.502L203.71,2.502L203.71,26.188L200.575,26.188L200.575,15.024L188.264,15.024L188.264,26.188L185.129,26.188Z" style="fill: var(--pst-color-text-base);fill-rule:nonzero;"/>
        <path d="M269.361,110.419L269.361,86.733L272.495,86.733L272.495,96.46L284.807,96.46L284.807,86.733L287.941,86.733L287.941,110.419L284.807,110.419L284.807,99.255L272.495,99.255L272.495,110.419L269.361,110.419Z" style="fill: var(--pst-color-text-base);fill-rule:nonzero;"/>
        <path d="M196.414,183.366L196.414,159.68L199.549,159.68L199.549,169.406L211.86,169.406L211.86,159.68L214.995,159.68L214.995,183.366L211.86,183.366L211.86,172.201L199.549,172.201L199.549,183.366L196.414,183.366Z" style="fill: var(--pst-color-text-base);fill-rule:nonzero;"/>
        <path d="M177.661,70.663L179.012,72.014L178.518,73.859L139.495,84.315L138.639,81.119L177.661,70.663Z" style="fill: var(--pst-color-text-base);fill-rule:nonzero;"/>
        <path d="M180.858,71.519L179.012,72.014L177.661,70.663L187.522,33.863L190.718,34.719L180.858,71.519Z" style="fill: var(--pst-color-text-base);fill-rule:nonzero;"/>
        <path d="M222.479,115.48L221.128,114.129L221.622,112.284L260.198,101.948L261.054,105.144L222.479,115.48Z" style="fill: var(--pst-color-text-base);fill-rule:nonzero;"/>
        <path d="M219.283,114.624L221.128,114.129L222.479,115.48L212.585,152.406L209.388,151.55L219.283,114.624Z" style="fill: var(--pst-color-text-base);fill-rule:nonzero;"/>
    </g>
    <path d="M7.944,101.473L7.944,77.787L11.078,77.787L11.078,87.513L23.39,87.513L23.39,77.787L26.524,77.787L26.524,101.473L23.39,101.473L23.39,90.308L11.078,90.308L11.078,101.473L7.944,101.473Z" style="fill: var(--pst-color-text-base);fill-rule:nonzero;"/>
    <path d="M48.641,93.168L51.776,93.96C51.119,96.534 49.937,98.497 48.229,99.849C46.522,101.201 44.435,101.877 41.969,101.877C39.416,101.877 37.34,101.357 35.74,100.318C34.141,99.278 32.924,97.773 32.089,95.802C31.254,93.831 30.837,91.714 30.837,89.452C30.837,86.985 31.308,84.834 32.25,82.997C33.193,81.161 34.534,79.766 36.273,78.813C38.013,77.86 39.928,77.383 42.017,77.383C44.387,77.383 46.379,77.986 47.995,79.192C49.611,80.399 50.736,82.095 51.372,84.282L48.286,85.009C47.737,83.286 46.94,82.031 45.895,81.244C44.85,80.458 43.536,80.065 41.952,80.065C40.132,80.065 38.611,80.501 37.388,81.374C36.166,82.246 35.307,83.417 34.811,84.888C34.316,86.358 34.068,87.874 34.068,89.436C34.068,91.45 34.361,93.209 34.949,94.711C35.536,96.214 36.448,97.337 37.687,98.08C38.926,98.823 40.267,99.195 41.71,99.195C43.466,99.195 44.952,98.688 46.169,97.676C47.387,96.663 48.211,95.161 48.641,93.168Z" style="fill: var(--pst-color-text-base);fill-rule:nonzero;"/>
    <rect x="55.2" y="77.787" width="2.908" height="23.686" style="fill: var(--pst-color-text-base);fill-rule:nonzero;"/>
    <path d="M87.105,97.644L87.105,91.149L80.659,91.149L80.659,88.434L87.105,88.434L87.105,81.988L89.852,81.988L89.852,88.434L96.299,88.434L96.299,91.149L89.852,91.149L89.852,97.644L87.105,97.644Z" style="fill: var(--pst-color-text-base);fill-rule:nonzero;"/>
    <g transform="matrix(5.51486,0,0,5.51486,300.477,-13.5188)">
        <g transform="matrix(6,0,0,6,2,20.8512)">
            <path d="M0.25,-0.116L0.25,-0.312L0.056,-0.312L0.056,-0.394L0.25,-0.394L0.25,-0.589L0.333,-0.589L0.333,-0.394L0.528,-0.394L0.528,-0.312L0.333,-0.312L0.333,-0.116L0.25,-0.116Z" style="fill: var(--pst-color-text-base);fill-rule:nonzero;"/>
        </g>
        <g transform="matrix(6,0,0,6,7.1704,20.8512)">
            <path d="M0.048,-0.349C0.048,-0.467 0.08,-0.56 0.144,-0.628C0.208,-0.695 0.29,-0.729 0.391,-0.729C0.457,-0.729 0.517,-0.713 0.57,-0.681C0.623,-0.65 0.663,-0.606 0.691,-0.549C0.719,-0.493 0.733,-0.429 0.733,-0.357C0.733,-0.284 0.718,-0.219 0.689,-0.162C0.66,-0.105 0.618,-0.061 0.564,-0.032C0.511,-0.003 0.453,0.012 0.391,0.012C0.323,0.012 0.263,-0.004 0.21,-0.037C0.157,-0.069 0.117,-0.114 0.089,-0.17C0.062,-0.226 0.048,-0.286 0.048,-0.349ZM0.146,-0.347C0.146,-0.261 0.169,-0.193 0.216,-0.143C0.262,-0.094 0.32,-0.069 0.39,-0.069C0.461,-0.069 0.52,-0.094 0.566,-0.144C0.612,-0.194 0.635,-0.265 0.635,-0.357C0.635,-0.416 0.625,-0.467 0.606,-0.51C0.586,-0.553 0.557,-0.587 0.519,-0.611C0.481,-0.635 0.439,-0.647 0.392,-0.647C0.325,-0.647 0.267,-0.624 0.219,-0.578C0.17,-0.532 0.146,-0.455 0.146,-0.347Z" style="fill: var(--pst-color-text-base);fill-rule:nonzero;"/>
        </g>
        <g transform="matrix(3.498,0,0,3.498,11.8371,22.8492)">
            <path d="M0.503,-0.084L0.503,-0L0.03,-0C0.03,-0.021 0.033,-0.042 0.041,-0.061C0.053,-0.093 0.072,-0.125 0.098,-0.156C0.125,-0.188 0.163,-0.224 0.213,-0.265C0.291,-0.328 0.344,-0.379 0.371,-0.416C0.398,-0.454 0.412,-0.489 0.412,-0.522C0.412,-0.557 0.4,-0.586 0.375,-0.61C0.35,-0.634 0.317,-0.646 0.277,-0.646C0.235,-0.646 0.201,-0.633 0.176,-0.608C0.15,-0.583 0.138,-0.547 0.137,-0.502L0.047,-0.512C0.053,-0.579 0.076,-0.63 0.117,-0.666C0.157,-0.701 0.211,-0.719 0.279,-0.719C0.348,-0.719 0.402,-0.7 0.442,-0.662C0.482,-0.624 0.502,-0.576 0.502,-0.52C0.502,-0.491 0.497,-0.463 0.485,-0.436C0.473,-0.408 0.454,-0.379 0.427,-0.348C0.399,-0.318 0.354,-0.276 0.291,-0.222C0.238,-0.178 0.204,-0.148 0.189,-0.132C0.174,-0.116 0.162,-0.1 0.152,-0.084L0.503,-0.084Z" style="fill: var(--pst-color-text-base);fill-rule:nonzero;"/>
        </g>
    </g>
    <g>
        <path d="M606.266,41.694L606.266,18.008L609.4,18.008L609.4,27.734L621.712,27.734L621.712,18.008L624.846,18.008L624.846,41.694L621.712,41.694L621.712,30.529L609.4,30.529L609.4,41.694L606.266,41.694Z" style="fill: var(--pst-color-text-base);fill-rule:nonzero;"/>
        <path d="M590.922,98.959L590.922,75.273L594.056,75.273L594.056,84.999L606.368,84.999L606.368,75.273L609.502,75.273L609.502,98.959L606.368,98.959L606.368,87.794L594.056,87.794L594.056,98.959L590.922,98.959Z" style="fill: var(--pst-color-text-base);fill-rule:nonzero;"/>
        <path d="M732.028,167.456L732.028,143.77L735.162,143.77L735.162,153.496L747.474,153.496L747.474,143.77L750.608,143.77L750.608,167.456L747.474,167.456L747.474,156.291L735.162,156.291L735.162,167.456L732.028,167.456Z" style="fill: var(--pst-color-text-base);fill-rule:nonzero;"/>
        <path d="M747.372,110.191L747.372,86.505L750.506,86.505L750.506,96.232L762.818,96.232L762.818,86.505L765.952,86.505L765.952,110.191L762.818,110.191L762.818,99.027L750.506,99.027L750.506,110.191L747.372,110.191Z" style="fill: var(--pst-color-text-base);fill-rule:nonzero;"/>
        <path d="M680.333,18.247L683.468,19.039C682.811,21.613 681.629,23.576 679.921,24.928C678.214,26.28 676.127,26.956 673.661,26.956C671.108,26.956 669.032,26.436 667.432,25.397C665.833,24.357 664.616,22.852 663.781,20.881C662.946,18.91 662.529,16.793 662.529,14.531C662.529,12.064 663,9.913 663.942,8.076C664.885,6.24 666.226,4.845 667.965,3.892C669.705,2.939 671.62,2.462 673.709,2.462C676.079,2.462 678.072,3.065 679.687,4.271C681.303,5.478 682.428,7.174 683.064,9.361L679.978,10.088C679.429,8.365 678.632,7.11 677.587,6.323C676.542,5.537 675.228,5.144 673.645,5.144C671.824,5.144 670.303,5.58 669.08,6.453C667.858,7.325 666.999,8.496 666.503,9.967C666.008,11.437 665.76,12.953 665.76,14.515C665.76,16.529 666.054,18.288 666.641,19.79C667.228,21.293 668.14,22.416 669.379,23.159C670.618,23.902 671.959,24.274 673.402,24.274C675.158,24.274 676.644,23.767 677.861,22.755C679.079,21.742 679.903,20.24 680.333,18.247Z" style="fill: var(--pst-color-text-base);fill-rule:nonzero;"/>
        <rect x="686.894" y="2.866" width="2.908" height="23.686" style="fill: var(--pst-color-text-base);fill-rule:nonzero;"/>
        <path d="M675.943,174.697L679.077,175.489C678.42,178.063 677.238,180.026 675.531,181.378C673.823,182.73 671.736,183.406 669.27,183.406C666.717,183.406 664.641,182.886 663.041,181.847C661.442,180.807 660.225,179.302 659.39,177.331C658.555,175.36 658.138,173.243 658.138,170.981C658.138,168.515 658.609,166.363 659.551,164.526C660.494,162.69 661.835,161.295 663.574,160.342C665.314,159.389 667.229,158.912 669.318,158.912C671.688,158.912 673.681,159.515 675.296,160.722C676.912,161.928 678.038,163.624 678.673,165.811L675.587,166.538C675.038,164.815 674.241,163.56 673.196,162.773C672.151,161.987 670.837,161.594 669.254,161.594C667.433,161.594 665.912,162.03 664.689,162.903C663.467,163.775 662.608,164.947 662.112,166.417C661.617,167.887 661.369,169.403 661.369,170.965C661.369,172.979 661.663,174.738 662.25,176.24C662.837,177.743 663.75,178.866 664.988,179.609C666.227,180.352 667.568,180.724 669.011,180.724C670.767,180.724 672.253,180.217 673.471,179.205C674.688,178.192 675.512,176.69 675.943,174.697Z" style="fill: var(--pst-color-text-base);fill-rule:nonzero;"/>
        <rect x="682.503" y="159.316" width="2.908" height="23.686" style="fill: var(--pst-color-text-base);fill-rule:nonzero;"/>
        <path d="M656.99,73.755L657.485,71.909L659.33,71.415L699.9,111.985L699.405,113.83L697.56,114.324L656.99,73.755Z" style="fill: var(--pst-color-text-base);fill-rule:nonzero;"/>
        <path d="M656.628,68.713L657.485,71.909L654.289,71.053L629.558,46.323L631.898,43.983L656.628,68.713Z" style="fill: var(--pst-color-text-base);fill-rule:nonzero;"/>
        <path d="M654.289,71.053L657.485,71.909L656.99,73.755L618.234,84.139L617.378,80.943L654.289,71.053Z" style="fill: var(--pst-color-text-base);fill-rule:nonzero;"/>
        <path d="M700.262,117.026L699.405,113.83L702.601,114.686L727.147,139.232L724.807,141.572L700.262,117.026Z" style="fill: var(--pst-color-text-base);fill-rule:nonzero;"/>
        <path d="M702.601,114.686L699.405,113.83L699.9,111.985L738.209,101.72L739.065,104.916L702.601,114.686Z" style="fill: var(--pst-color-text-base);fill-rule:nonzero;"/>
        <path d="M659.33,71.415L657.485,71.909L656.628,68.713L666.286,32.671L669.482,33.528L659.33,71.415Z" style="fill: var(--pst-color-text-base);fill-rule:nonzero;"/>
        <path d="M697.56,114.324L699.405,113.83L700.262,117.026L690.392,153.859L687.196,153.003L697.56,114.324Z" style="fill: var(--pst-color-text-base);fill-rule:nonzero;"/>
    </g>
    <rect x="395.529" y="92.107" width="146.42" height="3.309" style="fill: var(--pst-color-text-base);"/>
    <path d="M570.625,93.761L537.537,102.309C537.537,102.309 541.673,97.501 541.673,93.761C541.673,89.901 537.537,84.937 537.537,84.937L570.625,93.761Z" style="fill: var(--pst-color-text-base);fill-rule:nonzero;"/>
    <g transform="matrix(1,0,0,1,-1714.97,-1761.79)">
        <g transform="matrix(33.0892,0,0,33.0892,2108.2,1837.53)">
            <path d="M0.588,-0.251L0.683,-0.227C0.663,-0.149 0.627,-0.09 0.575,-0.049C0.524,-0.008 0.461,0.012 0.386,0.012C0.309,0.012 0.246,-0.003 0.198,-0.035C0.15,-0.066 0.113,-0.112 0.088,-0.171C0.062,-0.231 0.05,-0.295 0.05,-0.363C0.05,-0.438 0.064,-0.503 0.093,-0.558C0.121,-0.614 0.162,-0.656 0.214,-0.685C0.267,-0.714 0.325,-0.728 0.388,-0.728C0.459,-0.728 0.52,-0.71 0.568,-0.673C0.617,-0.637 0.651,-0.586 0.67,-0.52L0.577,-0.498C0.561,-0.55 0.536,-0.588 0.505,-0.611C0.473,-0.635 0.434,-0.647 0.386,-0.647C0.331,-0.647 0.285,-0.634 0.248,-0.607C0.211,-0.581 0.185,-0.546 0.17,-0.501C0.155,-0.457 0.147,-0.411 0.147,-0.364C0.147,-0.303 0.156,-0.25 0.174,-0.204C0.192,-0.159 0.219,-0.125 0.257,-0.103C0.294,-0.08 0.335,-0.069 0.378,-0.069C0.431,-0.069 0.476,-0.084 0.513,-0.115C0.55,-0.145 0.575,-0.191 0.588,-0.251Z" style="fill: var(--pst-color-text-base);fill-rule:nonzero;"/>
        </g>
        <g transform="matrix(33.0892,0,0,33.0892,2132.1,1837.53)">
            <path d="M0.406,-0L0.406,-0.076C0.365,-0.018 0.311,0.012 0.241,0.012C0.211,0.012 0.182,0.006 0.156,-0.006C0.129,-0.018 0.109,-0.032 0.096,-0.05C0.084,-0.068 0.075,-0.09 0.069,-0.115C0.066,-0.132 0.064,-0.16 0.064,-0.197L0.064,-0.519L0.152,-0.519L0.152,-0.231C0.152,-0.185 0.154,-0.154 0.157,-0.138C0.163,-0.115 0.174,-0.097 0.192,-0.084C0.21,-0.071 0.232,-0.064 0.259,-0.064C0.285,-0.064 0.31,-0.071 0.333,-0.084C0.356,-0.098 0.372,-0.116 0.382,-0.139C0.392,-0.163 0.396,-0.196 0.396,-0.241L0.396,-0.519L0.484,-0.519L0.484,-0L0.406,-0Z" style="fill: var(--pst-color-text-base);fill-rule:nonzero;"/>
        </g>
        <g transform="matrix(33.0892,0,0,33.0892,2150.5,1837.53)">
            <path d="M0.588,-0.251L0.683,-0.227C0.663,-0.149 0.627,-0.09 0.575,-0.049C0.524,-0.008 0.461,0.012 0.386,0.012C0.309,0.012 0.246,-0.003 0.198,-0.035C0.15,-0.066 0.113,-0.112 0.088,-0.171C0.062,-0.231 0.05,-0.295 0.05,-0.363C0.05,-0.438 0.064,-0.503 0.093,-0.558C0.121,-0.614 0.162,-0.656 0.214,-0.685C0.267,-0.714 0.325,-0.728 0.388,-0.728C0.459,-0.728 0.52,-0.71 0.568,-0.673C0.617,-0.637 0.651,-0.586 0.67,-0.52L0.577,-0.498C0.561,-0.55 0.536,-0.588 0.505,-0.611C0.473,-0.635 0.434,-0.647 0.386,-0.647C0.331,-0.647 0.285,-0.634 0.248,-0.607C0.211,-0.581 0.185,-0.546 0.17,-0.501C0.155,-0.457 0.147,-0.411 0.147,-0.364C0.147,-0.303 0.156,-0.25 0.174,-0.204C0.192,-0.159 0.219,-0.125 0.257,-0.103C0.294,-0.08 0.335,-0.069 0.378,-0.069C0.431,-0.069 0.476,-0.084 0.513,-0.115C0.55,-0.145 0.575,-0.191 0.588,-0.251Z" style="fill: var(--pst-color-text-base);fill-rule:nonzero;"/>
        </g>
        <g transform="matrix(33.0892,0,0,33.0892,2174.4,1837.53)">
            <rect x="0.064" y="-0.716" width="0.088" height="0.716" style="fill: var(--pst-color-text-base);fill-rule:nonzero;"/>
        </g>
        <g transform="matrix(19.291,0,0,19.291,2181.75,1848.55)">
            <path d="M0.503,-0.084L0.503,-0L0.03,-0C0.03,-0.021 0.033,-0.042 0.041,-0.061C0.053,-0.093 0.072,-0.125 0.098,-0.156C0.125,-0.188 0.163,-0.224 0.213,-0.265C0.291,-0.328 0.344,-0.379 0.371,-0.416C0.398,-0.454 0.412,-0.489 0.412,-0.522C0.412,-0.557 0.4,-0.586 0.375,-0.61C0.35,-0.634 0.317,-0.646 0.277,-0.646C0.235,-0.646 0.201,-0.633 0.176,-0.608C0.15,-0.583 0.138,-0.547 0.137,-0.502L0.047,-0.512C0.053,-0.579 0.076,-0.63 0.117,-0.666C0.157,-0.701 0.211,-0.719 0.279,-0.719C0.348,-0.719 0.402,-0.7 0.442,-0.662C0.482,-0.624 0.502,-0.576 0.502,-0.52C0.502,-0.491 0.497,-0.463 0.485,-0.436C0.473,-0.408 0.454,-0.379 0.427,-0.348C0.399,-0.318 0.354,-0.276 0.291,-0.222C0.238,-0.178 0.204,-0.148 0.189,-0.132C0.174,-0.116 0.162,-0.1 0.152,-0.084L0.503,-0.084Z" style="fill: var(--pst-color-text-base);fill-rule:nonzero;"/>
        </g>
        <g transform="matrix(33.0892,0,0,33.0892,2201.67,1837.53)">
            <path d="M0.234,0.21C0.185,0.149 0.144,0.078 0.111,-0.004C0.077,-0.086 0.061,-0.171 0.061,-0.259C0.061,-0.337 0.073,-0.411 0.098,-0.482C0.127,-0.564 0.173,-0.646 0.234,-0.728L0.297,-0.728C0.257,-0.66 0.231,-0.612 0.219,-0.583C0.199,-0.538 0.183,-0.491 0.172,-0.442C0.158,-0.382 0.151,-0.32 0.151,-0.259C0.151,-0.102 0.2,0.054 0.297,0.21L0.234,0.21Z" style="fill: var(--pst-color-text-base);fill-rule:nonzero;"/>
        </g>
        <g transform="matrix(33.0892,0,0,33.0892,2212.69,1837.53)">
            <path d="M0.404,-0.19L0.491,-0.179C0.481,-0.119 0.457,-0.073 0.418,-0.039C0.379,-0.005 0.332,0.012 0.275,0.012C0.204,0.012 0.147,-0.011 0.104,-0.058C0.061,-0.104 0.039,-0.171 0.039,-0.257C0.039,-0.313 0.048,-0.362 0.067,-0.404C0.085,-0.446 0.114,-0.478 0.152,-0.499C0.19,-0.52 0.231,-0.53 0.275,-0.53C0.332,-0.53 0.378,-0.516 0.414,-0.488C0.449,-0.459 0.472,-0.419 0.482,-0.366L0.397,-0.353C0.389,-0.388 0.374,-0.414 0.354,-0.432C0.333,-0.449 0.308,-0.458 0.279,-0.458C0.235,-0.458 0.199,-0.442 0.171,-0.41C0.143,-0.379 0.129,-0.328 0.129,-0.26C0.129,-0.19 0.143,-0.139 0.169,-0.108C0.196,-0.076 0.231,-0.061 0.274,-0.061C0.308,-0.061 0.337,-0.071 0.36,-0.092C0.383,-0.113 0.398,-0.146 0.404,-0.19Z" style="fill: var(--pst-color-text-base);fill-rule:nonzero;"/>
        </g>
        <g transform="matrix(33.0892,0,0,33.0892,2229.23,1837.53)">
            <path d="M0.404,-0.064C0.372,-0.036 0.34,-0.017 0.31,-0.005C0.28,0.006 0.248,0.012 0.213,0.012C0.156,0.012 0.113,-0.002 0.082,-0.03C0.051,-0.058 0.036,-0.093 0.036,-0.137C0.036,-0.162 0.042,-0.185 0.053,-0.206C0.065,-0.227 0.08,-0.244 0.099,-0.257C0.118,-0.27 0.139,-0.279 0.162,-0.286C0.179,-0.29 0.205,-0.295 0.24,-0.299C0.311,-0.307 0.363,-0.317 0.397,-0.329C0.397,-0.341 0.397,-0.349 0.397,-0.352C0.397,-0.388 0.389,-0.413 0.373,-0.428C0.35,-0.448 0.317,-0.458 0.272,-0.458C0.231,-0.458 0.201,-0.45 0.181,-0.436C0.161,-0.421 0.147,-0.396 0.137,-0.359L0.051,-0.371C0.059,-0.407 0.072,-0.437 0.09,-0.46C0.108,-0.482 0.134,-0.5 0.167,-0.512C0.201,-0.524 0.241,-0.53 0.285,-0.53C0.329,-0.53 0.365,-0.525 0.393,-0.515C0.421,-0.504 0.441,-0.491 0.454,-0.475C0.467,-0.46 0.476,-0.44 0.481,-0.416C0.484,-0.401 0.486,-0.374 0.486,-0.334L0.486,-0.217C0.486,-0.136 0.488,-0.084 0.491,-0.062C0.495,-0.041 0.503,-0.02 0.514,-0L0.422,-0C0.413,-0.018 0.407,-0.04 0.404,-0.064ZM0.397,-0.26C0.365,-0.247 0.317,-0.236 0.253,-0.227C0.217,-0.222 0.192,-0.216 0.177,-0.209C0.162,-0.203 0.15,-0.193 0.142,-0.181C0.134,-0.168 0.13,-0.154 0.13,-0.139C0.13,-0.116 0.139,-0.096 0.156,-0.081C0.174,-0.065 0.2,-0.057 0.234,-0.057C0.268,-0.057 0.298,-0.065 0.325,-0.079C0.351,-0.094 0.37,-0.114 0.383,-0.14C0.392,-0.16 0.397,-0.189 0.397,-0.228L0.397,-0.26Z" style="fill: var(--pst-color-text-base);fill-rule:nonzero;"/>
        </g>
        <g transform="matrix(33.0892,0,0,33.0892,2247.64,1837.53)">
            <path d="M0.258,-0.079L0.271,-0.001C0.246,0.004 0.224,0.007 0.204,0.007C0.172,0.007 0.147,0.002 0.13,-0.008C0.112,-0.018 0.1,-0.032 0.093,-0.048C0.086,-0.065 0.082,-0.099 0.082,-0.152L0.082,-0.45L0.018,-0.45L0.018,-0.519L0.082,-0.519L0.082,-0.647L0.169,-0.7L0.169,-0.519L0.258,-0.519L0.258,-0.45L0.169,-0.45L0.169,-0.147C0.169,-0.122 0.171,-0.106 0.174,-0.099C0.177,-0.091 0.182,-0.086 0.189,-0.082C0.196,-0.077 0.206,-0.075 0.219,-0.075C0.229,-0.075 0.242,-0.076 0.258,-0.079Z" style="fill: var(--pst-color-text-base);fill-rule:nonzero;"/>
        </g>
        <g transform="matrix(33.0892,0,0,33.0892,2256.83,1837.53)">
            <path d="M0.124,0.21L0.061,0.21C0.158,0.054 0.207,-0.102 0.207,-0.259C0.207,-0.32 0.2,-0.381 0.186,-0.441C0.174,-0.49 0.159,-0.537 0.139,-0.582C0.126,-0.611 0.1,-0.66 0.061,-0.728L0.124,-0.728C0.185,-0.646 0.23,-0.564 0.259,-0.482C0.284,-0.411 0.297,-0.337 0.297,-0.259C0.297,-0.171 0.28,-0.086 0.246,-0.004C0.213,0.078 0.172,0.149 0.124,0.21Z" style="fill: var(--pst-color-text-base);fill-rule:nonzero;"/>
        </g>
    </g>
</svg>
