<svg width="100%" height="100%" viewBox="0 0 1124 190" version="1.1" xmlns="http://www.w3.org/2000/svg" xmlns:xlink="http://www.w3.org/1999/xlink" xml:space="preserve" xmlns:serif="http://www.serif.com/" style="fill-rule:evenodd;clip-rule:evenodd;stroke-linecap:round;stroke-miterlimit:10;">
    <rect id="PVC" x="0" y="0.935" width="1123.69" height="188.795" style="fill:none;"/>
    <g>
        <path d="M22.782,42.628L22.782,18.942L25.916,18.942L25.916,28.669L38.228,28.669L38.228,18.942L41.362,18.942L41.362,42.628L38.228,42.628L38.228,31.464L25.916,31.464L25.916,42.628L22.782,42.628Z" style="fill: var(--pst-color-text-base);fill-rule:nonzero;"/>
        <path d="M7.438,99.893L7.438,76.207L10.572,76.207L10.572,85.934L22.884,85.934L22.884,76.207L26.018,76.207L26.018,99.893L22.884,99.893L22.884,88.729L10.572,88.729L10.572,99.893L7.438,99.893Z" style="fill: var(--pst-color-text-base);fill-rule:nonzero;"/>
        <path d="M148.544,168.39L148.544,144.704L151.678,144.704L151.678,154.431L163.99,154.431L163.99,144.704L167.124,144.704L167.124,168.39L163.99,168.39L163.99,157.226L151.678,157.226L151.678,168.39L148.544,168.39Z" style="fill: var(--pst-color-text-base);fill-rule:nonzero;"/>
        <path d="M163.888,111.126L163.888,87.44L167.022,87.44L167.022,97.166L179.334,97.166L179.334,87.44L182.468,87.44L182.468,111.126L179.334,111.126L179.334,99.961L167.022,99.961L167.022,111.126L163.888,111.126Z" style="fill: var(--pst-color-text-base);fill-rule:nonzero;"/>
        <path d="M96.849,19.182L99.984,19.973C99.327,22.548 98.145,24.511 96.437,25.863C94.73,27.214 92.643,27.89 90.177,27.89C87.624,27.89 85.548,27.371 83.948,26.331C82.349,25.292 81.132,23.786 80.297,21.815C79.462,19.844 79.045,17.728 79.045,15.466C79.045,12.999 79.516,10.847 80.458,9.011C81.401,7.174 82.742,5.78 84.481,4.826C86.221,3.873 88.136,3.396 90.225,3.396C92.595,3.396 94.588,4 96.203,5.206C97.819,6.412 98.944,8.109 99.58,10.295L96.494,11.022C95.945,9.299 95.148,8.044 94.103,7.258C93.058,6.472 91.744,6.078 90.161,6.078C88.34,6.078 86.819,6.515 85.596,7.387C84.374,8.26 83.515,9.431 83.019,10.901C82.524,12.372 82.276,13.888 82.276,15.449C82.276,17.464 82.57,19.222 83.157,20.725C83.744,22.227 84.656,23.35 85.895,24.093C87.134,24.837 88.475,25.208 89.918,25.208C91.674,25.208 93.16,24.702 94.377,23.689C95.595,22.677 96.419,21.174 96.849,19.182Z" style="fill: var(--pst-color-text-base);fill-rule:nonzero;"/>
        <rect x="103.41" y="3.8" width="2.908" height="23.686" style="fill: var(--pst-color-text-base);fill-rule:nonzero;"/>
        <path d="M92.459,175.632L95.593,176.423C94.936,178.998 93.754,180.961 92.047,182.313C90.339,183.664 88.252,184.34 85.786,184.34C83.233,184.34 81.157,183.821 79.557,182.781C77.958,181.742 76.741,180.236 75.906,178.265C75.071,176.294 74.654,174.178 74.654,171.916C74.654,169.449 75.125,167.298 76.067,165.461C77.01,163.625 78.351,162.23 80.091,161.276C81.83,160.323 83.745,159.847 85.834,159.847C88.204,159.847 90.197,160.45 91.812,161.656C93.428,162.862 94.554,164.559 95.189,166.746L92.103,167.473C91.554,165.749 90.757,164.494 89.712,163.708C88.667,162.922 87.353,162.529 85.77,162.529C83.949,162.529 82.428,162.965 81.205,163.837C79.983,164.71 79.124,165.881 78.628,167.351C78.133,168.822 77.885,170.338 77.885,171.9C77.885,173.914 78.179,175.672 78.766,177.175C79.353,178.677 80.266,179.8 81.504,180.543C82.743,181.287 84.084,181.658 85.527,181.658C87.283,181.658 88.769,181.152 89.987,180.14C91.204,179.127 92.028,177.624 92.459,175.632Z" style="fill: var(--pst-color-text-base);fill-rule:nonzero;"/>
        <rect x="99.019" y="160.25" width="2.908" height="23.686" style="fill: var(--pst-color-text-base);fill-rule:nonzero;"/>
        <path d="M73.506,74.689L74.001,72.844L75.846,72.35L116.416,112.919L115.921,114.765L114.076,115.259L73.506,74.689Z" style="fill: var(--pst-color-text-base);fill-rule:nonzero;"/>
        <path d="M73.144,69.648L74.001,72.844L70.805,71.988L46.074,47.257L48.414,44.918L73.144,69.648Z" style="fill: var(--pst-color-text-base);fill-rule:nonzero;"/>
        <path d="M70.805,71.988L74.001,72.844L73.506,74.689L34.75,85.074L33.894,81.878L70.805,71.988Z" style="fill: var(--pst-color-text-base);fill-rule:nonzero;"/>
        <path d="M116.778,117.961L115.921,114.765L119.117,115.621L143.663,140.167L141.323,142.506L116.778,117.961Z" style="fill: var(--pst-color-text-base);fill-rule:nonzero;"/>
        <path d="M119.117,115.621L115.921,114.765L116.416,112.919L154.725,102.654L155.581,105.85L119.117,115.621Z" style="fill: var(--pst-color-text-base);fill-rule:nonzero;"/>
        <path d="M75.846,72.35L74.001,72.844L73.144,69.648L82.802,33.606L85.998,34.462L75.846,72.35Z" style="fill: var(--pst-color-text-base);fill-rule:nonzero;"/>
        <path d="M114.076,115.259L115.921,114.765L116.778,117.961L106.908,154.794L103.712,153.938L114.076,115.259Z" style="fill: var(--pst-color-text-base);fill-rule:nonzero;"/>
    </g>
    <rect x="201.173" y="93.041" width="146.42" height="3.309" style="fill: var(--pst-color-text-base);"/>
    <rect x="573.065" y="93.041" width="222.9" height="3.309" style="fill: var(--pst-color-text-base);"/>
    <path d="M376.27,94.696L343.181,103.244C343.181,103.244 347.317,98.435 347.317,94.696C347.317,90.835 343.181,85.872 343.181,85.872L376.27,94.696Z" style="fill: var(--pst-color-text-base);fill-rule:nonzero;"/>
    <path d="M824.346,94.696L791.257,103.244C791.257,103.244 795.393,98.435 795.393,94.696C795.393,90.835 791.257,85.872 791.257,85.872L824.346,94.696Z" style="fill: var(--pst-color-text-base);fill-rule:nonzero;"/>
    <g transform="matrix(1,0,0,1,-1909.32,-1760.86)">
        <g transform="matrix(33.0892,0,0,33.0892,2108.2,1837.53)">
            <path d="M0.588,-0.251L0.683,-0.227C0.663,-0.149 0.627,-0.09 0.575,-0.049C0.524,-0.008 0.461,0.012 0.386,0.012C0.309,0.012 0.246,-0.003 0.198,-0.035C0.15,-0.066 0.113,-0.112 0.088,-0.171C0.062,-0.231 0.05,-0.295 0.05,-0.363C0.05,-0.438 0.064,-0.503 0.093,-0.558C0.121,-0.614 0.162,-0.656 0.214,-0.685C0.267,-0.714 0.325,-0.728 0.388,-0.728C0.459,-0.728 0.52,-0.71 0.568,-0.673C0.617,-0.637 0.651,-0.586 0.67,-0.52L0.577,-0.498C0.561,-0.55 0.536,-0.588 0.505,-0.611C0.473,-0.635 0.434,-0.647 0.386,-0.647C0.331,-0.647 0.285,-0.634 0.248,-0.607C0.211,-0.581 0.185,-0.546 0.17,-0.501C0.155,-0.457 0.147,-0.411 0.147,-0.364C0.147,-0.303 0.156,-0.25 0.174,-0.204C0.192,-0.159 0.219,-0.125 0.257,-0.103C0.294,-0.08 0.335,-0.069 0.378,-0.069C0.431,-0.069 0.476,-0.084 0.513,-0.115C0.55,-0.145 0.575,-0.191 0.588,-0.251Z" style="fill: var(--pst-color-text-base);fill-rule:nonzero;"/>
        </g>
        <g transform="matrix(33.0892,0,0,33.0892,2132.1,1837.53)">
            <path d="M0.406,-0L0.406,-0.076C0.365,-0.018 0.311,0.012 0.241,0.012C0.211,0.012 0.182,0.006 0.156,-0.006C0.129,-0.018 0.109,-0.032 0.096,-0.05C0.084,-0.068 0.075,-0.09 0.069,-0.115C0.066,-0.132 0.064,-0.16 0.064,-0.197L0.064,-0.519L0.152,-0.519L0.152,-0.231C0.152,-0.185 0.154,-0.154 0.157,-0.138C0.163,-0.115 0.174,-0.097 0.192,-0.084C0.21,-0.071 0.232,-0.064 0.259,-0.064C0.285,-0.064 0.31,-0.071 0.333,-0.084C0.356,-0.098 0.372,-0.116 0.382,-0.139C0.392,-0.163 0.396,-0.196 0.396,-0.241L0.396,-0.519L0.484,-0.519L0.484,-0L0.406,-0Z" style="fill: var(--pst-color-text-base);fill-rule:nonzero;"/>
        </g>
        <g transform="matrix(33.0892,0,0,33.0892,2150.5,1837.53)">
            <path d="M0.588,-0.251L0.683,-0.227C0.663,-0.149 0.627,-0.09 0.575,-0.049C0.524,-0.008 0.461,0.012 0.386,0.012C0.309,0.012 0.246,-0.003 0.198,-0.035C0.15,-0.066 0.113,-0.112 0.088,-0.171C0.062,-0.231 0.05,-0.295 0.05,-0.363C0.05,-0.438 0.064,-0.503 0.093,-0.558C0.121,-0.614 0.162,-0.656 0.214,-0.685C0.267,-0.714 0.325,-0.728 0.388,-0.728C0.459,-0.728 0.52,-0.71 0.568,-0.673C0.617,-0.637 0.651,-0.586 0.67,-0.52L0.577,-0.498C0.561,-0.55 0.536,-0.588 0.505,-0.611C0.473,-0.635 0.434,-0.647 0.386,-0.647C0.331,-0.647 0.285,-0.634 0.248,-0.607C0.211,-0.581 0.185,-0.546 0.17,-0.501C0.155,-0.457 0.147,-0.411 0.147,-0.364C0.147,-0.303 0.156,-0.25 0.174,-0.204C0.192,-0.159 0.219,-0.125 0.257,-0.103C0.294,-0.08 0.335,-0.069 0.378,-0.069C0.431,-0.069 0.476,-0.084 0.513,-0.115C0.55,-0.145 0.575,-0.191 0.588,-0.251Z" style="fill: var(--pst-color-text-base);fill-rule:nonzero;"/>
        </g>
        <g transform="matrix(33.0892,0,0,33.0892,2174.4,1837.53)">
            <rect x="0.064" y="-0.716" width="0.088" height="0.716" style="fill: var(--pst-color-text-base);fill-rule:nonzero;"/>
        </g>
        <g transform="matrix(19.291,0,0,19.291,2181.75,1848.55)">
            <path d="M0.503,-0.084L0.503,-0L0.03,-0C0.03,-0.021 0.033,-0.042 0.041,-0.061C0.053,-0.093 0.072,-0.125 0.098,-0.156C0.125,-0.188 0.163,-0.224 0.213,-0.265C0.291,-0.328 0.344,-0.379 0.371,-0.416C0.398,-0.454 0.412,-0.489 0.412,-0.522C0.412,-0.557 0.4,-0.586 0.375,-0.61C0.35,-0.634 0.317,-0.646 0.277,-0.646C0.235,-0.646 0.201,-0.633 0.176,-0.608C0.15,-0.583 0.138,-0.547 0.137,-0.502L0.047,-0.512C0.053,-0.579 0.076,-0.63 0.117,-0.666C0.157,-0.701 0.211,-0.719 0.279,-0.719C0.348,-0.719 0.402,-0.7 0.442,-0.662C0.482,-0.624 0.502,-0.576 0.502,-0.52C0.502,-0.491 0.497,-0.463 0.485,-0.436C0.473,-0.408 0.454,-0.379 0.427,-0.348C0.399,-0.318 0.354,-0.276 0.291,-0.222C0.238,-0.178 0.204,-0.148 0.189,-0.132C0.174,-0.116 0.162,-0.1 0.152,-0.084L0.503,-0.084Z" style="fill: var(--pst-color-text-base);fill-rule:nonzero;"/>
        </g>
        <g transform="matrix(33.0892,0,0,33.0892,2201.67,1837.53)">
            <path d="M0.234,0.21C0.185,0.149 0.144,0.078 0.111,-0.004C0.077,-0.086 0.061,-0.171 0.061,-0.259C0.061,-0.337 0.073,-0.411 0.098,-0.482C0.127,-0.564 0.173,-0.646 0.234,-0.728L0.297,-0.728C0.257,-0.66 0.231,-0.612 0.219,-0.583C0.199,-0.538 0.183,-0.491 0.172,-0.442C0.158,-0.382 0.151,-0.32 0.151,-0.259C0.151,-0.102 0.2,0.054 0.297,0.21L0.234,0.21Z" style="fill: var(--pst-color-text-base);fill-rule:nonzero;"/>
        </g>
        <g transform="matrix(33.0892,0,0,33.0892,2212.69,1837.53)">
            <path d="M0.404,-0.19L0.491,-0.179C0.481,-0.119 0.457,-0.073 0.418,-0.039C0.379,-0.005 0.332,0.012 0.275,0.012C0.204,0.012 0.147,-0.011 0.104,-0.058C0.061,-0.104 0.039,-0.171 0.039,-0.257C0.039,-0.313 0.048,-0.362 0.067,-0.404C0.085,-0.446 0.114,-0.478 0.152,-0.499C0.19,-0.52 0.231,-0.53 0.275,-0.53C0.332,-0.53 0.378,-0.516 0.414,-0.488C0.449,-0.459 0.472,-0.419 0.482,-0.366L0.397,-0.353C0.389,-0.388 0.374,-0.414 0.354,-0.432C0.333,-0.449 0.308,-0.458 0.279,-0.458C0.235,-0.458 0.199,-0.442 0.171,-0.41C0.143,-0.379 0.129,-0.328 0.129,-0.26C0.129,-0.19 0.143,-0.139 0.169,-0.108C0.196,-0.076 0.231,-0.061 0.274,-0.061C0.308,-0.061 0.337,-0.071 0.36,-0.092C0.383,-0.113 0.398,-0.146 0.404,-0.19Z" style="fill: var(--pst-color-text-base);fill-rule:nonzero;"/>
        </g>
        <g transform="matrix(33.0892,0,0,33.0892,2229.23,1837.53)">
            <path d="M0.404,-0.064C0.372,-0.036 0.34,-0.017 0.31,-0.005C0.28,0.006 0.248,0.012 0.213,0.012C0.156,0.012 0.113,-0.002 0.082,-0.03C0.051,-0.058 0.036,-0.093 0.036,-0.137C0.036,-0.162 0.042,-0.185 0.053,-0.206C0.065,-0.227 0.08,-0.244 0.099,-0.257C0.118,-0.27 0.139,-0.279 0.162,-0.286C0.179,-0.29 0.205,-0.295 0.24,-0.299C0.311,-0.307 0.363,-0.317 0.397,-0.329C0.397,-0.341 0.397,-0.349 0.397,-0.352C0.397,-0.388 0.389,-0.413 0.373,-0.428C0.35,-0.448 0.317,-0.458 0.272,-0.458C0.231,-0.458 0.201,-0.45 0.181,-0.436C0.161,-0.421 0.147,-0.396 0.137,-0.359L0.051,-0.371C0.059,-0.407 0.072,-0.437 0.09,-0.46C0.108,-0.482 0.134,-0.5 0.167,-0.512C0.201,-0.524 0.241,-0.53 0.285,-0.53C0.329,-0.53 0.365,-0.525 0.393,-0.515C0.421,-0.504 0.441,-0.491 0.454,-0.475C0.467,-0.46 0.476,-0.44 0.481,-0.416C0.484,-0.401 0.486,-0.374 0.486,-0.334L0.486,-0.217C0.486,-0.136 0.488,-0.084 0.491,-0.062C0.495,-0.041 0.503,-0.02 0.514,-0L0.422,-0C0.413,-0.018 0.407,-0.04 0.404,-0.064ZM0.397,-0.26C0.365,-0.247 0.317,-0.236 0.253,-0.227C0.217,-0.222 0.192,-0.216 0.177,-0.209C0.162,-0.203 0.15,-0.193 0.142,-0.181C0.134,-0.168 0.13,-0.154 0.13,-0.139C0.13,-0.116 0.139,-0.096 0.156,-0.081C0.174,-0.065 0.2,-0.057 0.234,-0.057C0.268,-0.057 0.298,-0.065 0.325,-0.079C0.351,-0.094 0.37,-0.114 0.383,-0.14C0.392,-0.16 0.397,-0.189 0.397,-0.228L0.397,-0.26Z" style="fill: var(--pst-color-text-base);fill-rule:nonzero;"/>
        </g>
        <g transform="matrix(33.0892,0,0,33.0892,2247.64,1837.53)">
            <path d="M0.258,-0.079L0.271,-0.001C0.246,0.004 0.224,0.007 0.204,0.007C0.172,0.007 0.147,0.002 0.13,-0.008C0.112,-0.018 0.1,-0.032 0.093,-0.048C0.086,-0.065 0.082,-0.099 0.082,-0.152L0.082,-0.45L0.018,-0.45L0.018,-0.519L0.082,-0.519L0.082,-0.647L0.169,-0.7L0.169,-0.519L0.258,-0.519L0.258,-0.45L0.169,-0.45L0.169,-0.147C0.169,-0.122 0.171,-0.106 0.174,-0.099C0.177,-0.091 0.182,-0.086 0.189,-0.082C0.196,-0.077 0.206,-0.075 0.219,-0.075C0.229,-0.075 0.242,-0.076 0.258,-0.079Z" style="fill: var(--pst-color-text-base);fill-rule:nonzero;"/>
        </g>
        <g transform="matrix(33.0892,0,0,33.0892,2256.83,1837.53)">
            <path d="M0.124,0.21L0.061,0.21C0.158,0.054 0.207,-0.102 0.207,-0.259C0.207,-0.32 0.2,-0.381 0.186,-0.441C0.174,-0.49 0.159,-0.537 0.139,-0.582C0.126,-0.611 0.1,-0.66 0.061,-0.728L0.124,-0.728C0.185,-0.646 0.23,-0.564 0.259,-0.482C0.284,-0.411 0.297,-0.337 0.297,-0.259C0.297,-0.171 0.28,-0.086 0.246,-0.004C0.213,0.078 0.172,0.149 0.124,0.21Z" style="fill: var(--pst-color-text-base);fill-rule:nonzero;"/>
        </g>
    </g>
    <path d="M625.024,85.591L625.024,68.433L627.641,68.433L627.641,71.034C628.309,69.817 628.926,69.015 629.491,68.627C630.057,68.239 630.679,68.045 631.358,68.045C632.338,68.045 633.334,68.358 634.347,68.982L633.345,71.68C632.634,71.26 631.923,71.05 631.212,71.05C630.577,71.05 630.006,71.242 629.5,71.624C628.993,72.006 628.632,72.537 628.417,73.215C628.094,74.249 627.932,75.38 627.932,76.608L627.932,85.591L625.024,85.591Z" style="fill: var(--pst-color-text-base);fill-rule:nonzero;"/>
    <path d="M647.272,83.475C646.195,84.39 645.158,85.037 644.162,85.414C643.166,85.791 642.096,85.979 640.955,85.979C639.07,85.979 637.621,85.519 636.609,84.598C635.596,83.677 635.09,82.5 635.09,81.068C635.09,80.227 635.281,79.46 635.663,78.765C636.046,78.07 636.547,77.513 637.166,77.093C637.785,76.673 638.483,76.355 639.258,76.14C639.829,75.989 640.691,75.844 641.843,75.703C644.191,75.423 645.92,75.09 647.03,74.702C647.04,74.303 647.046,74.05 647.046,73.942C647.046,72.758 646.771,71.923 646.222,71.438C645.479,70.781 644.375,70.453 642.91,70.453C641.542,70.453 640.532,70.692 639.88,71.171C639.229,71.651 638.747,72.499 638.434,73.716L635.591,73.328C635.849,72.111 636.275,71.128 636.867,70.38C637.459,69.631 638.316,69.055 639.436,68.651C640.556,68.247 641.854,68.045 643.33,68.045C644.795,68.045 645.985,68.217 646.9,68.562C647.816,68.907 648.489,69.34 648.92,69.863C649.351,70.385 649.652,71.045 649.825,71.842C649.922,72.337 649.97,73.231 649.97,74.524L649.97,78.402C649.97,81.105 650.032,82.815 650.156,83.531C650.28,84.248 650.525,84.934 650.891,85.591L647.854,85.591C647.552,84.988 647.358,84.283 647.272,83.475ZM647.03,76.98C645.974,77.411 644.391,77.777 642.28,78.079C641.084,78.251 640.238,78.445 639.743,78.66C639.247,78.876 638.865,79.191 638.596,79.605C638.327,80.02 638.192,80.481 638.192,80.987C638.192,81.762 638.485,82.409 639.072,82.926C639.659,83.443 640.518,83.701 641.649,83.701C642.77,83.701 643.766,83.456 644.638,82.966C645.511,82.476 646.152,81.805 646.561,80.954C646.873,80.297 647.03,79.328 647.03,78.046L647.03,76.98Z" style="fill: var(--pst-color-text-base);fill-rule:nonzero;"/>
    <path d="M665.61,85.591L665.61,83.426C664.522,85.128 662.923,85.979 660.811,85.979C659.444,85.979 658.186,85.602 657.039,84.848C655.892,84.094 655.003,83.041 654.373,81.69C653.743,80.338 653.428,78.784 653.428,77.028C653.428,75.316 653.713,73.762 654.284,72.367C654.855,70.972 655.711,69.903 656.853,69.16C657.995,68.417 659.271,68.045 660.682,68.045C661.716,68.045 662.637,68.263 663.445,68.699C664.253,69.136 664.91,69.704 665.416,70.404L665.416,61.906L668.308,61.906L668.308,85.591L665.61,85.591ZM656.417,77.028C656.417,79.226 656.88,80.868 657.806,81.956C658.733,83.044 659.826,83.588 661.086,83.588C662.357,83.588 663.437,83.068 664.326,82.029C665.214,80.989 665.659,79.403 665.659,77.271C665.659,74.923 665.206,73.199 664.301,72.101C663.397,71.002 662.282,70.453 660.957,70.453C659.664,70.453 658.585,70.98 657.717,72.036C656.85,73.091 656.417,74.756 656.417,77.028Z" style="fill: var(--pst-color-text-base);fill-rule:nonzero;"/>
    <path d="M672.897,65.25L672.897,61.906L675.805,61.906L675.805,65.25L672.897,65.25ZM672.897,85.591L672.897,68.433L675.805,68.433L675.805,85.591L672.897,85.591Z" style="fill: var(--pst-color-text-base);fill-rule:nonzero;"/>
    <path d="M691.429,79.306L694.288,79.678C693.976,81.649 693.176,83.192 691.889,84.307C690.602,85.422 689.021,85.979 687.147,85.979C684.799,85.979 682.911,85.212 681.484,83.677C680.057,82.142 679.343,79.942 679.343,77.077C679.343,75.224 679.65,73.603 680.264,72.214C680.878,70.824 681.813,69.782 683.067,69.087C684.322,68.393 685.688,68.045 687.163,68.045C689.027,68.045 690.551,68.516 691.736,69.459C692.92,70.401 693.68,71.74 694.014,73.474L691.186,73.91C690.917,72.758 690.44,71.89 689.756,71.309C689.072,70.727 688.246,70.436 687.276,70.436C685.811,70.436 684.621,70.961 683.706,72.012C682.79,73.062 682.332,74.723 682.332,76.996C682.332,79.301 682.774,80.976 683.657,82.021C684.54,83.066 685.693,83.588 687.115,83.588C688.257,83.588 689.21,83.238 689.975,82.538C690.739,81.838 691.224,80.761 691.429,79.306Z" style="fill: var(--pst-color-text-base);fill-rule:nonzero;"/>
    <path d="M707.973,83.475C706.896,84.39 705.859,85.037 704.863,85.414C703.867,85.791 702.798,85.979 701.656,85.979C699.771,85.979 698.322,85.519 697.31,84.598C696.297,83.677 695.791,82.5 695.791,81.068C695.791,80.227 695.982,79.46 696.365,78.765C696.747,78.07 697.248,77.513 697.867,77.093C698.486,76.673 699.184,76.355 699.959,76.14C700.53,75.989 701.392,75.844 702.545,75.703C704.893,75.423 706.621,75.09 707.731,74.702C707.742,74.303 707.747,74.05 707.747,73.942C707.747,72.758 707.472,71.923 706.923,71.438C706.18,70.781 705.076,70.453 703.611,70.453C702.243,70.453 701.233,70.692 700.581,71.171C699.93,71.651 699.448,72.499 699.135,73.716L696.292,73.328C696.55,72.111 696.976,71.128 697.568,70.38C698.161,69.631 699.017,69.055 700.137,68.651C701.257,68.247 702.555,68.045 704.031,68.045C705.496,68.045 706.686,68.217 707.602,68.562C708.517,68.907 709.19,69.34 709.621,69.863C710.052,70.385 710.354,71.045 710.526,71.842C710.623,72.337 710.671,73.231 710.671,74.524L710.671,78.402C710.671,81.105 710.733,82.815 710.857,83.531C710.981,84.248 711.226,84.934 711.592,85.591L708.555,85.591C708.253,84.988 708.059,84.283 707.973,83.475ZM707.731,76.98C706.675,77.411 705.092,77.777 702.981,78.079C701.785,78.251 700.94,78.445 700.444,78.66C699.949,78.876 699.566,79.191 699.297,79.605C699.028,80.02 698.893,80.481 698.893,80.987C698.893,81.762 699.187,82.409 699.774,82.926C700.361,83.443 701.22,83.701 702.351,83.701C703.471,83.701 704.467,83.456 705.34,82.966C706.212,82.476 706.853,81.805 707.262,80.954C707.575,80.297 707.731,79.328 707.731,78.046L707.731,76.98Z" style="fill: var(--pst-color-text-base);fill-rule:nonzero;"/>
    <rect x="715.115" y="61.906" width="2.908" height="23.686" style="fill: var(--pst-color-text-base);fill-rule:nonzero;"/>
    <path d="M1039.78,139.566C1038.17,137.541 1036.82,135.172 1035.71,132.457C1034.6,129.743 1034.05,126.932 1034.05,124.023C1034.05,121.46 1034.46,119.004 1035.29,116.656C1036.26,113.931 1037.76,111.216 1039.78,108.513L1041.86,108.513C1040.56,110.753 1039.7,112.353 1039.28,113.311C1038.62,114.798 1038.11,116.349 1037.73,117.965C1037.27,119.979 1037.03,122.004 1037.03,124.04C1037.03,129.22 1038.64,134.396 1041.86,139.566L1039.78,139.566Z" style="fill: var(--pst-color-text-base);fill-rule:nonzero;"/>
    <path d="M1045.61,132.603L1045.61,108.917L1054.55,108.917C1056.12,108.917 1057.32,108.992 1058.15,109.143C1059.31,109.337 1060.29,109.706 1061.08,110.25C1061.86,110.794 1062.49,111.556 1062.97,112.536C1063.45,113.516 1063.69,114.593 1063.69,115.767C1063.69,117.781 1063.05,119.486 1061.77,120.881C1060.49,122.276 1058.17,122.973 1054.82,122.973L1048.75,122.973L1048.75,132.603L1045.61,132.603ZM1048.75,120.178L1054.87,120.178C1056.9,120.178 1058.33,119.801 1059.18,119.047C1060.04,118.293 1060.46,117.232 1060.46,115.864C1060.46,114.873 1060.21,114.025 1059.71,113.319C1059.21,112.614 1058.55,112.148 1057.73,111.922C1057.2,111.782 1056.23,111.712 1054.81,111.712L1048.75,111.712L1048.75,120.178Z" style="fill: var(--pst-color-text-base);fill-rule:nonzero;"/>
    <path d="M1074.45,132.603L1065.28,108.917L1068.67,108.917L1074.82,126.124C1075.32,127.502 1075.74,128.795 1076.07,130.001C1076.43,128.709 1076.86,127.416 1077.35,126.124L1083.74,108.917L1086.94,108.917L1077.67,132.603L1074.45,132.603Z" style="fill: var(--pst-color-text-base);fill-rule:nonzero;"/>
    <path d="M1106.65,124.298L1109.79,125.09C1109.13,127.664 1107.95,129.627 1106.24,130.979C1104.53,132.331 1102.45,133.007 1099.98,133.007C1097.43,133.007 1095.35,132.487 1093.75,131.447C1092.15,130.408 1090.93,128.903 1090.1,126.932C1089.27,124.96 1088.85,122.844 1088.85,120.582C1088.85,118.115 1089.32,115.964 1090.26,114.127C1091.2,112.291 1092.55,110.896 1094.29,109.943C1096.03,108.989 1097.94,108.513 1100.03,108.513C1102.4,108.513 1104.39,109.116 1106.01,110.322C1107.62,111.529 1108.75,113.225 1109.38,115.412L1106.3,116.139C1105.75,114.415 1104.95,113.161 1103.91,112.374C1102.86,111.588 1101.55,111.195 1099.96,111.195C1098.14,111.195 1096.62,111.631 1095.4,112.504C1094.18,113.376 1093.32,114.547 1092.82,116.018C1092.33,117.488 1092.08,119.004 1092.08,120.566C1092.08,122.58 1092.37,124.338 1092.96,125.841C1093.55,127.344 1094.46,128.467 1095.7,129.21C1096.94,129.953 1098.28,130.325 1099.72,130.325C1101.48,130.325 1102.96,129.818 1104.18,128.806C1105.4,127.793 1106.22,126.291 1106.65,124.298Z" style="fill: var(--pst-color-text-base);fill-rule:nonzero;"/>
    <path d="M1115.18,139.566L1113.1,139.566C1116.32,134.396 1117.93,129.22 1117.93,124.04C1117.93,122.015 1117.7,120.006 1117.24,118.013C1116.87,116.397 1116.36,114.846 1115.7,113.36C1115.28,112.39 1114.41,110.775 1113.1,108.513L1115.18,108.513C1117.21,111.216 1118.71,113.931 1119.68,116.656C1120.51,119.004 1120.92,121.46 1120.92,124.023C1120.92,126.932 1120.36,129.743 1119.25,132.457C1118.13,135.172 1116.78,137.541 1115.18,139.566Z" style="fill: var(--pst-color-text-base);fill-rule:nonzero;"/>
    <path d="M580.41,130.517L580.41,106.783L583.059,106.783L583.059,109.013C583.684,108.14 584.39,107.486 585.176,107.05C585.962,106.613 586.915,106.395 588.036,106.395C589.501,106.395 590.793,106.772 591.913,107.526C593.033,108.28 593.879,109.344 594.45,110.717C595.021,112.091 595.306,113.596 595.306,115.233C595.306,116.989 594.991,118.569 594.361,119.975C593.731,121.381 592.815,122.458 591.614,123.206C590.413,123.955 589.15,124.329 587.826,124.329C586.856,124.329 585.986,124.125 585.216,123.715C584.446,123.306 583.813,122.789 583.318,122.164L583.318,130.517L580.41,130.517ZM583.043,115.459C583.043,117.667 583.49,119.299 584.384,120.355C585.278,121.41 586.361,121.938 587.632,121.938C588.924,121.938 590.031,121.391 590.952,120.298C591.873,119.205 592.333,117.511 592.333,115.217C592.333,113.03 591.884,111.393 590.984,110.305C590.085,109.217 589.01,108.673 587.761,108.673C586.522,108.673 585.426,109.252 584.473,110.41C583.52,111.568 583.043,113.251 583.043,115.459Z" style="fill: var(--pst-color-text-base);fill-rule:nonzero;"/>
    <path d="M597.73,115.362C597.73,112.185 598.613,109.831 600.379,108.302C601.855,107.031 603.654,106.395 605.776,106.395C608.135,106.395 610.063,107.168 611.56,108.714C613.057,110.259 613.806,112.395 613.806,115.12C613.806,117.328 613.475,119.065 612.812,120.331C612.15,121.596 611.186,122.579 609.92,123.279C608.654,123.979 607.273,124.329 605.776,124.329C603.374,124.329 601.432,123.559 599.951,122.019C598.47,120.479 597.73,118.26 597.73,115.362ZM600.719,115.362C600.719,117.56 601.198,119.205 602.157,120.298C603.115,121.391 604.322,121.938 605.776,121.938C607.219,121.938 608.42,121.389 609.379,120.29C610.337,119.191 610.817,117.517 610.817,115.265C610.817,113.143 610.335,111.536 609.371,110.443C608.407,109.349 607.208,108.803 605.776,108.803C604.322,108.803 603.115,109.347 602.157,110.434C601.198,111.522 600.719,113.165 600.719,115.362Z" style="fill: var(--pst-color-text-base);fill-rule:nonzero;"/>
    <rect x="617.15" y="100.256" width="2.908" height="23.686" style="fill: var(--pst-color-text-base);fill-rule:nonzero;"/>
    <path d="M624.437,130.55L624.114,127.819C624.749,127.992 625.304,128.078 625.778,128.078C626.424,128.078 626.941,127.97 627.329,127.755C627.717,127.539 628.035,127.238 628.282,126.85C628.465,126.559 628.762,125.837 629.171,124.685C629.225,124.523 629.311,124.286 629.429,123.974L622.918,106.783L626.053,106.783L629.623,116.719C630.086,117.98 630.501,119.305 630.867,120.694C631.201,119.358 631.6,118.055 632.063,116.784L635.731,106.783L638.639,106.783L632.111,124.232C631.411,126.117 630.867,127.415 630.48,128.126C629.963,129.085 629.37,129.788 628.702,130.235C628.035,130.682 627.237,130.905 626.311,130.905C625.751,130.905 625.126,130.787 624.437,130.55Z" style="fill: var(--pst-color-text-base);fill-rule:nonzero;"/>
    <path d="M641.111,123.942L641.111,106.783L643.712,106.783L643.712,109.19C644.251,108.35 644.967,107.674 645.861,107.163C646.755,106.651 647.773,106.395 648.915,106.395C650.186,106.395 651.228,106.659 652.041,107.187C652.854,107.715 653.428,108.453 653.762,109.4C655.119,107.397 656.885,106.395 659.061,106.395C660.763,106.395 662.072,106.866 662.987,107.809C663.903,108.751 664.361,110.203 664.361,112.163L664.361,123.942L661.468,123.942L661.468,113.133C661.468,111.969 661.374,111.132 661.186,110.62C660.997,110.109 660.655,109.697 660.16,109.384C659.664,109.072 659.083,108.916 658.415,108.916C657.208,108.916 656.207,109.317 655.41,110.119C654.613,110.922 654.214,112.206 654.214,113.973L654.214,123.942L651.306,123.942L651.306,112.793C651.306,111.501 651.069,110.531 650.595,109.885C650.121,109.239 649.345,108.916 648.268,108.916C647.45,108.916 646.693,109.131 645.998,109.562C645.304,109.993 644.8,110.623 644.488,111.452C644.175,112.282 644.019,113.477 644.019,115.039L644.019,123.942L641.111,123.942Z" style="fill: var(--pst-color-text-base);fill-rule:nonzero;"/>
    <path d="M680.42,118.416L683.426,118.788C682.952,120.543 682.074,121.906 680.792,122.875C679.51,123.845 677.873,124.329 675.88,124.329C673.371,124.329 671.381,123.557 669.91,122.011C668.44,120.465 667.705,118.297 667.705,115.508C667.705,112.621 668.448,110.381 669.935,108.786C671.421,107.192 673.349,106.395 675.719,106.395C678.013,106.395 679.887,107.176 681.341,108.738C682.795,110.3 683.522,112.497 683.522,115.33C683.522,115.502 683.517,115.761 683.506,116.106L670.71,116.106C670.818,117.99 671.351,119.434 672.31,120.436C673.268,121.437 674.464,121.938 675.896,121.938C676.963,121.938 677.873,121.658 678.627,121.098C679.381,120.538 679.979,119.644 680.42,118.416ZM670.872,113.714L680.453,113.714C680.323,112.271 679.957,111.188 679.354,110.467C678.428,109.347 677.227,108.786 675.751,108.786C674.415,108.786 673.293,109.233 672.382,110.127C671.472,111.021 670.969,112.217 670.872,113.714Z" style="fill: var(--pst-color-text-base);fill-rule:nonzero;"/>
    <path d="M687.045,123.942L687.045,106.783L689.662,106.783L689.662,109.384C690.33,108.167 690.947,107.365 691.512,106.977C692.078,106.589 692.7,106.395 693.378,106.395C694.358,106.395 695.355,106.708 696.367,107.332L695.365,110.031C694.655,109.61 693.944,109.4 693.233,109.4C692.597,109.4 692.026,109.592 691.52,109.974C691.014,110.356 690.653,110.887 690.438,111.565C690.114,112.599 689.953,113.73 689.953,114.958L689.953,123.942L687.045,123.942Z" style="fill: var(--pst-color-text-base);fill-rule:nonzero;"/>
    <path d="M698.112,103.6L698.112,100.256L701.02,100.256L701.02,103.6L698.112,103.6ZM698.112,123.942L698.112,106.783L701.02,106.783L701.02,123.942L698.112,123.942Z" style="fill: var(--pst-color-text-base);fill-rule:nonzero;"/>
    <path d="M703.912,123.942L703.912,121.583L714.834,109.045C713.596,109.11 712.502,109.142 711.555,109.142L704.559,109.142L704.559,106.783L718.583,106.783L718.583,108.706L709.293,119.595L707.499,121.583C708.803,121.486 710.025,121.437 711.167,121.437L719.1,121.437L719.1,123.942L703.912,123.942Z" style="fill: var(--pst-color-text-base);fill-rule:nonzero;"/>
    <path d="M733.189,121.825C732.111,122.741 731.075,123.387 730.078,123.764C729.082,124.141 728.013,124.329 726.871,124.329C724.986,124.329 723.538,123.869 722.525,122.948C721.513,122.027 721.006,120.85 721.006,119.418C721.006,118.578 721.198,117.81 721.58,117.115C721.962,116.421 722.463,115.863 723.082,115.443C723.702,115.023 724.399,114.705 725.175,114.49C725.746,114.339 726.607,114.194 727.76,114.054C730.108,113.774 731.837,113.44 732.946,113.052C732.957,112.653 732.962,112.4 732.962,112.293C732.962,111.108 732.688,110.273 732.138,109.788C731.395,109.131 730.291,108.803 728.826,108.803C727.458,108.803 726.448,109.042 725.797,109.522C725.145,110.001 724.663,110.849 724.351,112.066L721.507,111.679C721.766,110.461 722.191,109.479 722.784,108.73C723.376,107.981 724.232,107.405 725.353,107.001C726.473,106.597 727.771,106.395 729.246,106.395C730.711,106.395 731.901,106.568 732.817,106.912C733.733,107.257 734.406,107.69 734.837,108.213C735.267,108.735 735.569,109.395 735.741,110.192C735.838,110.688 735.887,111.582 735.887,112.874L735.887,116.752C735.887,119.455 735.949,121.165 736.073,121.882C736.196,122.598 736.441,123.285 736.808,123.942L733.77,123.942C733.469,123.338 733.275,122.633 733.189,121.825ZM732.946,115.33C731.891,115.761 730.307,116.127 728.196,116.429C727.001,116.601 726.155,116.795 725.66,117.01C725.164,117.226 724.782,117.541 724.512,117.955C724.243,118.37 724.108,118.831 724.108,119.337C724.108,120.112 724.402,120.759 724.989,121.276C725.576,121.793 726.435,122.051 727.566,122.051C728.686,122.051 729.683,121.806 730.555,121.316C731.427,120.826 732.068,120.155 732.478,119.305C732.79,118.648 732.946,117.678 732.946,116.396L732.946,115.33Z" style="fill: var(--pst-color-text-base);fill-rule:nonzero;"/>
    <path d="M746.744,121.34L747.164,123.909C746.346,124.082 745.613,124.168 744.967,124.168C743.911,124.168 743.093,124.001 742.511,123.667C741.929,123.333 741.52,122.894 741.283,122.35C741.046,121.806 740.928,120.662 740.928,118.917L740.928,109.045L738.795,109.045L738.795,106.783L740.928,106.783L740.928,102.534L743.82,100.789L743.82,106.783L746.744,106.783L746.744,109.045L743.82,109.045L743.82,119.078C743.82,119.908 743.871,120.441 743.973,120.678C744.076,120.915 744.243,121.103 744.474,121.243C744.706,121.383 745.037,121.453 745.468,121.453C745.791,121.453 746.216,121.416 746.744,121.34Z" style="fill: var(--pst-color-text-base);fill-rule:nonzero;"/>
    <path d="M749.604,103.6L749.604,100.256L752.512,100.256L752.512,103.6L749.604,103.6ZM749.604,123.942L749.604,106.783L752.512,106.783L752.512,123.942L749.604,123.942Z" style="fill: var(--pst-color-text-base);fill-rule:nonzero;"/>
    <path d="M755.857,115.362C755.857,112.185 756.74,109.831 758.506,108.302C759.982,107.031 761.781,106.395 763.903,106.395C766.262,106.395 768.19,107.168 769.687,108.714C771.184,110.259 771.933,112.395 771.933,115.12C771.933,117.328 771.601,119.065 770.939,120.331C770.277,121.596 769.313,122.579 768.047,123.279C766.781,123.979 765.4,124.329 763.903,124.329C761.501,124.329 759.559,123.559 758.078,122.019C756.597,120.479 755.857,118.26 755.857,115.362ZM758.846,115.362C758.846,117.56 759.325,119.205 760.284,120.298C761.242,121.391 762.449,121.938 763.903,121.938C765.346,121.938 766.547,121.389 767.506,120.29C768.464,119.191 768.944,117.517 768.944,115.265C768.944,113.143 768.462,111.536 767.498,110.443C766.534,109.349 765.335,108.803 763.903,108.803C762.449,108.803 761.242,109.347 760.284,110.434C759.325,111.522 758.846,113.165 758.846,115.362Z" style="fill: var(--pst-color-text-base);fill-rule:nonzero;"/>
    <path d="M775.342,123.942L775.342,106.783L777.959,106.783L777.959,109.223C779.219,107.338 781.04,106.395 783.42,106.395C784.454,106.395 785.405,106.581 786.272,106.953C787.139,107.324 787.788,107.812 788.219,108.415C788.65,109.018 788.951,109.734 789.124,110.564C789.231,111.102 789.285,112.045 789.285,113.391L789.285,123.942L786.377,123.942L786.377,113.504C786.377,112.319 786.264,111.433 786.038,110.846C785.811,110.259 785.41,109.791 784.834,109.441C784.258,109.091 783.582,108.916 782.806,108.916C781.568,108.916 780.498,109.309 779.599,110.095C778.7,110.881 778.25,112.373 778.25,114.571L778.25,123.942L775.342,123.942Z" style="fill: var(--pst-color-text-base);fill-rule:nonzero;"/>
    <g>
        <path d="M456.328,77.416L456.822,75.571L458.667,75.076L499.432,115.841L498.938,117.686L497.092,118.181L456.328,77.416Z" style="fill: var(--pst-color-text-base);fill-rule:nonzero;"/>
        <path d="M503.312,104.559L469.95,71.197L467.61,73.537L500.972,106.899L503.312,104.559Z" style="fill: var(--pst-color-text-base);"/>
        <path d="M402.796,94.387L405.93,95.178C405.273,97.753 404.091,99.716 402.384,101.068C400.677,102.419 398.59,103.095 396.123,103.095C393.57,103.095 391.494,102.576 389.895,101.536C388.295,100.497 387.078,98.991 386.243,97.02C385.409,95.049 384.991,92.933 384.991,90.671C384.991,88.204 385.462,86.052 386.405,84.216C387.347,82.379 388.688,80.985 390.428,80.031C392.167,79.078 394.082,78.601 396.172,78.601C398.541,78.601 400.534,79.205 402.15,80.411C403.765,81.617 404.891,83.314 405.526,85.5L402.441,86.227C401.891,84.504 401.094,83.249 400.049,82.463C399.005,81.677 397.69,81.284 396.107,81.284C394.287,81.284 392.765,81.72 391.543,82.592C390.32,83.465 389.461,84.636 388.966,86.106C388.47,87.577 388.223,89.093 388.223,90.654C388.223,92.669 388.516,94.427 389.103,95.93C389.69,97.432 390.603,98.555 391.842,99.298C393.08,100.042 394.421,100.413 395.865,100.413C397.62,100.413 399.107,99.907 400.324,98.894C401.541,97.882 402.365,96.379 402.796,94.387Z" style="fill: var(--pst-color-text-base);fill-rule:nonzero;"/>
        <rect x="409.356" y="79.005" width="2.908" height="23.686" style="fill: var(--pst-color-text-base);fill-rule:nonzero;"/>
        <path d="M462.939,29.745L462.939,6.059L466.074,6.059L466.074,15.785L478.385,15.785L478.385,6.059L481.52,6.059L481.52,29.745L478.385,29.745L478.385,18.581L466.074,18.581L466.074,29.745L462.939,29.745Z" style="fill: var(--pst-color-text-base);fill-rule:nonzero;"/>
        <path d="M547.17,113.976L547.17,90.29L550.305,90.29L550.305,100.017L562.616,100.017L562.616,90.29L565.751,90.29L565.751,113.976L562.616,113.976L562.616,102.812L550.305,102.812L550.305,113.976L547.17,113.976Z" style="fill: var(--pst-color-text-base);fill-rule:nonzero;"/>
        <path d="M474.224,186.922L474.224,163.237L477.359,163.237L477.359,172.963L489.67,172.963L489.67,163.237L492.804,163.237L492.804,186.922L489.67,186.922L489.67,175.758L477.359,175.758L477.359,186.922L474.224,186.922Z" style="fill: var(--pst-color-text-base);fill-rule:nonzero;"/>
        <path d="M455.471,74.22L456.822,75.571L456.328,77.416L417.305,87.872L416.449,84.676L455.471,74.22Z" style="fill: var(--pst-color-text-base);fill-rule:nonzero;"/>
        <path d="M458.667,75.076L456.822,75.571L455.471,74.22L465.332,37.42L468.528,38.276L458.667,75.076Z" style="fill: var(--pst-color-text-base);fill-rule:nonzero;"/>
        <path d="M500.289,119.037L498.938,117.686L499.432,115.841L538.008,105.505L538.864,108.701L500.289,119.037Z" style="fill: var(--pst-color-text-base);fill-rule:nonzero;"/>
        <path d="M497.092,118.181L498.938,117.686L500.289,119.037L490.394,155.963L487.198,155.106L497.092,118.181Z" style="fill: var(--pst-color-text-base);fill-rule:nonzero;"/>
    </g>
    <path d="M877.914,89.303L834.172,89.303L834.172,92.699L877.914,92.699L877.914,89.303Z" style="fill: var(--pst-color-text-base);"/>
    <path d="M870.041,163.538L859.215,163.538" style="fill:none;fill-rule:nonzero;stroke: var(--pst-color-text-base);stroke-width:2px;"/>
    <path d="M859.215,163.538L859.215,16.35" style="fill:none;fill-rule:nonzero;stroke: var(--pst-color-text-base);stroke-width:2px;"/>
    <path d="M859.215,16.35L870.041,16.35" style="fill:none;fill-rule:nonzero;stroke: var(--pst-color-text-base);stroke-width:2px;"/>
    <path d="M990.076,16.35L1000.9,16.35" style="fill:none;fill-rule:nonzero;stroke: var(--pst-color-text-base);stroke-width:2px;"/>
    <path d="M1000.9,16.35L1000.9,163.538" style="fill:none;fill-rule:nonzero;stroke: var(--pst-color-text-base);stroke-width:2px;"/>
    <path d="M1000.9,163.538L990.076,163.538" style="fill:none;fill-rule:nonzero;stroke: var(--pst-color-text-base);stroke-width:2px;"/>
    <path d="M1014.41,170.151L1014.41,156.941L1016.43,156.941L1016.43,158.819C1017.41,157.368 1018.81,156.642 1020.65,156.642C1021.45,156.642 1022.19,156.785 1022.86,157.071C1023.53,157.357 1024.03,157.733 1024.37,158.197C1024.7,158.661 1024.93,159.213 1025.07,159.851C1025.15,160.266 1025.19,160.992 1025.19,162.028L1025.19,170.151L1022.94,170.151L1022.94,162.115C1022.94,161.203 1022.85,160.521 1022.68,160.069C1022.5,159.617 1022.19,159.256 1021.75,158.987C1021.3,158.717 1020.78,158.583 1020.18,158.583C1019.22,158.583 1018.39,158.885 1017.7,159.491C1017,160.096 1016.66,161.245 1016.66,162.936L1016.66,170.151L1014.41,170.151Z" style="fill: var(--pst-color-text-base);fill-rule:nonzero;"/>
    <g transform="matrix(5.68644,0,0,5.66107,821.779,0.782093)">
        <g transform="matrix(6,0,0,6,10.8129,18.0958)">
            <path d="M0.588,-0.251L0.683,-0.227C0.663,-0.149 0.627,-0.09 0.575,-0.049C0.524,-0.008 0.461,0.012 0.386,0.012C0.309,0.012 0.246,-0.003 0.198,-0.035C0.15,-0.066 0.113,-0.112 0.088,-0.171C0.062,-0.231 0.05,-0.295 0.05,-0.363C0.05,-0.438 0.064,-0.503 0.093,-0.558C0.121,-0.614 0.162,-0.656 0.214,-0.685C0.267,-0.714 0.325,-0.728 0.388,-0.728C0.459,-0.728 0.52,-0.71 0.568,-0.673C0.617,-0.637 0.651,-0.586 0.67,-0.52L0.577,-0.498C0.561,-0.55 0.536,-0.588 0.505,-0.611C0.473,-0.635 0.434,-0.647 0.386,-0.647C0.331,-0.647 0.285,-0.634 0.248,-0.607C0.211,-0.581 0.185,-0.546 0.17,-0.501C0.155,-0.457 0.147,-0.411 0.147,-0.364C0.147,-0.303 0.156,-0.25 0.174,-0.204C0.192,-0.159 0.219,-0.125 0.257,-0.103C0.294,-0.08 0.335,-0.069 0.378,-0.069C0.431,-0.069 0.476,-0.084 0.513,-0.115C0.55,-0.145 0.575,-0.191 0.588,-0.251Z" style="fill: var(--pst-color-text-base);fill-rule:nonzero;"/>
        </g>
        <g transform="matrix(6,0,0,6,21.5629,18.0035)">
            <path d="M0.588,-0.251L0.683,-0.227C0.663,-0.149 0.627,-0.09 0.575,-0.049C0.524,-0.008 0.461,0.012 0.386,0.012C0.309,0.012 0.246,-0.003 0.198,-0.035C0.15,-0.066 0.113,-0.112 0.088,-0.171C0.062,-0.231 0.05,-0.295 0.05,-0.363C0.05,-0.438 0.064,-0.503 0.093,-0.558C0.121,-0.614 0.162,-0.656 0.214,-0.685C0.267,-0.714 0.325,-0.728 0.388,-0.728C0.459,-0.728 0.52,-0.71 0.568,-0.673C0.617,-0.637 0.651,-0.586 0.67,-0.52L0.577,-0.498C0.561,-0.55 0.536,-0.588 0.505,-0.611C0.473,-0.635 0.434,-0.647 0.386,-0.647C0.331,-0.647 0.285,-0.634 0.248,-0.607C0.211,-0.581 0.185,-0.546 0.17,-0.501C0.155,-0.457 0.147,-0.411 0.147,-0.364C0.147,-0.303 0.156,-0.25 0.174,-0.204C0.192,-0.159 0.219,-0.125 0.257,-0.103C0.294,-0.08 0.335,-0.069 0.378,-0.069C0.431,-0.069 0.476,-0.084 0.513,-0.115C0.55,-0.145 0.575,-0.191 0.588,-0.251Z" style="fill: var(--pst-color-text-base);fill-rule:nonzero;"/>
        </g>
    </g>
    <path d="M964.451,33.037L967.683,33.85C967.005,36.492 965.786,38.507 964.026,39.895C962.266,41.282 960.114,41.976 957.57,41.976C954.938,41.976 952.797,41.443 951.148,40.376C949.499,39.309 948.244,37.764 947.383,35.74C946.522,33.717 946.092,31.544 946.092,29.222C946.092,26.69 946.578,24.482 947.55,22.597C948.522,20.711 949.904,19.279 951.698,18.301C953.492,17.322 955.466,16.833 957.62,16.833C960.064,16.833 962.118,17.452 963.784,18.691C965.45,19.929 966.611,21.671 967.266,23.915L964.084,24.661C963.518,22.892 962.696,21.604 961.619,20.797C960.541,19.99 959.186,19.586 957.554,19.586C955.677,19.586 954.108,20.034 952.847,20.93C951.587,21.825 950.701,23.028 950.19,24.537C949.679,26.046 949.424,27.602 949.424,29.206C949.424,31.273 949.727,33.078 950.332,34.621C950.937,36.163 951.878,37.316 953.156,38.079C954.433,38.842 955.816,39.223 957.304,39.223C959.114,39.223 960.647,38.703 961.902,37.664C963.157,36.625 964.007,35.082 964.451,33.037Z" style="fill: var(--pst-color-text-base);fill-rule:nonzero;"/>
    <rect x="971.216" y="17.248" width="2.999" height="24.314" style="fill: var(--pst-color-text-base);fill-rule:nonzero;"/>
    <path d="M885.998,164.156L885.998,139.842L889.23,139.842L889.23,149.826L901.924,149.826L901.924,139.842L905.156,139.842L905.156,164.156L901.924,164.156L901.924,152.696L889.23,152.696L889.23,164.156L885.998,164.156Z" style="fill: var(--pst-color-text-base);fill-rule:nonzero;"/>
    <path d="M885.998,41.877L885.998,17.563L889.23,17.563L889.23,27.547L901.924,27.547L901.924,17.563L905.156,17.563L905.156,41.877L901.924,41.877L901.924,30.417L889.23,30.417L889.23,41.877L885.998,41.877Z" style="fill: var(--pst-color-text-base);fill-rule:nonzero;"/>
    <path d="M947.125,163.633L947.125,139.32L950.357,139.32L950.357,149.304L963.051,149.304L963.051,139.32L966.283,139.32L966.283,163.633L963.051,163.633L963.051,152.173L950.357,152.173L950.357,163.633L947.125,163.633Z" style="fill: var(--pst-color-text-base);fill-rule:nonzero;"/>
    <path d="M939.027,88.931L913.325,89.151L913.354,92.548L939.057,92.328L939.027,88.931Z" style="fill: var(--pst-color-text-base);"/>
    <rect x="955.007" y="48.903" width="3.412" height="22.475" style="fill: var(--pst-color-text-base);"/>
    <rect x="893.88" y="110.565" width="3.412" height="22.682" style="fill: var(--pst-color-text-base);"/>
    <rect x="893.88" y="48.784" width="3.412" height="23.116" style="fill: var(--pst-color-text-base);"/>
    <rect x="955.007" y="110.043" width="3.412" height="22.682" style="fill: var(--pst-color-text-base);"/>
    <path d="M1018.13,88.78L974.467,88.78L974.467,92.177L1018.13,92.177L1018.13,88.78Z" style="fill: var(--pst-color-text-base);"/>
</svg>
