<svg width="100%" height="100%" viewBox="0 0 202 377" version="1.1" xmlns="http://www.w3.org/2000/svg" 
    xmlns:xlink="http://www.w3.org/1999/xlink" xml:space="preserve" xmlns:serif="http://www.serif.com/" 
    style="fill-rule:evenodd;clip-rule:evenodd;stroke-linejoin:round;stroke-miterlimit:1.5;max-width:200px;display:flex;margin:auto">
    <rect id="SHE" x="0" y="0.676" width="201.573" height="375.536" style="fill:none;"/>
    <path d="M155.836,33.806C155.729,98.352 155.514,227.444 155.923,268.735C155.968,273.287 157.931,277.056 158.291,281.551C158.686,286.469 158.308,292.68 158.291,298.244C158.269,305.753 159.971,311.885 158.16,326.604C155.362,328.656 140.164,328.093 137.052,326.482C135.807,310.475 137.052,305.732 137.052,298.244C137.052,292.68 136.559,286.469 137.052,281.551C137.514,276.94 139.952,273.436 140.009,268.735C140.501,227.98 140.173,100.674 140.009,37.021" style="fill:none;stroke:#000;stroke-width:1px;"/>
    <path d="M155.923,268.735C155.393,272.007 157.931,277.056 158.291,281.551C158.686,286.469 158.308,292.68 158.291,298.244C158.269,305.753 159.971,311.885 158.16,326.604C155.362,328.656 140.164,328.093 137.052,326.482C135.807,310.475 137.052,305.732 137.052,298.244C137.052,292.68 136.559,286.469 137.052,281.551C137.514,276.94 140.464,271.696 140.009,268.735C143.154,266.599 152.876,266.599 155.923,268.735Z" style="fill:#efefef;stroke:#000;stroke-width:1px;"/>
    <path d="M61.079,71.418L61.079,23.342" style="fill:none;stroke:var(--pst-color-text-base);stroke-width:2px;stroke-linecap:round;"/>
    <path d="M21.764,184.943L162.839,184.943L193.712,154.071L53.241,154.071L21.764,184.943Z" style="fill:#b3c9ee;fill-opacity:0.7;"/>
    <path d="M194.495,64.883L194.495,336.68" style="fill:none;stroke:#000;stroke-width:2px;"/>
    <path d="M53.899,64.883L53.899,336.68" style="fill:none;stroke:#000;stroke-width:2px;"/>
    <path d="M21.764,96.539L53.42,64.883L194.495,64.883L162.839,96.539" style="fill:none;stroke:#000;stroke-width:2px;"/>
    <path d="M21.764,368.157L53.42,336.501L194.495,336.501L162.839,368.157" style="fill:none;stroke:#000;stroke-width:2px;"/>
    <g>
        <rect x="49.666" y="57.358" width="33.118" height="277.031" style="fill:#e2e2e2;stroke:#000;stroke-width:1px;stroke-linecap:round;"/>
        <g>
            <path d="M57.075,149.348L57.086,135.032L61.724,135.035C63.482,135.036 64.628,135.109 65.162,135.252C65.982,135.468 66.668,135.936 67.221,136.655C67.774,137.375 68.05,138.305 68.049,139.444C68.049,140.323 67.888,141.062 67.569,141.661C67.25,142.259 66.844,142.729 66.352,143.071C65.86,143.412 65.36,143.638 64.853,143.748C64.162,143.885 63.163,143.952 61.854,143.951L59.97,143.95L59.966,149.35L57.075,149.348ZM59.974,137.456L59.971,141.518L61.553,141.519C62.693,141.52 63.455,141.446 63.839,141.296C64.223,141.147 64.524,140.913 64.743,140.594C64.961,140.275 65.07,139.904 65.071,139.481C65.071,138.96 64.918,138.53 64.613,138.192C64.307,137.853 63.92,137.641 63.451,137.556C63.106,137.491 62.413,137.457 61.371,137.457L59.974,137.456Z" style="fill:#5e555e;fill-rule:nonzero;stroke:#464646;stroke-width:0.5px;stroke-miterlimit:2;"/>
            <path d="M75.159,138.99L75.157,141.178L73.282,141.177L73.279,145.356C73.279,146.203 73.296,146.696 73.332,146.836C73.367,146.976 73.449,147.091 73.576,147.183C73.703,147.274 73.857,147.32 74.039,147.32C74.293,147.32 74.661,147.232 75.143,147.057L75.376,149.186C74.738,149.459 74.015,149.595 73.208,149.594C72.713,149.594 72.267,149.511 71.87,149.344C71.473,149.178 71.182,148.963 70.996,148.699C70.811,148.435 70.683,148.079 70.611,147.63C70.553,147.311 70.524,146.666 70.525,145.696L70.528,141.174L69.269,141.174L69.27,138.986L70.53,138.987L70.532,136.926L73.287,135.327L73.284,138.989L75.159,138.99Z" style="fill:#5e555e;fill-rule:nonzero;stroke:#464646;stroke-width:0.5px;stroke-miterlimit:2;"/>
            <rect x="49.149" y="178.155" width="34.153" height="6.788" style="fill:#b3c9ee;fill-opacity:0.7;"/>
        </g>
    </g>
    <g transform="matrix(1,0.000745231,-0.000745231,1,-312.682,-266.675)">
        <g transform="matrix(18,0,0,18,364.531,621.613)">
            <path d="M0.394,-0L0.256,-0L0.256,-0.517C0.206,-0.47 0.147,-0.436 0.079,-0.413L0.079,-0.538C0.115,-0.549 0.154,-0.572 0.196,-0.604C0.238,-0.637 0.267,-0.675 0.282,-0.719L0.394,-0.719L0.394,-0Z" style="fill:var(--pst-color-text-base);fill-rule:nonzero;"/>
        </g>
        <g transform="matrix(18,0,0,18,379.543,621.613)">
            <path d="M0.071,-0L0.071,-0.716L0.287,-0.716L0.417,-0.228L0.545,-0.716L0.762,-0.716L0.762,-0L0.628,-0L0.628,-0.563L0.486,-0L0.347,-0L0.205,-0.563L0.205,-0L0.071,-0Z" style="fill:var(--pst-color-text-base);fill-rule:nonzero;"/>
        </g>
        <g transform="matrix(18,0,0,18,399.538,621.613)">
            <path d="M0.073,-0L0.073,-0.716L0.218,-0.716L0.218,-0.434L0.501,-0.434L0.501,-0.716L0.646,-0.716L0.646,-0L0.501,-0L0.501,-0.313L0.218,-0.313L0.218,-0L0.073,-0Z" style="fill:var(--pst-color-text-base);fill-rule:nonzero;"/>
        </g>
        <g transform="matrix(18,0,0,18,412.537,621.613)">
            <path d="M0.531,-0.263L0.671,-0.219C0.649,-0.141 0.614,-0.083 0.564,-0.045C0.514,-0.007 0.45,0.012 0.374,0.012C0.278,0.012 0.2,-0.02 0.139,-0.085C0.078,-0.15 0.047,-0.239 0.047,-0.352C0.047,-0.471 0.078,-0.563 0.14,-0.629C0.201,-0.695 0.282,-0.728 0.382,-0.728C0.47,-0.728 0.541,-0.702 0.596,-0.65C0.628,-0.62 0.653,-0.576 0.669,-0.519L0.526,-0.484C0.517,-0.521 0.5,-0.551 0.473,-0.572C0.446,-0.594 0.413,-0.604 0.375,-0.604C0.322,-0.604 0.279,-0.585 0.246,-0.547C0.213,-0.509 0.196,-0.448 0.196,-0.362C0.196,-0.272 0.213,-0.207 0.245,-0.169C0.278,-0.131 0.32,-0.111 0.372,-0.111C0.41,-0.111 0.444,-0.124 0.471,-0.148C0.499,-0.172 0.519,-0.211 0.531,-0.263Z" style="fill:var(--pst-color-text-base);fill-rule:nonzero;"/>
        </g>
        <g transform="matrix(18,0,0,18,425.536,621.613)">
            <rect x="0.072" y="-0.716" width="0.137" height="0.716" style="fill:var(--pst-color-text-base);fill-rule:nonzero;"/>
        </g>
        <g transform="matrix(18,0,0,18,435.538,621.613)">
            <path d="M0.299,0.21L0.205,0.21C0.155,0.135 0.117,0.057 0.091,-0.024C0.065,-0.105 0.052,-0.183 0.052,-0.259C0.052,-0.353 0.068,-0.442 0.101,-0.526C0.129,-0.599 0.164,-0.667 0.207,-0.728L0.301,-0.728C0.256,-0.629 0.226,-0.545 0.209,-0.476C0.192,-0.407 0.184,-0.334 0.184,-0.256C0.184,-0.203 0.189,-0.148 0.198,-0.092C0.208,-0.036 0.222,0.017 0.239,0.067C0.251,0.101 0.271,0.148 0.299,0.21Z" style="fill:var(--pst-color-text-base);fill-rule:nonzero;"/>
        </g>
        <g transform="matrix(18,0,0,18,441.532,621.613)">
            <path d="M0.238,-0.372L0.101,-0.383C0.117,-0.43 0.144,-0.466 0.183,-0.492C0.222,-0.518 0.273,-0.531 0.337,-0.531C0.404,-0.531 0.453,-0.517 0.485,-0.49C0.517,-0.464 0.533,-0.431 0.533,-0.392C0.533,-0.376 0.532,-0.36 0.529,-0.342C0.526,-0.325 0.517,-0.278 0.5,-0.204C0.486,-0.142 0.479,-0.098 0.479,-0.074C0.479,-0.052 0.483,-0.027 0.491,-0L0.355,-0C0.349,-0.019 0.346,-0.038 0.345,-0.059C0.324,-0.036 0.301,-0.018 0.274,-0.006C0.247,0.006 0.22,0.012 0.193,0.012C0.15,0.012 0.115,-0.002 0.087,-0.03C0.059,-0.058 0.045,-0.094 0.045,-0.139C0.045,-0.188 0.06,-0.228 0.091,-0.257C0.122,-0.287 0.177,-0.305 0.256,-0.311C0.323,-0.317 0.367,-0.323 0.39,-0.331C0.396,-0.351 0.398,-0.366 0.398,-0.378C0.398,-0.393 0.392,-0.405 0.38,-0.416C0.368,-0.426 0.35,-0.431 0.327,-0.431C0.302,-0.431 0.282,-0.426 0.267,-0.415C0.253,-0.405 0.243,-0.39 0.238,-0.372ZM0.371,-0.242C0.363,-0.239 0.351,-0.237 0.337,-0.235C0.267,-0.227 0.221,-0.215 0.2,-0.198C0.184,-0.187 0.177,-0.171 0.177,-0.151C0.177,-0.135 0.183,-0.121 0.194,-0.11C0.206,-0.098 0.222,-0.093 0.241,-0.093C0.262,-0.093 0.282,-0.098 0.301,-0.108C0.319,-0.118 0.333,-0.132 0.343,-0.148C0.352,-0.164 0.36,-0.189 0.367,-0.223L0.371,-0.242Z" style="fill:var(--pst-color-text-base);fill-rule:nonzero;"/>
        </g>
        <g transform="matrix(18,0,0,18,451.543,621.613)">
            <path d="M0.496,-0.519L0.625,-0.519L0.476,0.198L0.335,0.198L0.386,-0.044C0.361,-0.024 0.338,-0.009 0.316,-0.001C0.294,0.008 0.269,0.012 0.242,0.012C0.187,0.012 0.143,-0.006 0.109,-0.043C0.076,-0.08 0.06,-0.133 0.06,-0.204C0.06,-0.259 0.071,-0.313 0.093,-0.366C0.116,-0.419 0.147,-0.46 0.187,-0.488C0.227,-0.517 0.27,-0.531 0.316,-0.531C0.391,-0.531 0.445,-0.5 0.479,-0.437L0.496,-0.519ZM0.195,-0.206C0.195,-0.171 0.204,-0.144 0.223,-0.123C0.242,-0.103 0.265,-0.092 0.292,-0.092C0.315,-0.092 0.338,-0.1 0.36,-0.116C0.382,-0.133 0.4,-0.159 0.414,-0.196C0.428,-0.233 0.435,-0.269 0.435,-0.303C0.435,-0.342 0.425,-0.372 0.405,-0.394C0.385,-0.416 0.362,-0.427 0.336,-0.427C0.315,-0.427 0.293,-0.419 0.271,-0.402C0.248,-0.385 0.23,-0.357 0.216,-0.318C0.202,-0.279 0.195,-0.242 0.195,-0.206Z" style="fill:var(--pst-color-text-base);fill-rule:nonzero;"/>
        </g>
        <g transform="matrix(18,0,0,18,462.538,621.613)">
            <path d="M0.034,0.21C0.061,0.153 0.08,0.108 0.091,0.077C0.102,0.046 0.112,0.011 0.122,-0.03C0.131,-0.07 0.138,-0.108 0.143,-0.145C0.147,-0.181 0.149,-0.218 0.149,-0.256C0.149,-0.334 0.141,-0.407 0.125,-0.476C0.108,-0.545 0.077,-0.629 0.033,-0.728L0.126,-0.728C0.175,-0.658 0.213,-0.584 0.24,-0.505C0.268,-0.427 0.281,-0.347 0.281,-0.267C0.281,-0.199 0.271,-0.126 0.249,-0.048C0.225,0.039 0.184,0.125 0.128,0.21L0.034,0.21Z" style="fill:var(--pst-color-text-base);fill-rule:nonzero;"/>
        </g>
    </g>
    <g transform="matrix(1,0.000745231,-0.000745231,1,-275.73,-409.777)">
        <g transform="matrix(18,0,0,18,364.531,621.613)">
            <path d="M0.073,-0L0.073,-0.716L0.218,-0.716L0.218,-0.434L0.501,-0.434L0.501,-0.716L0.646,-0.716L0.646,-0L0.501,-0L0.501,-0.313L0.218,-0.313L0.218,-0L0.073,-0Z" style="fill:var(--pst-color-text-base);fill-rule:nonzero;"/>
        </g>
        <g transform="matrix(10.494,0,0,10.494,377.53,627.607)">
            <path d="M0.506,-0.127L0.506,-0L0.025,-0C0.03,-0.048 0.046,-0.094 0.072,-0.137C0.098,-0.18 0.149,-0.237 0.226,-0.309C0.288,-0.366 0.326,-0.405 0.34,-0.426C0.359,-0.454 0.368,-0.482 0.368,-0.51C0.368,-0.54 0.36,-0.564 0.344,-0.58C0.327,-0.597 0.304,-0.605 0.275,-0.605C0.247,-0.605 0.224,-0.596 0.207,-0.579C0.19,-0.562 0.18,-0.533 0.178,-0.493L0.041,-0.507C0.049,-0.582 0.075,-0.637 0.118,-0.669C0.161,-0.702 0.214,-0.719 0.279,-0.719C0.349,-0.719 0.405,-0.7 0.445,-0.662C0.486,-0.624 0.506,-0.576 0.506,-0.52C0.506,-0.487 0.5,-0.457 0.489,-0.427C0.477,-0.398 0.459,-0.368 0.434,-0.336C0.417,-0.315 0.387,-0.284 0.344,-0.245C0.3,-0.205 0.273,-0.179 0.261,-0.166C0.25,-0.153 0.241,-0.14 0.233,-0.127L0.506,-0.127Z" style="fill:var(--pst-color-text-base);fill-rule:nonzero;"/>
        </g>
        <g transform="matrix(18,0,0,18,383.367,621.613)">
            <path d="M0.043,-0.354C0.043,-0.426 0.054,-0.488 0.076,-0.537C0.092,-0.574 0.115,-0.606 0.143,-0.635C0.171,-0.664 0.202,-0.686 0.235,-0.7C0.28,-0.719 0.331,-0.728 0.39,-0.728C0.495,-0.728 0.58,-0.695 0.643,-0.63C0.706,-0.564 0.738,-0.473 0.738,-0.357C0.738,-0.241 0.706,-0.151 0.644,-0.086C0.581,-0.02 0.497,0.012 0.392,0.012C0.285,0.012 0.201,-0.02 0.138,-0.085C0.075,-0.15 0.043,-0.24 0.043,-0.354ZM0.192,-0.358C0.192,-0.277 0.211,-0.216 0.249,-0.174C0.286,-0.132 0.333,-0.111 0.391,-0.111C0.449,-0.111 0.496,-0.132 0.533,-0.174C0.57,-0.215 0.588,-0.277 0.588,-0.36C0.588,-0.442 0.57,-0.504 0.534,-0.544C0.498,-0.584 0.451,-0.604 0.391,-0.604C0.332,-0.604 0.284,-0.584 0.247,-0.543C0.211,-0.502 0.192,-0.441 0.192,-0.358Z" style="fill:var(--pst-color-text-base);fill-rule:nonzero;"/>
        </g>
        <g transform="matrix(18,0,0,18,402.368,621.613)">
            <path d="M0.229,-0.103L0.229,-0.289L0.042,-0.289L0.042,-0.417L0.229,-0.417L0.229,-0.604L0.354,-0.604L0.354,-0.417L0.542,-0.417L0.542,-0.289L0.354,-0.289L0.354,-0.103L0.229,-0.103Z" style="fill:var(--pst-color-text-base);fill-rule:nonzero;"/>
        </g>
        <g transform="matrix(18,0,0,18,417.881,621.613)">
            <path d="M0.073,-0L0.073,-0.716L0.218,-0.716L0.218,-0.434L0.501,-0.434L0.501,-0.716L0.646,-0.716L0.646,-0L0.501,-0L0.501,-0.313L0.218,-0.313L0.218,-0L0.073,-0Z" style="fill:var(--pst-color-text-base);fill-rule:nonzero;"/>
        </g>
        <g transform="matrix(10.494,0,0,10.494,430.88,627.607)">
            <path d="M0.506,-0.127L0.506,-0L0.025,-0C0.03,-0.048 0.046,-0.094 0.072,-0.137C0.098,-0.18 0.149,-0.237 0.226,-0.309C0.288,-0.366 0.326,-0.405 0.34,-0.426C0.359,-0.454 0.368,-0.482 0.368,-0.51C0.368,-0.54 0.36,-0.564 0.344,-0.58C0.327,-0.597 0.304,-0.605 0.275,-0.605C0.247,-0.605 0.224,-0.596 0.207,-0.579C0.19,-0.562 0.18,-0.533 0.178,-0.493L0.041,-0.507C0.049,-0.582 0.075,-0.637 0.118,-0.669C0.161,-0.702 0.214,-0.719 0.279,-0.719C0.349,-0.719 0.405,-0.7 0.445,-0.662C0.486,-0.624 0.506,-0.576 0.506,-0.52C0.506,-0.487 0.5,-0.457 0.489,-0.427C0.477,-0.398 0.459,-0.368 0.434,-0.336C0.417,-0.315 0.387,-0.284 0.344,-0.245C0.3,-0.205 0.273,-0.179 0.261,-0.166C0.25,-0.153 0.241,-0.14 0.233,-0.127L0.506,-0.127Z" style="fill:var(--pst-color-text-base);fill-rule:nonzero;"/>
        </g>
    </g>
    <g transform="matrix(1,0.000745231,-0.000745231,1,-271.056,-354.427)">
        <g transform="matrix(18,0,0,18,364.531,621.613)">
            <path d="M0.073,-0L0.073,-0.716L0.218,-0.716L0.218,-0.434L0.501,-0.434L0.501,-0.716L0.646,-0.716L0.646,-0L0.501,-0L0.501,-0.313L0.218,-0.313L0.218,-0L0.073,-0Z" style="fill:var(--pst-color-text-base);fill-rule:nonzero;"/>
        </g>
        <g transform="matrix(10.494,0,0,10.494,377.53,627.607)">
            <path d="M0.038,-0.19L0.17,-0.206C0.175,-0.172 0.186,-0.146 0.205,-0.128C0.223,-0.111 0.246,-0.102 0.272,-0.102C0.3,-0.102 0.324,-0.112 0.344,-0.134C0.363,-0.155 0.373,-0.184 0.373,-0.221C0.373,-0.255 0.363,-0.283 0.345,-0.303C0.326,-0.323 0.304,-0.333 0.277,-0.333C0.259,-0.333 0.238,-0.33 0.214,-0.323L0.229,-0.435C0.266,-0.434 0.294,-0.442 0.314,-0.459C0.333,-0.476 0.343,-0.499 0.343,-0.527C0.343,-0.551 0.336,-0.57 0.322,-0.584C0.307,-0.599 0.288,-0.606 0.265,-0.606C0.241,-0.606 0.221,-0.598 0.205,-0.582C0.188,-0.565 0.178,-0.542 0.174,-0.51L0.048,-0.532C0.057,-0.575 0.07,-0.61 0.088,-0.635C0.105,-0.661 0.13,-0.682 0.162,-0.697C0.194,-0.711 0.229,-0.719 0.269,-0.719C0.336,-0.719 0.39,-0.697 0.431,-0.654C0.464,-0.619 0.481,-0.579 0.481,-0.535C0.481,-0.472 0.447,-0.422 0.378,-0.385C0.419,-0.376 0.452,-0.356 0.476,-0.326C0.501,-0.295 0.513,-0.258 0.513,-0.215C0.513,-0.152 0.49,-0.098 0.444,-0.054C0.398,-0.01 0.341,0.012 0.273,0.012C0.208,0.012 0.154,-0.006 0.112,-0.044C0.069,-0.081 0.044,-0.13 0.038,-0.19Z" style="fill:var(--pst-color-text-base);fill-rule:nonzero;"/>
        </g>
        <g transform="matrix(18,0,0,18,383.367,621.613)">
            <path d="M0.043,-0.354C0.043,-0.426 0.054,-0.488 0.076,-0.537C0.092,-0.574 0.115,-0.606 0.143,-0.635C0.171,-0.664 0.202,-0.686 0.235,-0.7C0.28,-0.719 0.331,-0.728 0.39,-0.728C0.495,-0.728 0.58,-0.695 0.643,-0.63C0.706,-0.564 0.738,-0.473 0.738,-0.357C0.738,-0.241 0.706,-0.151 0.644,-0.086C0.581,-0.02 0.497,0.012 0.392,0.012C0.285,0.012 0.201,-0.02 0.138,-0.085C0.075,-0.15 0.043,-0.24 0.043,-0.354ZM0.192,-0.358C0.192,-0.277 0.211,-0.216 0.249,-0.174C0.286,-0.132 0.333,-0.111 0.391,-0.111C0.449,-0.111 0.496,-0.132 0.533,-0.174C0.57,-0.215 0.588,-0.277 0.588,-0.36C0.588,-0.442 0.57,-0.504 0.534,-0.544C0.498,-0.584 0.451,-0.604 0.391,-0.604C0.332,-0.604 0.284,-0.584 0.247,-0.543C0.211,-0.502 0.192,-0.441 0.192,-0.358Z" style="fill:var(--pst-color-text-base);fill-rule:nonzero;"/>
        </g>
        <g transform="matrix(10.494,0,0,10.494,397.367,615.619)">
            <path d="M0.229,-0.103L0.229,-0.289L0.042,-0.289L0.042,-0.417L0.229,-0.417L0.229,-0.604L0.354,-0.604L0.354,-0.417L0.542,-0.417L0.542,-0.289L0.354,-0.289L0.354,-0.103L0.229,-0.103Z" style="fill:var(--pst-color-text-base);fill-rule:nonzero;"/>
        </g>
    </g>
    <path d="M87.904,216.169L94.477,214.827L91.607,220.89C91.862,218.784 90.01,216.424 87.904,216.169Z" style="fill:var(--pst-color-text-base);"/>
    <path d="M90.76,257.919C73.066,246.134 74.956,231.086 90.7,217.789" style="fill:none;stroke:var(--pst-color-text-base);stroke-width:2px;"/>
    <path d="M21.764,184.288L21.764,368.157L162.839,368.157L194.495,336.68L193.712,154.071L162.839,184.288L21.764,184.288Z" style="fill:#b3c9ee;fill-opacity:0.7;"/>
    <path d="M155.923,268.735C155.393,272.007 157.931,277.056 158.291,281.551C158.686,286.469 158.308,292.68 158.291,298.244C158.269,305.753 159.971,311.885 158.16,326.604C155.362,328.656 140.164,328.093 137.052,326.482C135.807,310.475 137.052,305.732 137.052,298.244C137.052,292.68 136.559,286.469 137.052,281.551C137.514,276.94 140.464,271.696 140.009,268.735C143.154,266.599 152.876,266.599 155.923,268.735Z" style="fill:#efefef;fill-opacity:0.5;"/>
    <rect x="21.764" y="96.539" width="141.075" height="271.618" style="fill:none;stroke:#000;stroke-width:2px;stroke-linecap:round;"/>
    <g transform="matrix(1,0.000745231,-0.000745231,1,-334.402,-598.781)">
        <g transform="matrix(20,0,0,20,364.531,621.613)">
            <path d="M0.372,-0.165L0.509,-0.142C0.491,-0.092 0.463,-0.054 0.426,-0.028C0.388,-0.001 0.34,0.012 0.283,0.012C0.193,0.012 0.126,-0.018 0.083,-0.077C0.049,-0.124 0.032,-0.183 0.032,-0.255C0.032,-0.341 0.054,-0.409 0.099,-0.457C0.144,-0.506 0.201,-0.53 0.27,-0.53C0.347,-0.53 0.408,-0.505 0.452,-0.454C0.497,-0.403 0.518,-0.325 0.516,-0.22L0.172,-0.22C0.173,-0.179 0.184,-0.147 0.206,-0.125C0.227,-0.102 0.253,-0.091 0.285,-0.091C0.306,-0.091 0.324,-0.097 0.339,-0.108C0.354,-0.12 0.365,-0.139 0.372,-0.165ZM0.38,-0.304C0.379,-0.343 0.369,-0.374 0.349,-0.394C0.33,-0.415 0.306,-0.425 0.278,-0.425C0.248,-0.425 0.223,-0.414 0.204,-0.393C0.184,-0.371 0.174,-0.341 0.175,-0.304L0.38,-0.304Z" style="fill:var(--pst-color-text-base);fill-rule:nonzero;"/>
        </g>
        <g transform="matrix(11.66,0,0,11.66,375.654,614.953)">
            <rect x="-0.002" y="-0.311" width="0.556" height="0.103" style="fill:var(--pst-color-text-base);fill-rule:nonzero;"/>
        </g>
    </g>
    <g transform="matrix(1,0.000745231,-0.000745231,1,-275.688,-598.737)">
        <g transform="matrix(20,0,0,20,364.531,621.613)">
            <path d="M0.073,-0L0.073,-0.716L0.218,-0.716L0.218,-0.434L0.501,-0.434L0.501,-0.716L0.646,-0.716L0.646,-0L0.501,-0L0.501,-0.313L0.218,-0.313L0.218,-0L0.073,-0Z" style="fill:var(--pst-color-text-base);fill-rule:nonzero;"/>
        </g>
        <g transform="matrix(11.66,0,0,11.66,378.975,628.273)">
            <path d="M0.506,-0.127L0.506,-0L0.025,-0C0.03,-0.048 0.046,-0.094 0.072,-0.137C0.098,-0.18 0.149,-0.237 0.226,-0.309C0.288,-0.366 0.326,-0.405 0.34,-0.426C0.359,-0.454 0.368,-0.482 0.368,-0.51C0.368,-0.54 0.36,-0.564 0.344,-0.58C0.327,-0.597 0.304,-0.605 0.275,-0.605C0.247,-0.605 0.224,-0.596 0.207,-0.579C0.19,-0.562 0.18,-0.533 0.178,-0.493L0.041,-0.507C0.049,-0.582 0.075,-0.637 0.118,-0.669C0.161,-0.702 0.214,-0.719 0.279,-0.719C0.349,-0.719 0.405,-0.7 0.445,-0.662C0.486,-0.624 0.506,-0.576 0.506,-0.52C0.506,-0.487 0.5,-0.457 0.489,-0.427C0.477,-0.398 0.459,-0.368 0.434,-0.336C0.417,-0.315 0.387,-0.284 0.344,-0.245C0.3,-0.205 0.273,-0.179 0.261,-0.166C0.25,-0.153 0.241,-0.14 0.233,-0.127L0.506,-0.127Z" style="fill:var(--pst-color-text-base);fill-rule:nonzero;"/>
        </g>
        <g transform="matrix(20,0,0,20,391.016,621.613)">
            <path d="M0.299,0.21L0.205,0.21C0.155,0.135 0.117,0.057 0.091,-0.024C0.065,-0.105 0.052,-0.183 0.052,-0.259C0.052,-0.353 0.068,-0.442 0.101,-0.526C0.129,-0.599 0.164,-0.667 0.207,-0.728L0.301,-0.728C0.256,-0.629 0.226,-0.545 0.209,-0.476C0.192,-0.407 0.184,-0.334 0.184,-0.256C0.184,-0.203 0.189,-0.148 0.198,-0.092C0.208,-0.036 0.222,0.017 0.239,0.067C0.251,0.101 0.271,0.148 0.299,0.21Z" style="fill:var(--pst-color-text-base);fill-rule:nonzero;"/>
        </g>
        <g transform="matrix(20,0,0,20,397.676,621.613)">
            <path d="M0.033,0.027L0.181,0.049C0.181,0.064 0.183,0.075 0.188,0.083C0.193,0.09 0.201,0.097 0.212,0.102C0.223,0.108 0.237,0.11 0.256,0.11C0.286,0.11 0.31,0.104 0.328,0.093C0.341,0.084 0.352,0.069 0.36,0.049C0.366,0.036 0.372,0.008 0.38,-0.034L0.385,-0.059C0.337,-0.018 0.287,0.002 0.235,0.002C0.184,0.002 0.142,-0.016 0.11,-0.052C0.077,-0.088 0.061,-0.14 0.061,-0.209C0.061,-0.27 0.072,-0.326 0.094,-0.376C0.116,-0.427 0.147,-0.466 0.188,-0.492C0.228,-0.518 0.268,-0.531 0.31,-0.531C0.345,-0.531 0.376,-0.522 0.405,-0.503C0.433,-0.485 0.456,-0.46 0.472,-0.427L0.491,-0.519L0.623,-0.519L0.533,-0.086C0.518,-0.017 0.506,0.032 0.496,0.062C0.486,0.092 0.474,0.115 0.461,0.133C0.448,0.15 0.431,0.165 0.412,0.177C0.392,0.189 0.368,0.197 0.341,0.203C0.314,0.208 0.285,0.21 0.253,0.21C0.18,0.21 0.125,0.198 0.087,0.173C0.05,0.148 0.031,0.106 0.031,0.048C0.031,0.042 0.032,0.035 0.033,0.027ZM0.198,-0.223C0.198,-0.184 0.207,-0.154 0.224,-0.133C0.242,-0.112 0.264,-0.102 0.291,-0.102C0.315,-0.102 0.339,-0.111 0.362,-0.13C0.385,-0.148 0.403,-0.175 0.415,-0.209C0.427,-0.243 0.433,-0.276 0.433,-0.308C0.433,-0.345 0.423,-0.375 0.403,-0.397C0.383,-0.419 0.361,-0.431 0.334,-0.431C0.309,-0.431 0.286,-0.421 0.265,-0.401C0.244,-0.381 0.227,-0.35 0.213,-0.309C0.203,-0.277 0.198,-0.249 0.198,-0.223Z" style="fill:var(--pst-color-text-base);fill-rule:nonzero;"/>
        </g>
        <g transform="matrix(20,0,0,20,409.893,621.613)">
            <path d="M0.034,0.21C0.061,0.153 0.08,0.108 0.091,0.077C0.102,0.046 0.112,0.011 0.122,-0.03C0.131,-0.07 0.138,-0.108 0.143,-0.145C0.147,-0.181 0.149,-0.218 0.149,-0.256C0.149,-0.334 0.141,-0.407 0.125,-0.476C0.108,-0.545 0.077,-0.629 0.033,-0.728L0.126,-0.728C0.175,-0.658 0.213,-0.584 0.24,-0.505C0.268,-0.427 0.281,-0.347 0.281,-0.267C0.281,-0.199 0.271,-0.126 0.249,-0.048C0.225,0.039 0.184,0.125 0.128,0.21L0.034,0.21Z" style="fill:var(--pst-color-text-base);fill-rule:nonzero;"/>
        </g>
    </g>
    <path d="M53.241,336.68L53.241,64.883" style="fill:none;"/>
    <path d="M53.981,37.473L50.981,43.473L47.981,37.473C49.481,38.973 52.481,38.973 53.981,37.473Z" style="fill:var(--pst-color-text-base);"/>
    <path d="M50.981,11.764L50.981,38.673" style="fill:none;stroke:var(--pst-color-text-base);stroke-width:2px;"/>
    <path d="M148.914,44.881L145.914,50.881L142.914,44.881C144.414,46.381 147.414,46.381 148.914,44.881Z" style="fill:var(--pst-color-text-base);"/>
    <path d="M145.914,19.172L145.914,46.081" style="fill:none;stroke:var(--pst-color-text-base);stroke-width:2px;"/>
    <circle cx="132.217" cy="324.404" r="1.942" style="fill:#efefef;fill-opacity:0.5;stroke:#464646;stroke-opacity:0.5;stroke-width:0.5px;"/>
    <circle cx="139.63" cy="328.06" r="1.942" style="fill:#efefef;fill-opacity:0.5;stroke:#464646;stroke-opacity:0.5;stroke-width:0.5px;"/>
    <circle cx="147.96" cy="324.244" r="1.942" style="fill:#efefef;fill-opacity:0.5;stroke:#464646;stroke-opacity:0.5;stroke-width:0.5px;"/>
    <circle cx="155.028" cy="324.45" r="1.942" style="fill:#efefef;fill-opacity:0.5;stroke:#464646;stroke-opacity:0.5;stroke-width:0.5px;"/>
    <circle cx="135.46" cy="318.91" r="1.942" style="fill:#efefef;fill-opacity:0.5;stroke:#464646;stroke-opacity:0.5;stroke-width:0.5px;"/>
    <circle cx="126.282" cy="319.893" r="1.942" style="fill:#efefef;fill-opacity:0.5;stroke:#464646;stroke-opacity:0.5;stroke-width:0.5px;"/>
    <circle cx="122.974" cy="306.892" r="1.942" style="fill:#efefef;fill-opacity:0.5;stroke:#464646;stroke-opacity:0.5;stroke-width:0.5px;"/>
    <circle cx="131.829" cy="300.469" r="1.942" style="fill:#efefef;fill-opacity:0.5;stroke:#464646;stroke-opacity:0.5;stroke-width:0.5px;"/>
    <circle cx="128.889" cy="277.855" r="1.942" style="fill:#efefef;fill-opacity:0.5;stroke:#464646;stroke-opacity:0.5;stroke-width:0.5px;"/>
    <circle cx="125.599" cy="296.976" r="1.942" style="fill:#efefef;fill-opacity:0.5;stroke:#464646;stroke-opacity:0.5;stroke-width:0.5px;"/>
    <circle cx="130.991" cy="286.499" r="1.942" style="fill:#efefef;fill-opacity:0.5;stroke:#464646;stroke-opacity:0.5;stroke-width:0.5px;"/>
    <circle cx="118.266" cy="291.227" r="1.942" style="fill:#efefef;fill-opacity:0.5;stroke:#464646;stroke-opacity:0.5;stroke-width:0.5px;"/>
    <circle cx="104.753" cy="283.888" r="1.942" style="fill:#efefef;fill-opacity:0.5;stroke:#464646;stroke-opacity:0.5;stroke-width:0.5px;"/>
    <circle cx="98.143" cy="274.418" r="1.942" style="fill:#efefef;fill-opacity:0.5;stroke:#464646;stroke-opacity:0.5;stroke-width:0.5px;"/>
    <circle cx="97.553" cy="247.386" r="1.942" style="fill:#efefef;fill-opacity:0.5;stroke:#464646;stroke-opacity:0.5;stroke-width:0.5px;"/>
    <circle cx="120.98" cy="280.668" r="1.942" style="fill:#efefef;fill-opacity:0.5;stroke:#464646;stroke-opacity:0.5;stroke-width:0.5px;"/>
    <circle cx="105.978" cy="236.809" r="1.942" style="fill:#efefef;fill-opacity:0.5;stroke:#464646;stroke-opacity:0.5;stroke-width:0.5px;"/>
    <circle cx="109.593" cy="255.151" r="1.942" style="fill:#efefef;fill-opacity:0.5;stroke:#464646;stroke-opacity:0.5;stroke-width:0.5px;"/>
    <circle cx="119.419" cy="244.173" r="1.942" style="fill:#efefef;fill-opacity:0.5;stroke:#464646;stroke-opacity:0.5;stroke-width:0.5px;"/>
    <circle cx="132.928" cy="234.252" r="1.942" style="fill:#efefef;fill-opacity:0.5;stroke:#464646;stroke-opacity:0.5;stroke-width:0.5px;"/>
    <circle cx="124.691" cy="210.414" r="1.942" style="fill:#efefef;fill-opacity:0.5;stroke:#464646;stroke-opacity:0.5;stroke-width:0.5px;"/>
    <circle cx="105.854" cy="194.517" r="1.942" style="fill:#efefef;fill-opacity:0.5;stroke:#464646;stroke-opacity:0.5;stroke-width:0.5px;"/>
    <circle cx="86.229" cy="208.918" r="1.942" style="fill:#efefef;fill-opacity:0.5;stroke:#464646;stroke-opacity:0.5;stroke-width:0.5px;"/>
    <circle cx="77.299" cy="194.051" r="1.942" style="fill:#efefef;fill-opacity:0.5;stroke:#464646;stroke-opacity:0.5;stroke-width:0.5px;"/>
    <circle cx="116.772" cy="224.57" r="1.942" style="fill:#efefef;fill-opacity:0.5;stroke:#464646;stroke-opacity:0.5;stroke-width:0.5px;"/>
    <circle cx="95.153" cy="225.763" r="1.942" style="fill:#efefef;fill-opacity:0.5;stroke:#464646;stroke-opacity:0.5;stroke-width:0.5px;"/>
    <circle cx="127.71" cy="268.232" r="1.942" style="fill:#efefef;fill-opacity:0.5;stroke:#464646;stroke-opacity:0.5;stroke-width:0.5px;"/>
    <circle cx="115.428" cy="273.121" r="1.942" style="fill:#efefef;fill-opacity:0.5;stroke:#464646;stroke-opacity:0.5;stroke-width:0.5px;"/>
    <circle cx="128.946" cy="312.225" r="1.942" style="fill:#efefef;fill-opacity:0.5;stroke:#464646;stroke-opacity:0.5;stroke-width:0.5px;"/>
    <circle cx="140.807" cy="319.565" r="1.942" style="fill:#efefef;fill-opacity:0.5;stroke:#464646;stroke-opacity:0.5;stroke-width:0.5px;"/>
    <circle cx="143.371" cy="310.523" r="1.942" style="fill:#efefef;fill-opacity:0.5;stroke:#464646;stroke-opacity:0.5;stroke-width:0.5px;"/>
    <circle cx="139.953" cy="300.765" r="1.942" style="fill:#efefef;fill-opacity:0.5;stroke:#464646;stroke-opacity:0.5;stroke-width:0.5px;"/>
    <circle cx="136.557" cy="310.252" r="1.942" style="fill:#efefef;fill-opacity:0.5;stroke:#464646;stroke-opacity:0.5;stroke-width:0.5px;"/>
    <circle cx="137.162" cy="292.306" r="1.942" style="fill:#efefef;fill-opacity:0.5;stroke:#464646;stroke-opacity:0.5;stroke-width:0.5px;"/>
    <circle cx="140.245" cy="282.251" r="1.942" style="fill:#efefef;fill-opacity:0.5;stroke:#464646;stroke-opacity:0.5;stroke-width:0.5px;"/>
</svg>
