<svg width="100%" height="100%"  class="main-svg" xmlns="http://www.w3.org/2000/svg" xmlns:xlink="http://www.w3.org/1999/xlink"  viewBox="0 0 900 400">
    
    <defs id="defs-bc60de">
        <g class="clips">
            <clipPath id="clipbc60dexyplot" class="plotclip">
                <rect width="700" height="290" />
            </clipPath>
            <clipPath class="axesclip" id="clipbc60dex">
                <rect x="50" y="0" width="700" height="400" />
            </clipPath>
            <clipPath class="axesclip" id="clipbc60dey">
                <rect x="0" y="30" width="900" height="290" />
            </clipPath>
            <clipPath class="axesclip" id="clipbc60dexy">
                <rect x="50" y="30" width="700" height="290" />
            </clipPath>
        </g>
        <g class="gradients" />
        <g class="patterns" />
    </defs>
    <g class="bglayer">
        <rect class="bg" x="50" y="30" width="700" height="290"
            style="fill: rgb(0, 0, 0); fill-opacity: 0; stroke-width: 0;" />
    </g>
    <g class="layer-below">
        <g class="imagelayer" />
        <g class="shapelayer" />
    </g>
    <g class="cartesianlayer">
        <g class="subplot xy">
            <g class="layer-subplot">
                <g class="shapelayer" />
                <g class="imagelayer" />
            </g>
            <g class="minor-gridlayer">
                <g class="x" />
                <g class="y" />
            </g>
            <g class="gridlayer">
                <g class="x" />
                <g class="y" />
            </g>
            <g class="zerolinelayer" />
            <path class="xlines-below" />
            <path class="ylines-below" />
            <g class="overlines-below" />
            <g class="xaxislayer-below" />
            <g class="yaxislayer-below" />
            <g class="overaxes-below" />
            <g class="plot" transform="translate(50,30)" clip-path="url(#clipbc60dexyplot)">
                <g class="scatterlayer mlayer">
                    <g class="trace scatter trace8064a2" style="stroke-miterlimit: 2; opacity: 1;">
                        <g class="fills" />
                        <g class="errorbars" />
                        <g class="lines">
                            <path class="js-line"
                                d="M0,170.67L28.85,202.49L30.77,204.5L50,223.51L51.92,225.3L71.15,241.73L73.08,243.22L88.46,254.09L90.38,255.31L103.85,262.89L105.77,263.84L119.23,269.46L121.15,270.11L134.62,273.67L136.54,274.02L148.08,275.36L150,275.44L161.54,275.15L163.46,274.97L175,273.06L176.92,272.61L188.46,269.11L190.38,268.4L203.85,262.4L205.77,261.4L219.23,253.47L221.15,252.2L234.62,242.48L236.54,240.97L251.92,227.92L253.85,226.18L273.08,207.48L275,205.49L298.08,180.49L300,178.32L338.46,133.78L340.38,131.55L373.08,94.67L375,92.61L396.15,71.04L398.08,69.2L415.38,53.72L417.31,52.13L432.69,40.42L434.62,39.09L450,29.63L451.92,28.6L465.38,22.35L467.31,21.6L480.77,17.39L482.69,16.94L494.23,15.03L496.15,14.85L507.69,14.56L509.62,14.64L521.15,15.98L523.08,16.33L536.54,19.89L538.46,20.54L551.92,26.16L553.85,27.11L567.31,34.69L569.23,35.91L584.62,46.78L586.54,48.27L601.92,61.21L603.85,62.95L621.15,79.59L623.08,81.54L646.15,106.28L648.08,108.43L684.62,150.61L686.54,152.86L700,168.46"
                                style="vector-effect: none; fill: none; stroke: rgb(66, 134, 244); stroke-opacity: 1; stroke-width: 2px; opacity: 1;" />
                        </g>
                        <g class="points" />
                        <g class="text" />
                    </g>
                </g>
            </g>
            <g class="overplot" />
            <path class="xlines-above crisp" d="M48.5,320.75H751.5M48.5,29.25H751.5"
                style="fill: none; stroke-width: 1.5px; stroke: var(--pst-color-text-base); stroke-opacity: 1;" />
            <path class="ylines-above crisp" d="M49.25,30V320M750.75,30V320"
                style="fill: none; stroke-width: 1.5px; stroke: var(--pst-color-text-base); stroke-opacity: 1;" />
            <g class="overlines-above" />
            <g class="xaxislayer-above">
                <path class="xtick ticks crisp" d="M0,321.5v8" transform="translate(50,0)"
                    style="stroke: var(--pst-color-text-base); stroke-opacity: 1; stroke-width: 1.5px;" />
                <path class="xtick ticks crisp" d="M0,321.5v8" transform="translate(163.45999999999998,0)"
                    style="stroke: var(--pst-color-text-base); stroke-opacity: 1; stroke-width: 1.5px;" />
                <path class="xtick ticks crisp" d="M0,321.5v8" transform="translate(280.77,0)"
                    style="stroke: var(--pst-color-text-base); stroke-opacity: 1; stroke-width: 1.5px;" />
                <path class="xtick ticks crisp" d="M0,321.5v8" transform="translate(398.08,0)"
                    style="stroke: var(--pst-color-text-base); stroke-opacity: 1; stroke-width: 1.5px;" />
                <path class="xtick ticks crisp" d="M0,321.5v8" transform="translate(517.31,0)"
                    style="stroke: var(--pst-color-text-base); stroke-opacity: 1; stroke-width: 1.5px;" />
                <path class="xtick ticks crisp" d="M0,321.5v8" transform="translate(634.62,0)"
                    style="stroke: var(--pst-color-text-base); stroke-opacity: 1; stroke-width: 1.5px;" />
                <path class="xtick ticks crisp" d="M0,321.5v8" transform="translate(750,0)"
                    style="stroke: var(--pst-color-text-base); stroke-opacity: 1; stroke-width: 1.5px;" />
                <g class="xtick"><text text-anchor="middle" x="0" y="360.7" transform="translate(50,0)"
                        style="font-family: Helvetica, arial, sans-serif; font-size: 26px; fill: var(--pst-color-text-base); fill-opacity: 1; white-space: pre; opacity: 1;">Jan</text>
                </g>
                <g class="xtick"><text text-anchor="middle" x="0" y="360.7"
                        style="font-family: Helvetica, arial, sans-serif; font-size: 26px; fill: var(--pst-color-text-base); fill-opacity: 1; white-space: pre; opacity: 1;"
                        transform="translate(163.45999999999998,0)">Mar</text></g>
                <g class="xtick"><text text-anchor="middle" x="0" y="360.7"
                        style="font-family: Helvetica, arial, sans-serif; font-size: 26px; fill: var(--pst-color-text-base); fill-opacity: 1; white-space: pre; opacity: 1;"
                        transform="translate(280.77,0)">May</text></g>
                <g class="xtick"><text text-anchor="middle" x="0" y="360.7"
                        style="font-family: Helvetica, arial, sans-serif; font-size: 26px; fill: var(--pst-color-text-base); fill-opacity: 1; white-space: pre; opacity: 1;"
                        transform="translate(398.08,0)">Jul</text></g>
                <g class="xtick"><text text-anchor="middle" x="0" y="360.7"
                        style="font-family: Helvetica, arial, sans-serif; font-size: 26px; fill: var(--pst-color-text-base); fill-opacity: 1; white-space: pre; opacity: 1;"
                        transform="translate(517.31,0)">Sep</text></g>
                <g class="xtick"><text text-anchor="middle" x="0" y="360.7"
                        style="font-family: Helvetica, arial, sans-serif; font-size: 26px; fill: var(--pst-color-text-base); fill-opacity: 1; white-space: pre; opacity: 1;"
                        transform="translate(634.62,0)">Nov</text></g>
                <g class="xtick"><text text-anchor="middle" x="0" y="360.7"
                        style="font-family: Helvetica, arial, sans-serif; font-size: 26px; fill: var(--pst-color-text-base); fill-opacity: 1; white-space: pre; opacity: 1;"
                        transform="translate(750,0)">Jan</text></g>
            </g>
            <g class="yaxislayer-above" />
            <g class="overaxes-above" />
        </g>
    </g>
    <g class="polarlayer" />
    <g class="smithlayer" />
    <g class="ternarylayer" />
    <g class="geolayer" />
    <g class="funnelarealayer" />
    <g class="pielayer" />
    <g class="iciclelayer" />
    <g class="treemaplayer" />
    <g class="sunburstlayer" />
    <g class="glimages" />
    <defs id="topdefs-bc60de">
        <g class="clips" />
    </defs>
    <g class="layer-above">
        <g class="imagelayer" />
        <g class="shapelayer" />
    </g>
    <g class="infolayer">
        <g class="g-gtitle" />
        <g class="g-xtitle" transform="translate(0,-20.515625)"><text class="xtitle" x="400" y="414.5"
                text-anchor="middle"
                style="font-family: Helvetica, arial, sans-serif; font-size: 28px; fill: var(--pst-color-text-base); opacity: 1; font-weight: normal; white-space: pre;">Day of the Year</text></g>
        <g class="g-ytitle" transform="translate(42.5,0)"><text class="ytitle" transform="rotate(-90,-16.5,175)"
                x="-16.5" y="175" text-anchor="middle"
                style="font-family: Helvetica, arial, sans-serif; font-size: 28px; fill: var(--pst-color-text-base); opacity: 1; font-weight: normal; white-space: pre;">Power Generation (W)</text></g>
    </g>
</svg>