<?xml version="1.0" encoding="UTF-8" standalone="no"?>
<!DOCTYPE svg PUBLIC "-//W3C//DTD SVG 1.1//EN" "http://www.w3.org/Graphics/SVG/1.1/DTD/svg11.dtd">
<svg width="100%" height="100%" viewBox="0 0 1793 1273" version="1.1" xmlns="http://www.w3.org/2000/svg" xmlns:xlink="http://www.w3.org/1999/xlink" xml:space="preserve" xmlns:serif="http://www.serif.com/" style="fill-rule:evenodd;clip-rule:evenodd;stroke-linejoin:round;stroke-miterlimit:2;">
    <g id="Artboard1" transform="matrix(0.471843,0,0,0.922448,-19.8432,0)">
        <rect x="42.055" y="0" width="3797.95" height="1379.41" style="fill:none;"/>
        <g transform="matrix(2.03914,0,0,1,-43.7008,0)">
            <g transform="matrix(3.46824,0,0,3.61753,18.948,-148.456)">
                <path d="M169.182,308.835l-18.54,3.828l-0.502,1.617c-1.3,3.073 -3.471,5.688 -6.205,7.535l-2.867,1.378l-0.965,15.645l2.296,2.087c1.047,1.269 1.915,2.691 2.565,4.227l0.409,1.316l17.655,7.641l0.105,-0.071c2.049,-0.866 4.302,-1.346 6.666,-1.346c1.183,0 2.337,0.12 3.452,0.348l1.375,0.427l9.888,-12.008l-0.034,-0.051c-0.866,-2.049 -1.346,-4.301 -1.346,-6.666c0,-2.365 0.48,-4.617 1.346,-6.666l2.494,-3.699l-7.107,-11.777l-0.375,0.037c-2.365,0.001 -4.618,-0.479 -6.667,-1.345l-3.643,-2.457Zm-80.594,-133.276l-16.88,3.437l-0.128,0.412c-0.867,2.049 -2.121,3.894 -3.67,5.444l-1.89,1.274l-1.972,20.546l0.169,0.114c2.325,2.324 3.984,5.314 4.669,8.658l0.18,1.787l13.215,4.884l2.852,-1.923c2.049,-0.866 4.302,-1.346 6.666,-1.346l2.554,0.258l12.266,-14.45l-0.1,-0.989c0,-2.365 0.479,-4.617 1.346,-6.666l1.022,-1.517l-8.908,-15.319l-3.324,-0.335c-1.115,-0.228 -2.19,-0.564 -3.214,-0.998l-4.853,-3.271Zm50.434,-44.111l-0.714,1.485c-1.846,2.733 -4.461,4.905 -7.535,6.205l-2.108,0.654l-11.857,19.558l0.077,0.248c0.228,1.115 0.348,2.269 0.348,3.452c0,2.365 -0.479,4.617 -1.346,6.666l-0.695,1.032l9.228,15.869l2.677,0.269c7.804,1.598 13.675,8.503 13.675,16.779c-0,9.459 -7.668,17.127 -17.127,17.127c-1.182,-0.001 -2.336,-0.12 -3.451,-0.348l-2.786,-0.865l-9.408,11.083l0.578,1.859c0.228,1.115 0.348,2.269 0.348,3.452c-0,4.729 -1.917,9.011 -5.017,12.11l-1.463,0.987l0,22.107l2.386,1.609l3.282,4.867l23.318,13.129l2.928,-0.295c2.364,-0 4.617,0.479 6.666,1.346l5.172,3.487l16.565,-3.421l0.948,-3.054c2.6,-6.147 8.687,-10.46 15.78,-10.46c9.459,-0 17.127,7.668 17.127,17.126c-0,2.365 -0.479,4.618 -1.346,6.666l-0.426,0.632l9.21,15.261l2.871,0.891c2.049,0.867 3.894,2.121 5.444,3.671l0.045,0.067l21.672,-0l1.601,-2.375c3.099,-3.099 7.381,-5.016 12.11,-5.016l1.918,0.387l6.044,-11.192l-3.435,-5.095c-0.866,-2.049 -1.346,-4.301 -1.346,-6.666c0.001,-2.364 0.48,-4.617 1.346,-6.666l0.051,-0.075l-8.792,-14.217l-1.084,-0.11c-7.804,-1.597 -13.674,-8.502 -13.674,-16.778c-0,-9.459 7.667,-17.127 17.126,-17.127c1.182,0 2.337,0.12 3.452,0.348l1.863,0.579l10.618,-12.175l-0.865,-2.789c-0.228,-1.115 -0.348,-2.269 -0.348,-3.451c-0,-4.73 1.917,-9.012 5.016,-12.111l1.433,-0.966l0,-19.874l-2.538,-2.307c-1.047,-1.268 -1.915,-2.691 -2.565,-4.227l-0.996,-3.208l-21.3,-10.047l-0.934,0.29c-1.115,0.228 -2.269,0.348 -3.451,0.348c-2.365,-0 -4.618,-0.479 -6.667,-1.346l-1.895,-1.278l-19.387,2.863l-0.117,0.378c-2.6,6.147 -8.687,10.46 -15.781,10.46c-9.458,-0 -17.126,-7.668 -17.126,-17.127c0,-2.364 0.479,-4.617 1.346,-6.666l2.093,-3.105l-8.028,-12.148l-2.746,0.276c-4.729,0 -9.011,-1.917 -12.11,-5.016l-2.712,-4.022l-13.186,0Zm74.046,-27.972l-4.295,2.895c-2.049,0.867 -4.301,1.346 -6.666,1.346l-1.716,-0.173l-16.372,17.178l-0.211,2.09l-0.463,1.492l11.241,17.011l0.357,0.036c1.951,0.399 3.781,1.13 5.429,2.131l3.843,3.327l14.233,-2.102l0.111,-1.106c0.799,-3.902 2.924,-7.321 5.885,-9.764l3.467,-1.989l1.651,-15.834l-1.719,-1.159c-2.325,-2.325 -3.984,-5.314 -4.668,-8.659l-0.207,-2.05l-9.9,-4.67Zm99.346,-57.704c9.459,0 17.127,7.668 17.127,17.126c-0,8.277 -5.871,15.182 -13.675,16.779l-3.206,0.323l-7.409,15.891l0.865,2.787c0.228,1.115 0.348,2.269 0.348,3.451c-0,9.459 -7.668,17.127 -17.126,17.127c-4.73,-0 -9.011,-1.917 -12.111,-5.017l-0.313,-0.464l-22.763,1.983l-2.088,3.097l-4.732,3.19l-1.639,15.714l1.756,1.183c3.099,3.099 5.016,7.381 5.016,12.11l-0.262,2.601l15.236,7.187l3.695,-2.491c2.049,-0.867 4.301,-1.346 6.666,-1.346c9.459,-0 17.127,7.668 17.127,17.126c-0,4.73 -1.917,9.011 -5.017,12.111l-4.903,3.305l0,15.319l4.903,3.306c3.1,3.099 5.017,7.381 5.017,12.111c-0,9.458 -7.668,17.126 -17.127,17.126l-1.542,-0.156l-13.407,15.373l0.229,2.272c0,2.364 -0.479,4.617 -1.345,6.666l-1.796,2.663l7.11,11.498l1.059,-0.107c9.459,-0 17.126,7.667 17.126,17.126c0,7.094 -4.313,13.181 -10.46,15.781l-0.962,0.194l-9.858,18.253l0.625,2.013c0.228,1.115 0.348,2.269 0.348,3.451c-0,9.459 -7.668,17.127 -17.127,17.127c-4.729,-0 -9.011,-1.917 -12.11,-5.017l-2.671,-3.961l-16.72,-0l-0.257,0.825c-2.6,6.147 -8.686,10.46 -15.78,10.46l-1.063,-0.107l-12.556,15.247l0.284,2.811c-0,9.458 -7.668,17.126 -17.127,17.126c-9.458,0 -17.126,-7.668 -17.126,-17.126l0.068,-0.675l-11.683,-5.056l-5.208,3.511c-2.049,0.867 -4.302,1.346 -6.666,1.346c-9.459,0 -17.127,-7.668 -17.127,-17.126c0,-4.73 1.917,-9.011 5.017,-12.11l5.277,-3.558l0.969,-15.706l-1.071,-0.721c-3.099,-3.1 -5.016,-7.381 -5.016,-12.111c0,-1.182 0.12,-2.336 0.348,-3.451l0.173,-0.557l-12.591,-7.09l-0.33,0.491c-3.1,3.099 -7.381,5.016 -12.111,5.016c-9.458,0 -17.126,-7.668 -17.126,-17.126c0,-4.73 1.917,-9.011 5.016,-12.11l3.95,-2.664l0,-18.754l-4.873,-3.285c-2.324,-2.325 -3.984,-5.314 -4.668,-8.659l-0.097,-0.962l-14.059,-5.196l-2.092,1.41c-2.049,0.867 -4.301,1.346 -6.666,1.346c-9.459,0 -17.126,-7.667 -17.126,-17.126c-0,-7.094 4.313,-13.181 10.46,-15.781l1.012,-0.314l1.451,-15.107l-4.215,-2.842c-3.099,-3.099 -5.016,-7.381 -5.016,-12.11c-0,-9.459 7.668,-17.127 17.126,-17.127c4.73,0 9.011,1.917 12.111,5.017l0.525,0.779l15.298,-3.115l0.593,-1.913c2.6,-6.147 8.687,-10.46 15.781,-10.46c1.182,0 2.337,0.12 3.451,0.348l0.224,0.07l7.36,-12.141l-2.816,-4.176c-0.866,-2.049 -1.346,-4.302 -1.346,-6.667c0,-9.458 7.668,-17.126 17.127,-17.126c4.729,-0 9.011,1.917 12.11,5.016l1.562,2.317l15.58,0l1.561,-2.314c3.099,-3.099 7.381,-5.016 12.11,-5.016c2.365,-0 4.617,0.479 6.666,1.346l1.191,0.802l11.234,-11.787l-0.792,-2.553c-0.229,-1.114 -0.348,-2.269 -0.348,-3.451c-0,-9.459 7.667,-17.126 17.126,-17.126c7.094,-0 13.181,4.313 15.781,10.459l0.745,2.403l12.668,5.976l1.986,-1.339c2.049,-0.867 4.301,-1.346 6.666,-1.346c4.729,0 9.011,1.917 12.11,5.016l2.136,3.168l19.15,-1.668l0.208,-0.671c2.6,-6.147 8.687,-10.46 15.781,-10.46l1.201,0.121l6.78,-14.543l-0.685,-1.016c-0.867,-2.049 -1.346,-4.302 -1.346,-6.667c0,-9.458 7.668,-17.126 17.126,-17.126Z" style="fill:#d1e5a5;fill-opacity:0.85;"/>
            </g>
            <g transform="matrix(3.46824,0,0,3.61753,18.948,-26.4831)">
                <g transform="matrix(25.4826,0,0,25.4681,115.109,178.699)">
                    <path d="M0.076,-0l0,-0.716l0.097,0l0.376,0.562l0,-0.562l0.091,0l0,0.716l-0.097,-0l-0.376,-0.563l-0,0.563l-0.091,-0Z" style="fill:#000;fill-rule:nonzero;"/>
                </g>
            </g>
            <g transform="matrix(3.46824,0,0,3.61753,18.948,-26.4831)">
                <g transform="matrix(25.4826,0,0,25.4681,169.56,271.323)">
                    <path d="M0.076,-0l0,-0.716l0.097,0l0.376,0.562l0,-0.562l0.091,0l0,0.716l-0.097,-0l-0.376,-0.563l-0,0.563l-0.091,-0Z" style="fill:#000;fill-rule:nonzero;"/>
                </g>
                <g transform="matrix(19.112,0,0,19.1011,187.962,262.201)">
                    <rect x="0.032" y="-0.303" width="0.27" height="0.088" style="fill:#000;fill-rule:nonzero;"/>
                </g>
            </g>
            <g transform="matrix(3.46824,0,0,3.61753,18.948,-26.4831)">
                <g transform="matrix(25.4826,0,0,25.4681,238.759,230.689)">
                    <path d="M0.076,-0l0,-0.716l0.097,0l0.376,0.562l0,-0.562l0.091,0l0,0.716l-0.097,-0l-0.376,-0.563l-0,0.563l-0.091,-0Z" style="fill:#000;fill-rule:nonzero;"/>
                </g>
            </g>
            <g transform="matrix(3.46824,0,0,3.61753,18.948,-26.4831)">
                <g transform="matrix(25.4826,0,0,25.4681,184.308,138.065)">
                    <path d="M0.076,-0l0,-0.716l0.097,0l0.376,0.562l0,-0.562l0.091,0l0,0.716l-0.097,-0l-0.376,-0.563l-0,0.563l-0.091,-0Z" style="fill:#000;fill-rule:nonzero;"/>
                </g>
                <g transform="matrix(19.112,0,0,19.1011,202.711,128.944)">
                    <rect x="0.032" y="-0.303" width="0.27" height="0.088" style="fill:#000;fill-rule:nonzero;"/>
                </g>
            </g>
            <g transform="matrix(3.46824,0,0,3.61753,18.948,-26.4831)">
                <g transform="matrix(25.4826,0,0,25.4681,303.255,36.3971)">
                    <path d="M0.048,-0.349c0,-0.118 0.032,-0.211 0.096,-0.279c0.064,-0.067 0.146,-0.101 0.247,-0.101c0.066,0 0.126,0.016 0.179,0.048c0.053,0.031 0.093,0.075 0.121,0.132c0.028,0.056 0.042,0.12 0.042,0.192c-0,0.073 -0.015,0.138 -0.044,0.195c-0.029,0.057 -0.071,0.101 -0.125,0.13c-0.053,0.029 -0.111,0.044 -0.173,0.044c-0.068,0 -0.128,-0.016 -0.181,-0.049c-0.053,-0.032 -0.093,-0.077 -0.121,-0.133c-0.027,-0.056 -0.041,-0.116 -0.041,-0.179Zm0.098,0.002c-0,0.086 0.023,0.154 0.07,0.204c0.046,0.049 0.104,0.074 0.174,0.074c0.071,0 0.13,-0.025 0.176,-0.075c0.046,-0.05 0.069,-0.121 0.069,-0.213c0,-0.059 -0.01,-0.11 -0.029,-0.153c-0.02,-0.043 -0.049,-0.077 -0.087,-0.101c-0.038,-0.024 -0.08,-0.036 -0.127,-0.036c-0.067,0 -0.125,0.023 -0.173,0.069c-0.049,0.046 -0.073,0.123 -0.073,0.231Z" style="fill:#000;fill-rule:nonzero;"/>
                </g>
            </g>
            <g transform="matrix(3.46824,0,0,3.61753,18.948,-26.4831)">
                <g transform="matrix(25.4826,0,0,25.4681,475.112,256.657)">
                    <path d="M0.048,-0.349c0,-0.118 0.032,-0.211 0.096,-0.279c0.064,-0.067 0.146,-0.101 0.247,-0.101c0.066,0 0.126,0.016 0.179,0.048c0.053,0.031 0.093,0.075 0.121,0.132c0.028,0.056 0.042,0.12 0.042,0.192c-0,0.073 -0.015,0.138 -0.044,0.195c-0.029,0.057 -0.071,0.101 -0.125,0.13c-0.053,0.029 -0.111,0.044 -0.173,0.044c-0.068,0 -0.128,-0.016 -0.181,-0.049c-0.053,-0.032 -0.093,-0.077 -0.121,-0.133c-0.027,-0.056 -0.041,-0.116 -0.041,-0.179Zm0.098,0.002c-0,0.086 0.023,0.154 0.07,0.204c0.046,0.049 0.104,0.074 0.174,0.074c0.071,0 0.13,-0.025 0.176,-0.075c0.046,-0.05 0.069,-0.121 0.069,-0.213c0,-0.059 -0.01,-0.11 -0.029,-0.153c-0.02,-0.043 -0.049,-0.077 -0.087,-0.101c-0.038,-0.024 -0.08,-0.036 -0.127,-0.036c-0.067,0 -0.125,0.023 -0.173,0.069c-0.049,0.046 -0.073,0.123 -0.073,0.231Z" style="fill:#000;fill-rule:nonzero;"/>
                </g>
            </g>
            <g transform="matrix(3.46824,0,0,3.61753,18.948,-26.4831)">
                <g transform="matrix(25.4826,0,0,25.4681,446.06,181.887)">
                    <path d="M0.048,-0.349c0,-0.118 0.032,-0.211 0.096,-0.279c0.064,-0.067 0.146,-0.101 0.247,-0.101c0.066,0 0.126,0.016 0.179,0.048c0.053,0.031 0.093,0.075 0.121,0.132c0.028,0.056 0.042,0.12 0.042,0.192c-0,0.073 -0.015,0.138 -0.044,0.195c-0.029,0.057 -0.071,0.101 -0.125,0.13c-0.053,0.029 -0.111,0.044 -0.173,0.044c-0.068,0 -0.128,-0.016 -0.181,-0.049c-0.053,-0.032 -0.093,-0.077 -0.121,-0.133c-0.027,-0.056 -0.041,-0.116 -0.041,-0.179Zm0.098,0.002c-0,0.086 0.023,0.154 0.07,0.204c0.046,0.049 0.104,0.074 0.174,0.074c0.071,0 0.13,-0.025 0.176,-0.075c0.046,-0.05 0.069,-0.121 0.069,-0.213c0,-0.059 -0.01,-0.11 -0.029,-0.153c-0.02,-0.043 -0.049,-0.077 -0.087,-0.101c-0.038,-0.024 -0.08,-0.036 -0.127,-0.036c-0.067,0 -0.125,0.023 -0.173,0.069c-0.049,0.046 -0.073,0.123 -0.073,0.231Z" style="fill:#000;fill-rule:nonzero;"/>
                </g>
            </g>
            <g transform="matrix(3.46824,0,0,3.61753,274.024,-26.4831)">
                <g transform="matrix(25.4826,0,0,25.4681,446.06,181.887)">
                    <path d="M0.079,-0l-0,-0.716l0.317,0c0.064,0 0.112,0.007 0.146,0.019c0.033,0.013 0.059,0.036 0.079,0.069c0.02,0.032 0.03,0.068 0.03,0.107c-0,0.051 -0.017,0.094 -0.049,0.129c-0.033,0.035 -0.084,0.057 -0.153,0.066c0.025,0.012 0.044,0.024 0.057,0.036c0.028,0.025 0.054,0.057 0.079,0.095l0.124,0.195l-0.119,-0l-0.094,-0.149c-0.028,-0.043 -0.051,-0.076 -0.069,-0.099c-0.018,-0.022 -0.034,-0.038 -0.048,-0.047c-0.014,-0.01 -0.028,-0.016 -0.043,-0.019c-0.011,-0.003 -0.028,-0.004 -0.053,-0.004l-0.11,0l0,0.318l-0.094,-0Zm0.094,-0.4l0.204,0c0.043,0 0.077,-0.004 0.102,-0.013c0.024,-0.009 0.042,-0.024 0.055,-0.043c0.013,-0.02 0.019,-0.041 0.019,-0.065c0,-0.033 -0.012,-0.061 -0.037,-0.083c-0.024,-0.022 -0.063,-0.033 -0.116,-0.033l-0.227,0l0,0.237Z" style="fill:#000;fill-rule:nonzero;"/>
                </g>
            </g>
            <g transform="matrix(3.46824,0,0,3.61753,18.948,-26.4831)">
                <g transform="matrix(25.4826,0,0,25.4681,362.895,72.8134)">
                    <path d="M0.048,-0.349c0,-0.118 0.032,-0.211 0.096,-0.279c0.064,-0.067 0.146,-0.101 0.247,-0.101c0.066,0 0.126,0.016 0.179,0.048c0.053,0.031 0.093,0.075 0.121,0.132c0.028,0.056 0.042,0.12 0.042,0.192c-0,0.073 -0.015,0.138 -0.044,0.195c-0.029,0.057 -0.071,0.101 -0.125,0.13c-0.053,0.029 -0.111,0.044 -0.173,0.044c-0.068,0 -0.128,-0.016 -0.181,-0.049c-0.053,-0.032 -0.093,-0.077 -0.121,-0.133c-0.027,-0.056 -0.041,-0.116 -0.041,-0.179Zm0.098,0.002c-0,0.086 0.023,0.154 0.07,0.204c0.046,0.049 0.104,0.074 0.174,0.074c0.071,0 0.13,-0.025 0.176,-0.075c0.046,-0.05 0.069,-0.121 0.069,-0.213c0,-0.059 -0.01,-0.11 -0.029,-0.153c-0.02,-0.043 -0.049,-0.077 -0.087,-0.101c-0.038,-0.024 -0.08,-0.036 -0.127,-0.036c-0.067,0 -0.125,0.023 -0.173,0.069c-0.049,0.046 -0.073,0.123 -0.073,0.231Z" style="fill:#000;fill-rule:nonzero;"/>
                </g>
            </g>
            <g transform="matrix(3.46824,0,0,3.61753,18.948,-26.4831)">
                <g transform="matrix(25.4826,0,0,25.4681,370.049,150.018)">
                    <path d="M0.048,-0.349c0,-0.118 0.032,-0.211 0.096,-0.279c0.064,-0.067 0.146,-0.101 0.247,-0.101c0.066,0 0.126,0.016 0.179,0.048c0.053,0.031 0.093,0.075 0.121,0.132c0.028,0.056 0.042,0.12 0.042,0.192c-0,0.073 -0.015,0.138 -0.044,0.195c-0.029,0.057 -0.071,0.101 -0.125,0.13c-0.053,0.029 -0.111,0.044 -0.173,0.044c-0.068,0 -0.128,-0.016 -0.181,-0.049c-0.053,-0.032 -0.093,-0.077 -0.121,-0.133c-0.027,-0.056 -0.041,-0.116 -0.041,-0.179Zm0.098,0.002c-0,0.086 0.023,0.154 0.07,0.204c0.046,0.049 0.104,0.074 0.174,0.074c0.071,0 0.13,-0.025 0.176,-0.075c0.046,-0.05 0.069,-0.121 0.069,-0.213c0,-0.059 -0.01,-0.11 -0.029,-0.153c-0.02,-0.043 -0.049,-0.077 -0.087,-0.101c-0.038,-0.024 -0.08,-0.036 -0.127,-0.036c-0.067,0 -0.125,0.023 -0.173,0.069c-0.049,0.046 -0.073,0.123 -0.073,0.231Z" style="fill:#000;fill-rule:nonzero;"/>
                </g>
            </g>
            <g transform="matrix(3.46613,0.126178,-0.121247,3.61532,18.948,-26.4831)">
                <g transform="matrix(25.4826,0,0.00101416,25.4681,162.507,202.531)">
                    <path d="M0.074,-0l0,-0.716l0.143,0l0.169,0.507c0.016,0.047 0.027,0.083 0.034,0.106c0.009,-0.026 0.021,-0.064 0.038,-0.115l0.172,-0.498l0.127,0l0,0.716l-0.091,-0l0,-0.599l-0.208,0.599l-0.085,-0l-0.207,-0.609l-0,0.609l-0.092,-0Z" style="fill:#000;fill-rule:nonzero;"/>
                </g>
                <g transform="matrix(25.4826,0,0.00101416,25.4681,183.735,202.531)">
                    <path d="M0.05,0.043l0.085,0.013c0.004,0.026 0.014,0.045 0.03,0.057c0.022,0.017 0.052,0.025 0.089,0.025c0.041,-0 0.072,-0.008 0.095,-0.025c0.022,-0.016 0.037,-0.039 0.045,-0.068c0.004,-0.018 0.006,-0.056 0.006,-0.113c-0.039,0.045 -0.086,0.068 -0.144,0.068c-0.071,-0 -0.126,-0.026 -0.165,-0.077c-0.039,-0.052 -0.059,-0.113 -0.059,-0.185c0,-0.05 0.009,-0.095 0.027,-0.137c0.018,-0.042 0.044,-0.074 0.078,-0.097c0.034,-0.023 0.074,-0.034 0.12,-0.034c0.061,-0 0.111,0.024 0.151,0.074l0,-0.063l0.081,0l0,0.449c0,0.08 -0.008,0.138 -0.024,0.171c-0.017,0.034 -0.043,0.061 -0.079,0.08c-0.035,0.02 -0.079,0.029 -0.131,0.029c-0.062,0 -0.112,-0.013 -0.15,-0.041c-0.038,-0.028 -0.056,-0.07 -0.055,-0.126Zm0.073,-0.312c-0,0.068 0.013,0.118 0.04,0.149c0.027,0.032 0.061,0.047 0.102,0.047c0.04,0 0.074,-0.015 0.101,-0.046c0.028,-0.031 0.041,-0.08 0.041,-0.147c0,-0.063 -0.014,-0.111 -0.042,-0.143c-0.028,-0.032 -0.062,-0.049 -0.102,-0.049c-0.039,0 -0.072,0.016 -0.099,0.048c-0.028,0.032 -0.041,0.079 -0.041,0.141Z" style="fill:#000;fill-rule:nonzero;"/>
                </g>
                <g transform="matrix(19.112,0,0.000760621,19.1011,197.907,193.409)">
                    <path d="M0.503,-0.084l0,0.084l-0.473,-0c-0,-0.021 0.003,-0.042 0.011,-0.061c0.012,-0.032 0.031,-0.064 0.057,-0.095c0.027,-0.032 0.065,-0.068 0.115,-0.109c0.078,-0.063 0.131,-0.114 0.158,-0.151c0.027,-0.038 0.041,-0.073 0.041,-0.106c0,-0.035 -0.012,-0.064 -0.037,-0.088c-0.025,-0.024 -0.058,-0.036 -0.098,-0.036c-0.042,0 -0.076,0.013 -0.101,0.038c-0.026,0.025 -0.038,0.061 -0.039,0.106l-0.09,-0.01c0.006,-0.067 0.029,-0.118 0.07,-0.154c0.04,-0.035 0.094,-0.053 0.162,-0.053c0.069,0 0.123,0.019 0.163,0.057c0.04,0.038 0.06,0.086 0.06,0.142c0,0.029 -0.005,0.057 -0.017,0.084c-0.012,0.028 -0.031,0.057 -0.058,0.088c-0.028,0.03 -0.073,0.072 -0.136,0.126c-0.053,0.044 -0.087,0.074 -0.102,0.09c-0.015,0.016 -0.027,0.032 -0.037,0.048l0.351,-0Z" style="fill:#000;fill-rule:nonzero;"/>
                </g>
                <g transform="matrix(19.112,0,0.000760621,19.1011,208.536,193.409)">
                    <path d="M0.25,-0.116l0,-0.196l-0.194,-0l-0,-0.082l0.194,-0l0,-0.195l0.083,0l0,0.195l0.195,-0l0,0.082l-0.195,-0l0,0.196l-0.083,0Z" style="fill:#000;fill-rule:nonzero;"/>
                </g>
            </g>
            <g transform="matrix(3.46824,0,0,3.61753,18.948,421.763)">
                <path d="M135.355,147.752l-0.208,1.307l-1.305,0.658l-40.092,-22.868l2.513,-1.475l39.092,22.378Z" style="fill:#000;fill-rule:nonzero;"/>
            </g>
            <g transform="matrix(-1.72546,3.13807,3.00857,1.79973,207.073,258.682)">
                <rect x="118.581" y="125.307" width="2.547" height="38.137" style="fill:#000;"/>
            </g>
            <g transform="matrix(3.46824,0,0,3.61753,18.948,666.647)">
                <path d="M133.842,82.023l1.305,-0.657l1.113,0.956l-5.13,42.969l-1.311,0.74l-1.149,-0.752l5.171,-43.256Z" style="fill:#000;fill-rule:nonzero;"/>
            </g>
            <g transform="matrix(3.46824,0,0,3.61753,18.948,-74.7199)">
                <path d="M95.736,217.573l-1.245,-0.429l-0.301,-1.456l18.184,-20.927l1.904,1.662l-18.542,21.15Z" style="fill:#000;fill-rule:nonzero;"/>
            </g>
            <g transform="matrix(-2.61273,-2.37903,-2.28086,2.7252,1112.49,299.52)">
                <rect x="98.465" y="202.239" width="2.515" height="22.667" style="fill:#000;"/>
            </g>
            <g transform="matrix(3.46824,0,0,3.61753,18.948,842.908)">
                <path d="M174.138,97.308l-1.238,-0.447l-0.344,-1.489l27.974,-34.007l1.463,0.14l0.594,1.217l-28.449,34.586Z" style="fill:#000;fill-rule:nonzero;"/>
            </g>
            <g transform="matrix(3.46824,0,0,3.61753,18.948,-494.345)">
                <path d="M100.29,258.407l0.787,1.093l-0.574,1.366l-42.644,9.059l-1.121,-1.003l0.206,-1.308l43.345,-9.207Z" style="fill:#000;fill-rule:nonzero;"/>
            </g>
            <g transform="matrix(3.46824,0,0,3.61753,18.948,-293.893)">
                <path d="M55.445,214.176l1.293,-0.665l1.121,1.003l-4.426,44.134l-1.298,0.762l-1.162,-0.744l4.472,-44.49Z" style="fill:#000;fill-rule:nonzero;"/>
            </g>
            <g transform="matrix(3.45097,0.360588,0.345707,-3.59951,-61.4297,1390.06)">
                <rect x="61.441" y="218.636" width="2.524" height="33.998" style="fill:#000;"/>
            </g>
            <g transform="matrix(3.46824,0,0,3.61753,18.948,-61.4223)">
                <path d="M94.19,212.012l0.301,1.456l-1.212,0.805l-41.06,-17.75l-0.084,-1.376l1.298,-0.762l40.757,17.627Z" style="fill:#000;fill-rule:nonzero;"/>
            </g>
            <g transform="matrix(3.46824,0,0,3.61753,18.948,174.536)">
                <path d="M96.263,193.715l-2.513,1.476l-0.471,-46.144l1.212,-0.806l1.245,0.43l0.527,45.044Z" style="fill:#000;fill-rule:nonzero;"/>
            </g>
            <g transform="matrix(3.46824,0,0,3.61753,18.948,899.129)">
                <path d="M129.89,63.148l-0.071,-1.383l1.311,-0.74l41.426,18.806l0.344,1.489l-1.223,0.786l-41.787,-18.958Z" style="fill:#000;fill-rule:nonzero;"/>
            </g>
            <g transform="matrix(1.43483,-3.29344,-3.15752,-1.49659,584.316,1758.14)">
                <rect x="153.472" y="62.128" width="2.542" height="34.548" style="fill:#000;"/>
            </g>
            <g transform="matrix(3.46824,0,0,3.61753,18.948,-435.463)">
                <path d="M116.845,267.552l-2.18,1.28l-14.162,-24.243l0.574,-1.366l1.409,0.03l14.359,24.299Z" style="fill:#000;fill-rule:nonzero;"/>
            </g>
            <g transform="matrix(3.46824,0,0,3.61753,18.948,619.733)">
                <path d="M202.653,121.952l-0.66,1.245l-1.463,-0.14l-14.553,-24.609l2.18,-1.28l14.496,24.784Z" style="fill:#000;fill-rule:nonzero;"/>
            </g>
            <g transform="matrix(3.46824,0,0,3.61753,18.948,477.808)">
                <path d="M136.26,134.523l-1.113,-0.956l0.208,-1.308l29.229,-7.184l0.6,2.454l-28.924,6.994Z" style="fill:#000;fill-rule:nonzero;"/>
            </g>
            <g transform="matrix(3.46824,0,0,3.61753,18.948,709.298)">
                <path d="M202.587,99.656l-0.594,-1.217l0.66,-1.245l46.06,-1.244l1.515,2.489l-47.641,1.217Z" style="fill:#000;fill-rule:nonzero;"/>
            </g>
            <g transform="matrix(-0.0937539,-3.61621,-3.46697,0.0977895,1191.12,1837.49)">
                <rect x="224.303" y="87.579" width="2.526" height="37.537" style="fill:#000;"/>
            </g>
            <g transform="matrix(3.46824,0,0,3.61753,18.948,566.887)">
                <path d="M250.228,137.807l-1.515,-2.49l21.081,-38.15l1.398,0.005l0.809,1.083l-21.773,39.552Z" style="fill:#000;fill-rule:nonzero;"/>
            </g>
            <g transform="matrix(3.46824,0,0,3.61753,18.948,325.735)">
                <path d="M271.761,162.461l-0.569,1.373l-1.398,-0.005l-14.62,-24.747l2.18,-1.28l14.407,24.659Z" style="fill:#000;fill-rule:nonzero;"/>
            </g>
            <g transform="matrix(-2.9907,1.83184,1.75625,3.11943,1408.15,-50.3725)">
                <rect x="254.15" y="135.968" width="2.539" height="24.754" style="fill:#000;"/>
            </g>
            <g transform="matrix(3.46824,0,0,3.61753,18.948,383.554)">
                <path d="M272.001,148.935l-0.809,-1.084l0.569,-1.373l43.855,-9.76l1.143,0.99l-0.266,1.323l-44.492,9.904Z" style="fill:#000;fill-rule:nonzero;"/>
            </g>
            <g transform="matrix(3.46824,0,0,3.61753,18.948,180.192)">
                <path d="M318.03,193.476l-1.271,0.448l-1.143,-0.99l3.234,-43.43l2.655,-1.559l-3.475,45.531Z" style="fill:#000;fill-rule:nonzero;"/>
            </g>
            <g transform="matrix(3.46824,0,0,3.61753,18.948,-49.3083)">
                <path d="M321.506,211.386l-2.656,1.559l-39.565,-18.334l-0.28,-1.468l1.223,-0.778l41.277,19.021Z" style="fill:#000;fill-rule:nonzero;"/>
            </g>
            <g transform="matrix(3.46824,0,0,3.61753,18.948,-36.0207)">
                <path d="M260.077,212.616l-1.889,-1.68l19.579,-21.915l1.238,0.448l0.28,1.469l-19.208,21.678Z" style="fill:#000;fill-rule:nonzero;"/>
            </g>
            <g transform="matrix(3.46824,0,0,3.61753,18.948,-729.772)">
                <path d="M185.991,308.185l-2.179,1.28l-14.211,-24.296l0.675,-1.223l1.477,0.173l14.238,24.066Z" style="fill:#000;fill-rule:nonzero;"/>
            </g>
            <g transform="matrix(3.46824,0,0,3.61753,18.948,-823.03)">
                <path d="M169.723,308.492l0.553,1.234l-0.675,1.223l-43.61,-0.172l-1.439,-2.535l45.171,0.25Z" style="fill:#000;fill-rule:nonzero;"/>
            </g>
            <g transform="matrix(3.46824,0,0,3.61753,18.948,-680.353)">
                <path d="M102.486,310.949l-1.409,-0.03l-0.787,-1.094l24.262,-41.023l1.439,2.534l-23.505,39.613Z" style="fill:#000;fill-rule:nonzero;"/>
            </g>
            <g transform="matrix(-2.98357,-1.84444,-1.76833,3.112,1300.75,-278.252)">
                <rect x="119.319" y="266.185" width="2.509" height="37.524" style="fill:#000;"/>
            </g>
            <g transform="matrix(3.46824,0,0,3.61753,18.948,-594.818)">
                <path d="M214.063,282.249l-0.623,-2.449l23.773,-5.943l1.137,0.925l-0.227,1.305l-24.061,6.162Z" style="fill:#000;fill-rule:nonzero;"/>
            </g>
            <g transform="matrix(3.46824,0,0,3.61753,18.948,-777.421)">
                <path d="M239.636,324.601l-1.286,0.658l-1.137,-0.925l3.94,-42.268l1.29,-0.742l1.107,1.115l-3.914,42.162Z" style="fill:#000;fill-rule:nonzero;"/>
            </g>
            <g transform="matrix(-3.45331,-0.335269,-0.321433,3.60196,1725.82,-700.063)">
                <rect x="231.221" y="287.571" width="2.525" height="32.911" style="fill:#000;"/>
            </g>
            <g transform="matrix(3.46824,0,0,3.61753,18.948,-530.788)">
                <path d="M238.123,258.387l0.227,-1.305l1.286,-0.659l39.375,23.352l0.163,1.509l-1.227,0.698l-39.824,-23.594Z" style="fill:#000;fill-rule:nonzero;"/>
            </g>
            <g transform="matrix(3.46824,0,0,3.61753,18.948,-948.999)">
                <path d="M171.753,344.721l-1.477,-0.173l-0.553,-1.235l30.313,-34.021l1.286,0.411l0.309,1.481l-29.878,33.537Z" style="fill:#000;fill-rule:nonzero;"/>
            </g>
            <g transform="matrix(-2.59084,-2.40494,-2.3057,2.70236,1923.22,-151.566)">
                <rect x="190.781" y="304.1" width="2.507" height="34.315" style="fill:#000;"/>
            </g>
            <g transform="matrix(3.46824,0,0,3.61753,18.948,-280.754)">
                <path d="M280.228,256.344l-1.223,0.778l-1.238,-0.449l0.18,-43.808l1.227,-0.698l1.232,0.537l-0.178,43.64Z" style="fill:#000;fill-rule:nonzero;"/>
            </g>
            <g transform="matrix(-3.46822,-0.0135937,-0.0130327,3.6175,1901.71,-271.621)">
                <rect x="269.726" y="215.26" width="2.528" height="37.263" style="fill:#000;"/>
            </g>
            <g transform="matrix(3.46824,0,0,3.61753,18.948,-1005.56)">
                <path d="M242.657,343.115l-0.214,1.272l-1.29,0.743l-39.522,-18.313l-0.309,-1.48l1.143,-0.82l40.192,18.598Z" style="fill:#000;fill-rule:nonzero;"/>
            </g>
            <g transform="matrix(3.46824,0,0,3.61753,18.948,-543.21)">
                <path d="M56.944,281.122l-0.206,1.308l-1.293,0.665l-40.121,-22.888l2.536,-1.463l39.084,22.378Z" style="fill:#000;fill-rule:nonzero;"/>
            </g>
            <g transform="matrix(-3.00454,1.80704,1.73246,3.13387,-400.51,-668.997)">
                <path d="M26.373,323.608l2.927,0l-23.021,-39.497l-2.185,1.271l22.279,38.226Z" style="fill:#000;fill-rule:nonzero;"/>
            </g>
            <g transform="matrix(3.46824,0,0,3.61753,18.948,-42.6079)">
                <path d="M50.973,189.203l1.162,0.743l0.084,1.376l-38.985,22.932l-1.281,-2.178l39.02,-22.873Z" style="fill:#000;fill-rule:nonzero;"/>
            </g>
            <g transform="matrix(3.46824,0,0,3.61753,18.948,912.014)">
                <path d="M128.67,57.452l1.149,0.752l0.071,1.382l-38.379,22.532l-2.548,-1.438l39.707,-23.228Z" style="fill:#000;fill-rule:nonzero;"/>
            </g>
            <g transform="matrix(3.0209,1.77711,1.70377,-3.15093,-0.895921,1239.5)">
                <path d="M77.634,55.092l2.926,-0l22.851,-39.324l-2.187,-1.269l-23.59,40.593Z" style="fill:#000;fill-rule:nonzero;"/>
            </g>
            <g transform="matrix(3.46799,-0.0435003,-0.0417052,-3.61727,20.3382,1421.2)">
                <rect x="97.639" y="12.057" width="2.528" height="41.367" style="fill:#000;"/>
            </g>
            <g transform="matrix(3.46824,0,0,3.61753,18.948,1132.35)">
                <path d="M171.677,17.638l1.223,-0.786l1.238,0.446l-0.144,44.513l-2.528,-0.009l0.211,-44.164Z" style="fill:#000;fill-rule:nonzero;"/>
            </g>
            <g transform="matrix(3.46824,0,0,3.61753,18.948,466.208)">
                <path d="M316.493,116.183l0.266,-1.323l1.271,-0.448l36.13,26.503l-6.534,7.477l-31.133,-32.209Z" style="fill:#000;fill-rule:nonzero;"/>
            </g>
            <g transform="matrix(3.46824,0,0,3.61753,18.948,-1238.4)">
                <path d="M202.465,388.882l-1.143,0.82l-1.286,-0.411l-4.962,-44.705l2.513,-0.277l4.878,44.573Z" style="fill:#000;fill-rule:nonzero;"/>
            </g>
            <g transform="matrix(3.46824,0,0,3.61753,18.948,-555.095)">
                <path d="M280.406,288.54l-1.232,-0.537l-0.163,-1.509l31.911,-29.909l1.475,0.283l0.616,1.13l-32.607,30.542Z" style="fill:#000;fill-rule:nonzero;"/>
            </g>
            <g transform="matrix(3.46824,0,0,3.61753,18.948,-824.514)">
                <path d="M313.172,330.119l-0.775,1.225l-1.475,-0.283l-18.786,-40.119l1.538,-2.685l19.498,41.862Z" style="fill:#000;fill-rule:nonzero;"/>
            </g>
            <g transform="matrix(3.46824,0,0,3.61753,18.948,-954.333)">
                <path d="M243.55,331.344l-1.107,-1.116l0.214,-1.272l51.017,-4.812l-1.538,2.684l-48.586,4.516Z" style="fill:#000;fill-rule:nonzero;"/>
            </g>
            <g transform="matrix(0.017844,-3.61748,-3.46819,-0.0186121,1822.47,1910.94)">
                <path d="M327.383,194.329l2.526,-0l0.27,-2.529l-3.066,0l0.27,2.529Z" style="fill:#000;fill-rule:nonzero;"/>
            </g>
            <g transform="matrix(0.0179055,-3.61748,-3.46819,-0.0186763,1850.08,1940.22)">
                <path d="M334.574,194.287l4.242,0l0.27,-2.528l-4.781,0l0.269,2.528Z" style="fill:#000;fill-rule:nonzero;"/>
            </g>
            <g transform="matrix(0.0179313,-3.61748,-3.46819,-0.0187031,1877.7,1969.49)">
                <path d="M341.766,194.246l5.958,-0l0.269,-2.528l-6.496,-0.001l0.269,2.529Z" style="fill:#000;fill-rule:nonzero;"/>
            </g>
            <g transform="matrix(0.0179004,-3.61748,-3.46819,-0.0186709,1905.34,1998.75)">
                <path d="M348.958,194.204l7.673,0l0.269,-2.528l-8.211,0l0.269,2.528Z" style="fill:#000;fill-rule:nonzero;"/>
            </g>
            <g transform="matrix(0.0178811,-3.61748,-3.46819,-0.0186508,1932.97,2028.02)">
                <path d="M356.15,194.163l9.388,-0l0.269,-2.528l-9.926,-0l0.269,2.528Z" style="fill:#000;fill-rule:nonzero;"/>
            </g>
            <g transform="matrix(-3.121,-1.57773,-1.51262,3.25535,2487.79,-487.611)">
                <rect x="294.238" y="327.779" width="2.512" height="34.323" style="fill:#000;"/>
            </g>
            <g transform="matrix(-3.121,-1.57773,-1.51262,3.25535,2530.08,-448.273)">
                <rect x="301.582" y="323.31" width="2.512" height="35.184" style="fill:#000;"/>
            </g>
            <g transform="matrix(3.46824,0,0,3.61753,18.948,-698.865)">
                <path d="M313.013,297.74l-0.616,-1.13l0.775,-1.224l39.926,-8.259l4.083,9.719l-44.168,0.894Z" style="fill:#000;fill-rule:nonzero;"/>
            </g>
            <g transform="matrix(2.13338,-2.85219,-2.73448,-2.22521,1023.57,2274.24)">
                <path d="M386.665,201.584l2.527,0l-0.012,-46.24l-2.529,-1.436l0.014,47.676Z" style="fill:#000;fill-rule:nonzero;"/>
            </g>
            <g transform="matrix(0.504804,-3.579,-3.43131,-0.526533,1878.22,2417.88)">
                <path d="M415.638,192.478l2.908,0l21.954,-38.674l-1.477,-2.527l-23.385,41.201Z" style="fill:#000;fill-rule:nonzero;"/>
            </g>
            <g transform="matrix(2.18465,-2.80964,-2.69369,-2.27869,1083.69,2484.61)">
                <rect x="461.918" y="157.367" width="2.544" height="34.374" style="fill:#000;"/>
            </g>
            <g transform="matrix(2.18498,-2.80936,-2.69342,-2.27904,1059.34,2478.58)">
                <rect x="456.706" y="150.922" width="2.548" height="34.301" style="fill:#000;"/>
            </g>
            <g transform="matrix(-2.70701,-2.26145,-2.16812,2.82354,3232.04,1176.46)">
                <path d="M442.379,209.285l2.926,-0l15.581,-26.697l-2.185,-1.27l-16.322,27.967Z" style="fill:#000;fill-rule:nonzero;"/>
            </g>
            <g transform="matrix(-1.45205,-3.28522,-3.14964,1.51455,3149.76,1777.28)">
                <path d="M481.73,254.993l2.527,-0l0.048,-32.707l-2.528,1.476l-0.047,31.231Z" style="fill:#000;fill-rule:nonzero;"/>
            </g>
            <g transform="matrix(0.333125,-3.6008,-3.4522,-0.347464,2440.07,2515.33)">
                <path d="M526.09,251.982l2.928,-0l-13.382,-22.645l-2.926,-0.003l13.38,22.648Z" style="fill:#000;fill-rule:nonzero;"/>
            </g>
            <g transform="matrix(-3.18324,-1.43609,-1.37683,3.32026,2813.8,-208.025)">
                <rect x="355.174" y="291.094" width="2.514" height="33.802" style="fill:#000;"/>
            </g>
            <g transform="matrix(-3.18326,-1.43604,-1.37678,3.32028,2859.85,-174.059)">
                <rect x="362.787" y="287.742" width="2.513" height="33.858" style="fill:#000;"/>
            </g>
            <g transform="matrix(-1.34325,-3.33519,-3.19755,1.40107,2670.65,1204.36)">
                <path d="M369.154,286.795l10.541,0l-32.497,-7.307l-0.583,2.46l22.539,4.847Z" style="fill:#000;fill-rule:nonzero;"/>
            </g>
            <g transform="matrix(-1.75768,-3.11855,-2.98986,1.83334,2957.69,1192.55)">
                <rect x="404.668" y="257.65" width="2.511" height="31.497" style="fill:#000;"/>
            </g>
            <g transform="matrix(3.43572,0.494241,0.473845,-3.58361,-87.0219,1315.52)">
                <rect x="187.645" y="216.846" width="2.521" height="39.516" style="fill:#000;"/>
            </g>
            <g transform="matrix(-1.1047,3.42912,3.2876,1.15225,403.977,-225.715)">
                <rect x="217.462" y="171.342" width="2.537" height="31.578" style="fill:#000;"/>
            </g>
            <g transform="matrix(-3.45825,-0.274311,-0.262991,3.60711,1315.73,272.03)">
                <rect x="179.679" y="150.953" width="2.526" height="28.772" style="fill:#000;"/>
            </g>
            <g transform="matrix(1.58401,-3.2182,-3.08539,-1.65219,967.31,1458.94)">
                <rect x="144.965" y="208.95" width="2.535" height="18.236" style="fill:#000;"/>
            </g>
        </g>
    </g>
</svg>
