[
    {
        "question": "<p>Mg<sup>2+</sup></p>",
        "answer": "<p>hard Lewis acid</p>"
    },
    {
        "question": "<p>Al<sup>3+</sup></p>",
        "answer": "<p>hard Lewis acid</p>"
    },
    {
        "question": "<p>H<sup>+</sup></p>",
        "answer": "<p>hard Lewis acid</p>"
    },
    {
        "question": "<p>H<sub>2</sub>O (water)</p>",
        "answer": "<p>hard Lewis base</p>"
    },
    {
        "question": "<p>F<sup>-</sup></p>",
        "answer": "<p>hard Lewis base</p>"
    },
    {
        "question": "<p>NH<sub>3</sub> (ammonia)</p>",
        "answer": "<p>hard Lewis base</p>"
    },
    {
        "question": "<p>OH<sup>-</sup> (hydroxide)</p>",
        "answer": "<p>hard Lewis base</p>"
    },
    {
        "question": "<p>BF<sub>3</sub> (boron trifluoride)</p>",
        "answer": "<p>hard Lewis acid</p>"
    },
    {
        "question": "<p>Li<sup>+</sup></p>",
        "answer": "<p>hard Lewis acid</p>"
    },
    {
        "question": "<p>Na<sup>+</sup></p>",
        "answer": "<p>hard Lewis acid</p>"
    },
    {
        "question": "<p>Rb<sup>+</sup></p>",
        "answer": "<p>hard Lewis acid</p>"
    },
    {
        "question": "<p>Be<sup>2+</sup></p>",
        "answer": "<p>hard Lewis acid</p>"
    },
    {
        "question": "<p>Ca<sup>2+</sup></p>",
        "answer": "<p>hard Lewis acid</p>"
    },
    {
        "question": "<p>Sr<sup>2+</sup></p>",
        "answer": "<p>hard Lewis acid</p>"
    },
    {
        "question": "<p>Ba<sup>2+</sup></p>",
        "answer": "<p>hard Lewis acid</p>"
    },
    {
        "question": "<p>Sn<sup>2+</sup></p>",
        "answer": "<p>hard Lewis acid</p>"
    },
    {
        "question": "<p>Sn<sup>4+</sup></p>",
        "answer": "<p>hard Lewis acid</p>"
    },
    {
        "question": "<p>Mn<sup>2+</sup></p>",
        "answer": "<p>hard Lewis acid</p>"
    },
    {
        "question": "<p>Zn<sup>2+</sup></p>",
        "answer": "<p>hard Lewis acid</p>"
    },
    {
        "question": "<p>Ga<sup>3+</sup></p>",
        "answer": "<p>hard Lewis acid</p>"
    },
    {
        "question": "<p>In<sup>3+</sup></p>",
        "answer": "<p>hard Lewis acid</p>"
    },
    {
        "question": "<p>Cr<sup>3+</sup></p>",
        "answer": "<p>hard Lewis acid</p>"
    },
    {
        "question": "<p>Fe<sup>3+</sup></p>",
        "answer": "<p>hard Lewis acid</p>"
    },
    {
        "question": "<p>Co<sup>3+</sup></p>",
        "answer": "<p>hard Lewis acid</p>"
    },
    {
        "question": "<p>Th<sup>4+</sup></p>",
        "answer": "<p>hard Lewis acid</p>"
    },
    {
        "question": "<p>Pu<sup>4+</sup></p>",
        "answer": "<p>hard Lewis acid</p>"
    },
    {
        "question": "<p>U<sup>6+</sup></p>",
        "answer": "<p>hard Lewis acid</p>"
    },
    {
        "question": "<p>W<sup>6+</sup></p>",
        "answer": "<p>hard Lewis acid</p>"
    },
    {
        "question": "<p>[VO]<sup>2+</sup> (vanadyl)</p>",
        "answer": "<p>hard Lewis acid</p>"
    },
    {
        "question": "<p>[VO<sub>2</sub>]<sup>+</sup> (pervanadyl)</p>",
        "answer": "<p>hard Lewis acid</p>"
    },
    {
        "question": "<p>Ti<sup>4+</sup></p>",
        "answer": "<p>hard Lewis acid</p>"
    },
    {
        "question": "<p>Zr<sup>4+</sup></p>",
        "answer": "<p>hard Lewis acid</p>"
    },
    {
        "question": "<p>La<sup>3+</sup></p>",
        "answer": "<p>hard Lewis acid</p>"
    },
    {
        "question": "<p>Y<sup>3+</sup></p>",
        "answer": "<p>hard Lewis acid</p>"
    },
    {
        "question": "<p>Sc<sup>3+</sup></p>",
        "answer": "<p>hard Lewis acid</p>"
    },
    {
        "question": "<p><sup>\u2013</sup>O-CH<sub>3</sub> (methoxide)</p>",
        "answer": "<p>hard Lewis base</p>"
    },
    {
        "question": "<p>CO<sub>3</sub><sup>2-</sup> (carbonate)</p>",
        "answer": "<p>hard Lewis base</p>"
    },
    {
        "question": "<p>NO<sub>3</sub><sup>-</sup> (nitrate)</p>",
        "answer": "<p>hard Lewis base</p>"
    },
    {
        "question": "<p>PO<sub>4</sub><sup>3-</sup> (phosphate)</p>",
        "answer": "<p>hard Lewis base</p>"
    },
    {
        "question": "<p>SO<sub>4</sub><sup>2-</sup> (sulfate)</p>",
        "answer": "<p>hard Lewis base</p>"
    },
    {
        "question": "<p>ClO<sub>4</sub><sup>-</sup> (perchlorate)</p>",
        "answer": "<p>hard Lewis base</p>"
    },
    {
        "question": "<p>H<sub>3</sub>C\u2013CH<sub>2</sub>OH (ethanol)</p>",
        "answer": "<p>hard Lewis base</p>"
    },
    {
        "question": "<p>H<sub>3</sub>C\u2013CH<sub>2</sub>\u2013O\u2013C\u2013CH<sub>2</sub>\u2013CH<sub>3</sub> (diethylether)</p>",
        "answer": "<p>hard Lewis base</p>"
    },
    {
        "question": "<p>H<sub>3</sub>C\u2013COO<sup>\u2013</sup> (acetate)</p>",
        "answer": "<p>hard Lewis base</p>"
    },
    {
        "question": "<p><sup>\u2013</sup>N(H<sub>3</sub>C)<sub>2</sub> (dimethyl amide)</p>",
        "answer": "<p>hard Lewis base</p>"
    },
    {
        "question": "<p>I<sup>-</sup> (iodide)</p>",
        "answer": "<p>soft Lewis base</p>"
    },
    {
        "question": "<p>H<sup>\u2013</sup> (hydride)</p>",
        "answer": "<p>soft Lewis base</p>"
    },
    {
        "question": "<p>H<sub>2</sub>S (hydrogen sulfide)</p>",
        "answer": "<p>soft Lewis base</p>"
    },
    {
        "question": "<p>HS<sup>-</sup> (thiolate)</p>",
        "answer": "<p>soft Lewis base</p>"
    },
    {
        "question": "<p>S<sup>2-</sup> (sulfide)</p>",
        "answer": "<p>soft Lewis base</p>"
    },
    {
        "question": "<p>Se<sup>2-</sup> (selenide)</p>",
        "answer": "<p>soft Lewis base</p>"
    },
    {
        "question": "<p>(CH<sub>3</sub>)<sub>2</sub>S (dimethyl thioether)</p>",
        "answer": "<p>soft Lewis base</p>"
    },
    {
        "question": "<p>(CH<sub>3</sub>CH<sub>2</sub>)<sub>3</sub>P (triethyl phosphine)</p>",
        "answer": "<p>soft Lewis base</p>"
    },
    {
        "question": "<p>H<sub>3</sub>C-CH<sub>2</sub>CH<sub>2</sub>CH<sub>2</sub>CH<sub>2</sub><sup>\u2013</sup> (butyl carbanion)</p>",
        "answer": "<p>soft Lewis base</p>"
    },
    {
        "question": "<p>CN<sup>-</sup> (cyanide)</p>",
        "answer": "<p>soft Lewis base</p>"
    },
    {
        "question": "<p>CO (carbonyl)</p>",
        "answer": "<p>soft Lewis base</p>"
    },
    {
        "question": "<p>H<sub>3</sub>CNC (isocyanide)</p>",
        "answer": "<p>soft Lewis base</p>"
    },
    {
        "question": "<p>H<sub>3</sub>C\u2013S<sup>\u2013</sup> (methanethiolate)</p>",
        "answer": "<p>soft Lewis base</p>"
    },
    {
        "question": "<p>H<sub>3</sub>C\u2013SH (methanethio)</p>",
        "answer": "<p>soft Lewis base</p>"
    },
    {
        "question": "<p><sup>\u2013</sup>SCN (thiocayanate)</p>",
        "answer": "<p>soft Lewis base</p>"
    },
    {
        "question": "<p>H<sub>2</sub>C=CH<sub>2</sub> (ethylene)</p>",
        "answer": "<p>soft Lewis base</p>"
    },
    {
        "question": "<p>C<sub>5</sub>H<sub>5</sub><sup>\u2013</sup> (cyclopentadienyl anion)</p>",
        "answer": "<p>soft Lewis base</p>"
    },
    {
        "question": "<p>Al</p>",
        "answer": "<p>soft Lewis acid</p>"
    },
    {
        "question": "<p>Cu</p>",
        "answer": "<p>soft Lewis acid</p>"
    },
    {
        "question": "<p>Zn</p>",
        "answer": "<p>soft Lewis acid</p>"
    },
    {
        "question": "<p>Ga</p>",
        "answer": "<p>soft Lewis acid</p>"
    },
    {
        "question": "<p>Cr</p>",
        "answer": "<p>soft Lewis acid</p>"
    },
    {
        "question": "<p>Fe</p>",
        "answer": "<p>soft Lewis acid</p>"
    },
    {
        "question": "<p>Hg</p>",
        "answer": "<p>soft Lewis acid</p>"
    },
    {
        "question": "<p>Ag</p>",
        "answer": "<p>soft Lewis acid</p>"
    },
    {
        "question": "<p>Au</p>",
        "answer": "<p>soft Lewis acid</p>"
    },
    {
        "question": "<p>Tl<sup>+</sup></p>",
        "answer": "<p>soft Lewis acid</p>"
    },
    {
        "question": "<p>Cu<sup>+</sup></p>",
        "answer": "<p>soft Lewis acid</p>"
    },
    {
        "question": "<p>Ag<sup>+</sup></p>",
        "answer": "<p>soft Lewis acid</p>"
    },
    {
        "question": "<p>Au<sup>+</sup></p>",
        "answer": "<p>soft Lewis acid</p>"
    },
    {
        "question": "<p>[Hg<sub>2</sub>]<sup>+</sup></p>",
        "answer": "<p>soft Lewis acid</p>"
    },
    {
        "question": "<p>Hg<sup>2+</sup></p>",
        "answer": "<p>soft Lewis acid</p>"
    },
    {
        "question": "<p>Cd<sup>2+</sup></p>",
        "answer": "<p>soft Lewis acid</p>"
    },
    {
        "question": "<p>Pd<sup>2+</sup></p>",
        "answer": "<p>soft Lewis acid</p>"
    },
    {
        "question": "<p>Pt<sup>2+</sup></p>",
        "answer": "<p>soft Lewis acid</p>"
    },
    {
        "question": "<p>Tl<sup>3+</sup></p>",
        "answer": "<p>soft Lewis acid</p>"
    }
]