[
    {
        "question": "Ac<sup>+3</sup> + MoO<sub>2</sub> \u2192 Ac + H<sub>2</sub>MoO<sub>4</sub> (acid)",
        "answer": "&nbsp&nbsp&nbsp2x&nbsp&nbsp&nbsp&nbsp&nbsp&nbspAc<sup>+3</sup> + 3 e<sup>-</sup> \u2192 Ac<br> + 3x&nbsp&nbsp&nbsp&nbsp&nbsp&nbspMoO<sub>2</sub> + 2 H<sub>2</sub>O \u2192 H<sub>2</sub>MoO<sub>4</sub> + 2 H<sup>+</sup> + 2 e<sup>-</sup> <br> <hr>2 Ac<sup>+3</sup> + 3 MoO<sub>2</sub> + 6 H<sub>2</sub>O \u2192 2 Ac + 3 H<sub>2</sub>MoO<sub>4</sub> + 6 H<sup>+</sup>"
    },
    {
        "question": "Ce<sup>+4</sup> + HMnO<sub>4</sub><sup>-</sup> \u2192 Ce<sup>+3</sup> + MnO<sub>4</sub><sup>-</sup> (acid)",
        "answer": "&nbsp&nbsp&nbsp1x&nbsp&nbsp&nbsp&nbsp&nbsp&nbspCe<sup>+4</sup> + e<sup>-</sup> \u2192 Ce<sup>+3</sup><br> + 1x&nbsp&nbsp&nbsp&nbsp&nbsp&nbspHMnO<sub>4</sub><sup>-</sup> \u2192 MnO<sub>4</sub><sup>-</sup> + H<sup>+</sup> + e<sup>-</sup> <br> <hr>Ce<sup>+4</sup> + HMnO<sub>4</sub><sup>-</sup> \u2192 Ce<sup>+3</sup> + MnO<sub>4</sub><sup>-</sup> + H<sup>+</sup>"
    },
    {
        "question": "Al<sup>+3</sup> + SnH<sub>4</sub> \u2192 Al + Sn (acid)",
        "answer": "&nbsp&nbsp&nbsp4x&nbsp&nbsp&nbsp&nbsp&nbsp&nbspAl<sup>+3</sup> + 3 e<sup>-</sup> \u2192 Al<br> + 3x&nbsp&nbsp&nbsp&nbsp&nbsp&nbspSnH<sub>4</sub> \u2192 Sn + 4 H<sup>+</sup> + 4 e<sup>-</sup> <br> <hr>4 Al<sup>+3</sup> + 3 SnH<sub>4</sub> \u2192 4 Al + 3 Sn + 12 H<sup>+</sup>"
    },
    {
        "question": "CrS<sub>6</sub>O<sub>9</sub> \u2192 S<sub>2</sub>O<sub>3</sub><sup>-2</sup> + Cr<sub>2</sub>O<sub>7</sub><sup>-2</sup> (acid)",
        "answer": "&nbsp&nbsp&nbsp3x&nbsp&nbsp&nbsp&nbsp&nbsp&nbspS<sub>4</sub>O<sub>6</sub><sup>-2</sup> + 2 e<sup>-</sup> \u2192 2 S<sub>2</sub>O<sub>3</sub><sup>-2</sup><br> + 1x&nbsp&nbsp&nbsp&nbsp&nbsp&nbsp2 Cr<sup>+3</sup> + 7 H<sub>2</sub>O \u2192 Cr<sub>2</sub>O<sub>7</sub><sup>-2</sup> + 14 H<sup>+</sup> + 6 e<sup>-</sup> <br> <hr>3 S<sub>4</sub>O<sub>6</sub><sup>-2</sup> + 2 Cr<sup>+3</sup> + 7 H<sub>2</sub>O \u2192 6 S<sub>2</sub>O<sub>3</sub><sup>-2</sup> + Cr<sub>2</sub>O<sub>7</sub><sup>-2</sup> + 14 H<sup>+</sup><br>&nbsp&nbsp&nbsp or<br>3 H<sub>2</sub>O + 2 CrS<sub>6</sub>O<sub>9</sub> \u2192 6 S<sub>2</sub>O<sub>3</sub><sup>-2</sup> + Cr<sub>2</sub>O<sub>7</sub><sup>-2</sup> + 14 H<sup>+</sup>"
    },
    {
        "question": "Ti<sup>+2</sup> + V<sup>+3</sup> \u2192 Ti + VO<sup>+2</sup> (acid)",
        "answer": "&nbsp&nbsp&nbsp1x&nbsp&nbsp&nbsp&nbsp&nbsp&nbspTi<sup>+2</sup> + 2 e<sup>-</sup> \u2192 Ti<br> + 2x&nbsp&nbsp&nbsp&nbsp&nbsp&nbspV<sup>+3</sup> + H<sub>2</sub>O \u2192 VO<sup>+2</sup> + 2 H<sup>+</sup> + e<sup>-</sup> <br> <hr>Ti<sup>+2</sup> + 2 V<sup>+3</sup> + 2 H<sub>2</sub>O \u2192 Ti + 2 VO<sup>+2</sup> + 4 H<sup>+</sup>"
    },
    {
        "question": "Ce<sup>+4</sup> + S \u2192 Ce<sup>+3</sup> + SO<sub>2</sub> (acid)",
        "answer": "&nbsp&nbsp&nbsp4x&nbsp&nbsp&nbsp&nbsp&nbsp&nbspCe<sup>+4</sup> + e<sup>-</sup> \u2192 Ce<sup>+3</sup><br> + 1x&nbsp&nbsp&nbsp&nbsp&nbsp&nbspS + 2 H<sub>2</sub>O \u2192 SO<sub>2</sub> + 4 H<sup>+</sup> + 4 e<sup>-</sup> <br> <hr>4 Ce<sup>+4</sup> + S + 2 H<sub>2</sub>O \u2192 4 Ce<sup>+3</sup> + SO<sub>2</sub> + 4 H<sup>+</sup>"
    },
    {
        "question": "Ag<sub>2</sub>S + Ti<sup>+3</sup> \u2192 Ag + S<sup>-2</sup> + TiO<sup>+2</sup> (acid)",
        "answer": "&nbsp&nbsp&nbsp1x&nbsp&nbsp&nbsp&nbsp&nbsp&nbspAg<sub>2</sub>S + 2 e<sup>-</sup> \u2192 2 Ag + S<sup>-2</sup><br> + 2x&nbsp&nbsp&nbsp&nbsp&nbsp&nbspTi<sup>+3</sup> + H<sub>2</sub>O \u2192 TiO<sup>+2</sup> + 2 H<sup>+</sup> + e<sup>-</sup> <br> <hr>Ag<sub>2</sub>S + 2 Ti<sup>+3</sup> + 2 H<sub>2</sub>O \u2192 2 Ag + S<sup>-2</sup> + 2 TiO<sup>+2</sup> + 4 H<sup>+</sup>"
    },
    {
        "question": "Ag<sub>2</sub>S + S<sub>2</sub>O<sub>6</sub><sup>-2</sup> \u2192 Ag + S<sup>-2</sup> + SO<sub>4</sub><sup>-2</sup> (acid)",
        "answer": "&nbsp&nbsp&nbsp1x&nbsp&nbsp&nbsp&nbsp&nbsp&nbspAg<sub>2</sub>S + 2 e<sup>-</sup> \u2192 2 Ag + S<sup>-2</sup><br> + 1x&nbsp&nbsp&nbsp&nbsp&nbsp&nbsp2 H<sub>2</sub>O + S<sub>2</sub>O<sub>6</sub><sup>-2</sup> \u2192 2 SO<sub>4</sub><sup>-2</sup> + 4 H<sup>+</sup> + 2 e<sup>-</sup> <br> <hr>Ag<sub>2</sub>S + 2 H<sub>2</sub>O + S<sub>2</sub>O<sub>6</sub><sup>-2</sup> \u2192 2 Ag + S<sup>-2</sup> + 2 SO<sub>4</sub><sup>-2</sup> + 4 H<sup>+</sup>"
    },
    {
        "question": "Ni<sup>+2</sup> + S \u2192 Ni + SO<sub>2</sub> (acid)",
        "answer": "&nbsp&nbsp&nbsp2x&nbsp&nbsp&nbsp&nbsp&nbsp&nbspNi<sup>+2</sup> + 2 e<sup>-</sup> \u2192 Ni<br> + 1x&nbsp&nbsp&nbsp&nbsp&nbsp&nbspS + 2 H<sub>2</sub>O \u2192 SO<sub>2</sub> + 4 H<sup>+</sup> + 4 e<sup>-</sup> <br> <hr>2 Ni<sup>+2</sup> + S + 2 H<sub>2</sub>O \u2192 2 Ni + SO<sub>2</sub> + 4 H<sup>+</sup>"
    },
    {
        "question": "Ag<sup>+</sup> + SO<sub>2</sub> \u2192 Ag + SO<sub>4</sub><sup>-2</sup> (acid)",
        "answer": "&nbsp&nbsp&nbsp2x&nbsp&nbsp&nbsp&nbsp&nbsp&nbspAg<sup>+</sup> + e<sup>-</sup> \u2192 Ag<br> + 1x&nbsp&nbsp&nbsp&nbsp&nbsp&nbspSO<sub>2</sub> + 2 H<sub>2</sub>O \u2192 SO<sub>4</sub><sup>-2</sup> + 4 H<sup>+</sup> + 2 e<sup>-</sup> <br> <hr>2 Ag<sup>+</sup> + SO<sub>2</sub> + 2 H<sub>2</sub>O \u2192 2 Ag + SO<sub>4</sub><sup>-2</sup> + 4 H<sup>+</sup>"
    },
    {
        "question": "Fe<sup>+2</sup> + VOH<sup>+2</sup> \u2192 Fe + VO(OH)<sup>+</sup> (acid)",
        "answer": "&nbsp&nbsp&nbsp1x&nbsp&nbsp&nbsp&nbsp&nbsp&nbspFe<sup>+2</sup> + 2 e<sup>-</sup> \u2192 Fe<br> + 2x&nbsp&nbsp&nbsp&nbsp&nbsp&nbspVOH<sup>+2</sup> + H<sub>2</sub>O \u2192 VO(OH)<sup>+</sup> + 2 H<sup>+</sup> + e<sup>-</sup> <br> <hr>Fe<sup>+2</sup> + 2 VOH<sup>+2</sup> + 2 H<sub>2</sub>O \u2192 Fe + 2 VO(OH)<sup>+</sup> + 4 H<sup>+</sup>"
    },
    {
        "question": "Fe<sup>+2</sup> + Mo \u2192 Fe + MoO<sub>2</sub> (acid)",
        "answer": "&nbsp&nbsp&nbsp2x&nbsp&nbsp&nbsp&nbsp&nbsp&nbspFe<sup>+2</sup> + 2 e<sup>-</sup> \u2192 Fe<br> + 1x&nbsp&nbsp&nbsp&nbsp&nbsp&nbspMo + 2 H<sub>2</sub>O \u2192 MoO<sub>2</sub> + 4 H<sup>+</sup> + 4 e<sup>-</sup> <br> <hr>2 Fe<sup>+2</sup> + Mo + 2 H<sub>2</sub>O \u2192 2 Fe + MoO<sub>2</sub> + 4 H<sup>+</sup>"
    },
    {
        "question": "Cr<sup>+2</sup> + Ag \u2192 Cr + Ag<sub>2</sub>O (acid)",
        "answer": "&nbsp&nbsp&nbsp1x&nbsp&nbsp&nbsp&nbsp&nbsp&nbspCr<sup>+2</sup> + 2 e<sup>-</sup> \u2192 Cr<br> + 1x&nbsp&nbsp&nbsp&nbsp&nbsp&nbsp2 Ag + H<sub>2</sub>O \u2192 Ag<sub>2</sub>O + 2 H<sup>+</sup> + 2 e<sup>-</sup> <br> <hr>Cr<sup>+2</sup> + 2 Ag + H<sub>2</sub>O \u2192 Cr + Ag<sub>2</sub>O + 2 H<sup>+</sup>"
    },
    {
        "question": "Cr<sup>+3</sup> + Se \u2192 Cr<sup>+2</sup> + H<sub>2</sub>SeO<sub>3</sub> (acid)",
        "answer": "&nbsp&nbsp&nbsp4x&nbsp&nbsp&nbsp&nbsp&nbsp&nbspCr<sup>+3</sup> + e<sup>-</sup> \u2192 Cr<sup>+2</sup><br> + 1x&nbsp&nbsp&nbsp&nbsp&nbsp&nbspSe + 3 H<sub>2</sub>O \u2192 H<sub>2</sub>SeO<sub>3</sub> + 4 H<sup>+</sup> + 4 e<sup>-</sup> <br> <hr>4 Cr<sup>+3</sup> + Se + 3 H<sub>2</sub>O \u2192 4 Cr<sup>+2</sup> + H<sub>2</sub>SeO<sub>3</sub> + 4 H<sup>+</sup>"
    },
    {
        "question": "PbSO<sub>4</sub> + Ti \u2192 Pb + TiO + H<sub>2</sub>SO<sub>4</sub> (acid)",
        "answer": "&nbsp&nbsp&nbsp1x&nbsp&nbsp&nbsp&nbsp&nbsp&nbspPbSO<sub>4</sub> + 2 e<sup>-</sup> \u2192 Pb + SO<sub>4</sub><sup>-2</sup><br> + 1x&nbsp&nbsp&nbsp&nbsp&nbsp&nbspTi + H<sub>2</sub>O \u2192 TiO + 2 H<sup>+</sup> + 2 e<sup>-</sup> <br> <hr>PbSO<sub>4</sub> + Ti + H<sub>2</sub>O \u2192 Pb + SO<sub>4</sub><sup>-2</sup> + TiO + 2 H<sup>+</sup><br>&nbsp&nbsp&nbsp or<br>PbSO<sub>4</sub> + Ti + H<sub>2</sub>O \u2192 Pb + TiO + H<sub>2</sub>SO<sub>4</sub>"
    },
    {
        "question": "U<sup>+3</sup> + Mn<sup>+2</sup> \u2192 U + MnO<sub>2</sub> (acid)",
        "answer": "&nbsp&nbsp&nbsp2x&nbsp&nbsp&nbsp&nbsp&nbsp&nbspU<sup>+3</sup> + 3 e<sup>-</sup> \u2192 U<br> + 3x&nbsp&nbsp&nbsp&nbsp&nbsp&nbspMn<sup>+2</sup> + 2 H<sub>2</sub>O \u2192 MnO<sub>2</sub> + 4 H<sup>+</sup> + 2 e<sup>-</sup> <br> <hr>2 U<sup>+3</sup> + 3 Mn<sup>+2</sup> + 6 H<sub>2</sub>O \u2192 2 U + 3 MnO<sub>2</sub> + 12 H<sup>+</sup>"
    },
    {
        "question": "AgI + TiO \u2192 Ag + Ti<sub>2</sub>O<sub>3</sub> + HI (acid)",
        "answer": "&nbsp&nbsp&nbsp2x&nbsp&nbsp&nbsp&nbsp&nbsp&nbspAgI + e<sup>-</sup> \u2192 Ag + I<sup>-</sup><br> + 1x&nbsp&nbsp&nbsp&nbsp&nbsp&nbsp2 TiO + H<sub>2</sub>O \u2192 Ti<sub>2</sub>O<sub>3</sub> + 2 H<sup>+</sup> + 2 e<sup>-</sup> <br> <hr>2 AgI + 2 TiO + H<sub>2</sub>O \u2192 2 Ag + 2 I<sup>-</sup> + Ti<sub>2</sub>O<sub>3</sub> + 2 H<sup>+</sup><br>&nbsp&nbsp&nbsp or<br>2 AgI + 2 TiO + H<sub>2</sub>O \u2192 2 Ag + Ti<sub>2</sub>O<sub>3</sub> + 2 HI"
    },
    {
        "question": "I<sub>2</sub> + Mn<sup>+2</sup> \u2192 I<sup>-</sup> + MnO<sub>4</sub><sup>-</sup> (acid)",
        "answer": "&nbsp&nbsp&nbsp5x&nbsp&nbsp&nbsp&nbsp&nbsp&nbspI<sub>2</sub> + 2 e<sup>-</sup> \u2192 2 I<sup>-</sup><br> + 2x&nbsp&nbsp&nbsp&nbsp&nbsp&nbspMn<sup>+2</sup> + 4 H<sub>2</sub>O \u2192 MnO<sub>4</sub><sup>-</sup> + 8 H<sup>+</sup> + 5 e<sup>-</sup> <br> <hr>5 I<sub>2</sub> + 2 Mn<sup>+2</sup> + 8 H<sub>2</sub>O \u2192 10 I<sup>-</sup> + 2 MnO<sub>4</sub><sup>-</sup> + 16 H<sup>+</sup>"
    },
    {
        "question": "Pb<sup>+4</sup> + Mn<sup>+2</sup> \u2192 Pb<sup>+2</sup> + MnO<sub>4</sub><sup>-</sup> (acid)",
        "answer": "&nbsp&nbsp&nbsp5x&nbsp&nbsp&nbsp&nbsp&nbsp&nbspPb<sup>+4</sup> + 2 e<sup>-</sup> \u2192 Pb<sup>+2</sup><br> + 2x&nbsp&nbsp&nbsp&nbsp&nbsp&nbspMn<sup>+2</sup> + 4 H<sub>2</sub>O \u2192 MnO<sub>4</sub><sup>-</sup> + 8 H<sup>+</sup> + 5 e<sup>-</sup> <br> <hr>5 Pb<sup>+4</sup> + 2 Mn<sup>+2</sup> + 8 H<sub>2</sub>O \u2192 5 Pb<sup>+2</sup> + 2 MnO<sub>4</sub><sup>-</sup> + 16 H<sup>+</sup>"
    },
    {
        "question": "Li<sup>+</sup> + P \u2192 Li + H<sub>3</sub>PO<sub>3</sub> (acid)",
        "answer": "&nbsp&nbsp&nbsp3x&nbsp&nbsp&nbsp&nbsp&nbsp&nbspLi<sup>+</sup> + e<sup>-</sup> \u2192 Li<br> + 1x&nbsp&nbsp&nbsp&nbsp&nbsp&nbspP + 3 H<sub>2</sub>O \u2192 H<sub>3</sub>PO<sub>3</sub> + 3 H<sup>+</sup> + 3 e<sup>-</sup> <br> <hr>3 Li<sup>+</sup> + P + 3 H<sub>2</sub>O \u2192 3 Li + H<sub>3</sub>PO<sub>3</sub> + 3 H<sup>+</sup>"
    },
    {
        "question": "Ag<sup>+2</sup> + W \u2192 Ag + WO<sub>2</sub> (acid)",
        "answer": "&nbsp&nbsp&nbsp2x&nbsp&nbsp&nbsp&nbsp&nbsp&nbspAg<sup>+2</sup> + 2 e<sup>-</sup> \u2192 Ag<br> + 1x&nbsp&nbsp&nbsp&nbsp&nbsp&nbspW + 2 H<sub>2</sub>O \u2192 WO<sub>2</sub> + 4 H<sup>+</sup> + 4 e<sup>-</sup> <br> <hr>2 Ag<sup>+2</sup> + W + 2 H<sub>2</sub>O \u2192 2 Ag + WO<sub>2</sub> + 4 H<sup>+</sup>"
    },
    {
        "question": "CdH<sub>2</sub>Mn<sub>2</sub>O<sub>8</sub> \u2192 Cd + HMnO<sub>4</sub> (acid)",
        "answer": "&nbsp&nbsp&nbsp1x&nbsp&nbsp&nbsp&nbsp&nbsp&nbspCd<sup>+2</sup> + 2 e<sup>-</sup> \u2192 Cd<br> + 2x&nbsp&nbsp&nbsp&nbsp&nbsp&nbspHMnO<sub>4</sub><sup>-</sup> \u2192 MnO<sub>4</sub><sup>-</sup> + H<sup>+</sup> + e<sup>-</sup> <br> <hr>Cd<sup>+2</sup> + 2 HMnO<sub>4</sub><sup>-</sup> \u2192 Cd + 2 MnO<sub>4</sub><sup>-</sup> + 2 H<sup>+</sup><br>&nbsp&nbsp&nbsp or<br>CdH<sub>2</sub>Mn<sub>2</sub>O<sub>8</sub> \u2192 Cd + 2 HMnO<sub>4</sub>"
    },
    {
        "question": "Fe<sup>+3</sup> + S<sub>2</sub>O<sub>6</sub><sup>-2</sup> \u2192 Fe<sup>+2</sup> + SO<sub>4</sub><sup>-2</sup> (acid)",
        "answer": "&nbsp&nbsp&nbsp2x&nbsp&nbsp&nbsp&nbsp&nbsp&nbspFe<sup>+3</sup> + e<sup>-</sup> \u2192 Fe<sup>+2</sup><br> + 1x&nbsp&nbsp&nbsp&nbsp&nbsp&nbsp2 H<sub>2</sub>O + S<sub>2</sub>O<sub>6</sub><sup>-2</sup> \u2192 2 SO<sub>4</sub><sup>-2</sup> + 4 H<sup>+</sup> + 2 e<sup>-</sup> <br> <hr>2 Fe<sup>+3</sup> + 2 H<sub>2</sub>O + S<sub>2</sub>O<sub>6</sub><sup>-2</sup> \u2192 2 Fe<sup>+2</sup> + 2 SO<sub>4</sub><sup>-2</sup> + 4 H<sup>+</sup>"
    },
    {
        "question": "Pb<sup>+2</sup> + Ag \u2192 Pb + Ag<sub>2</sub>O<sub>3</sub> (acid)",
        "answer": "&nbsp&nbsp&nbsp3x&nbsp&nbsp&nbsp&nbsp&nbsp&nbspPb<sup>+2</sup> + 2 e<sup>-</sup> \u2192 Pb<br> + 1x&nbsp&nbsp&nbsp&nbsp&nbsp&nbsp2 Ag + 3 H<sub>2</sub>O \u2192 Ag<sub>2</sub>O<sub>3</sub> + 6 H<sup>+</sup> + 6 e<sup>-</sup> <br> <hr>3 Pb<sup>+2</sup> + 2 Ag + 3 H<sub>2</sub>O \u2192 3 Pb + Ag<sub>2</sub>O<sub>3</sub> + 6 H<sup>+</sup>"
    },
    {
        "question": "Ni<sup>+2</sup> + Mn<sup>+2</sup> \u2192 Ni + MnO<sub>4</sub><sup>-</sup> (acid)",
        "answer": "&nbsp&nbsp&nbsp5x&nbsp&nbsp&nbsp&nbsp&nbsp&nbspNi<sup>+2</sup> + 2 e<sup>-</sup> \u2192 Ni<br> + 2x&nbsp&nbsp&nbsp&nbsp&nbsp&nbspMn<sup>+2</sup> + 4 H<sub>2</sub>O \u2192 MnO<sub>4</sub><sup>-</sup> + 8 H<sup>+</sup> + 5 e<sup>-</sup> <br> <hr>5 Ni<sup>+2</sup> + 2 Mn<sup>+2</sup> + 8 H<sub>2</sub>O \u2192 5 Ni + 2 MnO<sub>4</sub><sup>-</sup> + 16 H<sup>+</sup>"
    },
    {
        "question": "U<sup>+3</sup> + Cr<sup>+3</sup> \u2192 U + Cr<sub>2</sub>O<sub>7</sub><sup>-2</sup> (acid)",
        "answer": "&nbsp&nbsp&nbsp2x&nbsp&nbsp&nbsp&nbsp&nbsp&nbspU<sup>+3</sup> + 3 e<sup>-</sup> \u2192 U<br> + 1x&nbsp&nbsp&nbsp&nbsp&nbsp&nbsp2 Cr<sup>+3</sup> + 7 H<sub>2</sub>O \u2192 Cr<sub>2</sub>O<sub>7</sub><sup>-2</sup> + 14 H<sup>+</sup> + 6 e<sup>-</sup> <br> <hr>2 U<sup>+3</sup> + 2 Cr<sup>+3</sup> + 7 H<sub>2</sub>O \u2192 2 U + Cr<sub>2</sub>O<sub>7</sub><sup>-2</sup> + 14 H<sup>+</sup>"
    },
    {
        "question": "Cl<sub>2</sub> + P \u2192 H<sub>3</sub>PO<sub>2</sub> + HCl (acid)",
        "answer": "&nbsp&nbsp&nbsp1x&nbsp&nbsp&nbsp&nbsp&nbsp&nbspCl<sub>2</sub> + 2 e<sup>-</sup> \u2192 2 Cl<sup>-</sup><br> + 2x&nbsp&nbsp&nbsp&nbsp&nbsp&nbspP + 2 H<sub>2</sub>O \u2192 H<sub>3</sub>PO<sub>2</sub> + H<sup>+</sup> + e<sup>-</sup> <br> <hr>Cl<sub>2</sub> + 2 P + 4 H<sub>2</sub>O \u2192 2 Cl<sup>-</sup> + 2 H<sub>3</sub>PO<sub>2</sub> + 2 H<sup>+</sup><br>&nbsp&nbsp&nbsp or<br>Cl<sub>2</sub> + 2 P + 4 H<sub>2</sub>O \u2192 2 H<sub>3</sub>PO<sub>2</sub> + 2 HCl"
    },
    {
        "question": "NiS<sub>2</sub>O<sub>6</sub> \u2192 Ni + H<sub>2</sub>SO<sub>4</sub> (acid)",
        "answer": "&nbsp&nbsp&nbsp1x&nbsp&nbsp&nbsp&nbsp&nbsp&nbspNi<sup>+2</sup> + 2 e<sup>-</sup> \u2192 Ni<br> + 1x&nbsp&nbsp&nbsp&nbsp&nbsp&nbsp2 H<sub>2</sub>O + S<sub>2</sub>O<sub>6</sub><sup>-2</sup> \u2192 2 SO<sub>4</sub><sup>-2</sup> + 4 H<sup>+</sup> + 2 e<sup>-</sup> <br> <hr>Ni<sup>+2</sup> + 2 H<sub>2</sub>O + S<sub>2</sub>O<sub>6</sub><sup>-2</sup> \u2192 Ni + 2 SO<sub>4</sub><sup>-2</sup> + 4 H<sup>+</sup><br>&nbsp&nbsp&nbsp or<br>H<sub>2</sub>O + 2 NiS<sub>2</sub>O<sub>6</sub> \u2192 Ni + 2 H<sub>2</sub>SO<sub>4</sub>"
    },
    {
        "question": "S<sub>4</sub>O<sub>6</sub><sup>-2</sup> + Sn \u2192 S<sub>2</sub>O<sub>3</sub><sup>-2</sup> + SnO (acid)",
        "answer": "&nbsp&nbsp&nbsp1x&nbsp&nbsp&nbsp&nbsp&nbsp&nbspS<sub>4</sub>O<sub>6</sub><sup>-2</sup> + 2 e<sup>-</sup> \u2192 2 S<sub>2</sub>O<sub>3</sub><sup>-2</sup><br> + 1x&nbsp&nbsp&nbsp&nbsp&nbsp&nbspSn + H<sub>2</sub>O \u2192 SnO + 2 H<sup>+</sup> + 2 e<sup>-</sup> <br> <hr>S<sub>4</sub>O<sub>6</sub><sup>-2</sup> + Sn + H<sub>2</sub>O \u2192 2 S<sub>2</sub>O<sub>3</sub><sup>-2</sup> + SnO + 2 H<sup>+</sup>"
    },
    {
        "question": "PbSO<sub>4</sub> + H<sub>2</sub>O<sub>2</sub> \u2192 Pb + O<sub>2</sub> + H<sub>2</sub>SO<sub>4</sub> (acid)",
        "answer": "&nbsp&nbsp&nbsp1x&nbsp&nbsp&nbsp&nbsp&nbsp&nbspPbSO<sub>4</sub> + 2 e<sup>-</sup> \u2192 Pb + SO<sub>4</sub><sup>-2</sup><br> + 1x&nbsp&nbsp&nbsp&nbsp&nbsp&nbspH<sub>2</sub>O<sub>2</sub> \u2192 O<sub>2</sub> + 2 H<sup>+</sup> + 2 e<sup>-</sup> <br> <hr>PbSO<sub>4</sub> + H<sub>2</sub>O<sub>2</sub> \u2192 Pb + SO<sub>4</sub><sup>-2</sup> + O<sub>2</sub> + 2 H<sup>+</sup><br>&nbsp&nbsp&nbsp or<br>PbSO<sub>4</sub> + H<sub>2</sub>O<sub>2</sub> \u2192 Pb + O<sub>2</sub> + H<sub>2</sub>SO<sub>4</sub>"
    },
    {
        "question": "Cl<sub>2</sub> + VO(OH)<sup>+</sup> \u2192 Cl<sup>-</sup> + H<sub>2</sub>V<sub>10</sub>O<sub>28</sub><sup>-4</sup> (acid)",
        "answer": "&nbsp&nbsp&nbsp5x&nbsp&nbsp&nbsp&nbsp&nbsp&nbspCl<sub>2</sub> + 2 e<sup>-</sup> \u2192 2 Cl<sup>-</sup><br> + 1x&nbsp&nbsp&nbsp&nbsp&nbsp&nbsp10 VO(OH)<sup>+</sup> + 8 H<sub>2</sub>O \u2192 H<sub>2</sub>V<sub>10</sub>O<sub>28</sub><sup>-4</sup> + 24 H<sup>+</sup> + 10 e<sup>-</sup> <br> <hr>5 Cl<sub>2</sub> + 10 VO(OH)<sup>+</sup> + 8 H<sub>2</sub>O \u2192 10 Cl<sup>-</sup> + H<sub>2</sub>V<sub>10</sub>O<sub>28</sub><sup>-4</sup> + 24 H<sup>+</sup>"
    },
    {
        "question": "V<sup>+3</sup> + S \u2192 V<sup>+2</sup> + S<sub>2</sub>O<sub>3</sub><sup>-2</sup> (acid)",
        "answer": "&nbsp&nbsp&nbsp4x&nbsp&nbsp&nbsp&nbsp&nbsp&nbspV<sup>+3</sup> + e<sup>-</sup> \u2192 V<sup>+2</sup><br> + 1x&nbsp&nbsp&nbsp&nbsp&nbsp&nbsp2 S + 3 H<sub>2</sub>O \u2192 S<sub>2</sub>O<sub>3</sub><sup>-2</sup> + 6 H<sup>+</sup> + 4 e<sup>-</sup> <br> <hr>4 V<sup>+3</sup> + 2 S + 3 H<sub>2</sub>O \u2192 4 V<sup>+2</sup> + S<sub>2</sub>O<sub>3</sub><sup>-2</sup> + 6 H<sup>+</sup>"
    },
    {
        "question": "Cr<sup>+3</sup> + U<sup>+4</sup> \u2192 Cr<sup>+2</sup> + UO<sub>2</sub><sup>+</sup> (acid)",
        "answer": "&nbsp&nbsp&nbsp1x&nbsp&nbsp&nbsp&nbsp&nbsp&nbspCr<sup>+3</sup> + e<sup>-</sup> \u2192 Cr<sup>+2</sup><br> + 1x&nbsp&nbsp&nbsp&nbsp&nbsp&nbspU<sup>+4</sup> + 2 H<sub>2</sub>O \u2192 UO<sub>2</sub><sup>+</sup> + 4 H<sup>+</sup> + e<sup>-</sup> <br> <hr>Cr<sup>+3</sup> + U<sup>+4</sup> + 2 H<sub>2</sub>O \u2192 Cr<sup>+2</sup> + UO<sub>2</sub><sup>+</sup> + 4 H<sup>+</sup>"
    },
    {
        "question": "Li<sup>+</sup> + VO(OH)<sup>+</sup> \u2192 Li + H<sub>2</sub>V<sub>10</sub>O<sub>28</sub><sup>-4</sup> (acid)",
        "answer": "&nbsp&nbsp&nbsp10x&nbsp&nbsp&nbsp&nbsp&nbsp&nbspLi<sup>+</sup> + e<sup>-</sup> \u2192 Li<br> + 1x&nbsp&nbsp&nbsp&nbsp&nbsp&nbsp10 VO(OH)<sup>+</sup> + 8 H<sub>2</sub>O \u2192 H<sub>2</sub>V<sub>10</sub>O<sub>28</sub><sup>-4</sup> + 24 H<sup>+</sup> + 10 e<sup>-</sup> <br> <hr>10 Li<sup>+</sup> + 10 VO(OH)<sup>+</sup> + 8 H<sub>2</sub>O \u2192 10 Li + H<sub>2</sub>V<sub>10</sub>O<sub>28</sub><sup>-4</sup> + 24 H<sup>+</sup>"
    },
    {
        "question": "Ti<sup>+3</sup> + MoO<sub>2</sub> \u2192 Ti<sup>+2</sup> + H<sub>2</sub>MoO<sub>4</sub> (acid)",
        "answer": "&nbsp&nbsp&nbsp2x&nbsp&nbsp&nbsp&nbsp&nbsp&nbspTi<sup>+3</sup> + e<sup>-</sup> \u2192 Ti<sup>+2</sup><br> + 1x&nbsp&nbsp&nbsp&nbsp&nbsp&nbspMoO<sub>2</sub> + 2 H<sub>2</sub>O \u2192 H<sub>2</sub>MoO<sub>4</sub> + 2 H<sup>+</sup> + 2 e<sup>-</sup> <br> <hr>2 Ti<sup>+3</sup> + MoO<sub>2</sub> + 2 H<sub>2</sub>O \u2192 2 Ti<sup>+2</sup> + H<sub>2</sub>MoO<sub>4</sub> + 2 H<sup>+</sup>"
    },
    {
        "question": "F<sub>2</sub> + SnH<sub>4</sub> \u2192 Sn + HF (acid)",
        "answer": "&nbsp&nbsp&nbsp2x&nbsp&nbsp&nbsp&nbsp&nbsp&nbspF<sub>2</sub> + 2 e<sup>-</sup> \u2192 2 F<sup>-</sup><br> + 1x&nbsp&nbsp&nbsp&nbsp&nbsp&nbspSnH<sub>4</sub> \u2192 Sn + 4 H<sup>+</sup> + 4 e<sup>-</sup> <br> <hr>2 F<sub>2</sub> + SnH<sub>4</sub> \u2192 4 F<sup>-</sup> + Sn + 4 H<sup>+</sup><br>&nbsp&nbsp&nbsp or<br>2 F<sub>2</sub> + SnH<sub>4</sub> \u2192 Sn + 4 HF"
    },
    {
        "question": "Ti<sup>+3</sup> + S \u2192 Ti<sup>+2</sup> + H<sub>2</sub>SO<sub>3</sub> (acid)",
        "answer": "&nbsp&nbsp&nbsp4x&nbsp&nbsp&nbsp&nbsp&nbsp&nbspTi<sup>+3</sup> + e<sup>-</sup> \u2192 Ti<sup>+2</sup><br> + 1x&nbsp&nbsp&nbsp&nbsp&nbsp&nbspS + 3 H<sub>2</sub>O \u2192 H<sub>2</sub>SO<sub>3</sub> + 4 H<sup>+</sup> + 4 e<sup>-</sup> <br> <hr>4 Ti<sup>+3</sup> + S + 3 H<sub>2</sub>O \u2192 4 Ti<sup>+2</sup> + H<sub>2</sub>SO<sub>3</sub> + 4 H<sup>+</sup>"
    },
    {
        "question": "Cl<sub>2</sub> \u2192 H<sub>2</sub>O<sub>2</sub> + HCl (acid)",
        "answer": "&nbsp&nbsp&nbsp1x&nbsp&nbsp&nbsp&nbsp&nbsp&nbspCl<sub>2</sub> + 2 e<sup>-</sup> \u2192 2 Cl<sup>-</sup><br> + 1x&nbsp&nbsp&nbsp&nbsp&nbsp&nbsp2 H<sub>2</sub>O \u2192 H<sub>2</sub>O<sub>2</sub> + 2 H<sup>+</sup> + 2 e<sup>-</sup> <br> <hr>Cl<sub>2</sub> + 2 H<sub>2</sub>O \u2192 2 Cl<sup>-</sup> + H<sub>2</sub>O<sub>2</sub> + 2 H<sup>+</sup><br>&nbsp&nbsp&nbsp or<br>Cl<sub>2</sub> + 2 H<sub>2</sub>O \u2192 H<sub>2</sub>O<sub>2</sub> + 2 HCl"
    },
    {
        "question": "Sn<sup>+2</sup> + H<sub>2</sub> \u2192 Sn (acid)",
        "answer": "&nbsp&nbsp&nbsp1x&nbsp&nbsp&nbsp&nbsp&nbsp&nbspSn<sup>+2</sup> + 2 e<sup>-</sup> \u2192 Sn<br> + 1x&nbsp&nbsp&nbsp&nbsp&nbsp&nbspH<sub>2</sub> \u2192 2 H<sup>+</sup> + 2 e<sup>-</sup> <br> <hr>Sn<sup>+2</sup> + H<sub>2</sub> \u2192 Sn + 2 H<sup>+</sup>"
    },
    {
        "question": "PbSO<sub>4</sub> + V<sup>+2</sup> \u2192 Pb + SO<sub>4</sub><sup>-2</sup> + VOH<sup>+2</sup> (acid)",
        "answer": "&nbsp&nbsp&nbsp1x&nbsp&nbsp&nbsp&nbsp&nbsp&nbspPbSO<sub>4</sub> + 2 e<sup>-</sup> \u2192 Pb + SO<sub>4</sub><sup>-2</sup><br> + 2x&nbsp&nbsp&nbsp&nbsp&nbsp&nbspV<sup>+2</sup> + H<sub>2</sub>O \u2192 VOH<sup>+2</sup> + H<sup>+</sup> + e<sup>-</sup> <br> <hr>PbSO<sub>4</sub> + 2 V<sup>+2</sup> + 2 H<sub>2</sub>O \u2192 Pb + SO<sub>4</sub><sup>-2</sup> + 2 VOH<sup>+2</sup> + 2 H<sup>+</sup>"
    },
    {
        "question": "I<sub>2</sub> + V<sup>+2</sup> \u2192 I<sup>-</sup> + VOH<sup>+2</sup> (acid)",
        "answer": "&nbsp&nbsp&nbsp1x&nbsp&nbsp&nbsp&nbsp&nbsp&nbspI<sub>2</sub> + 2 e<sup>-</sup> \u2192 2 I<sup>-</sup><br> + 2x&nbsp&nbsp&nbsp&nbsp&nbsp&nbspV<sup>+2</sup> + H<sub>2</sub>O \u2192 VOH<sup>+2</sup> + H<sup>+</sup> + e<sup>-</sup> <br> <hr>I<sub>2</sub> + 2 V<sup>+2</sup> + 2 H<sub>2</sub>O \u2192 2 I<sup>-</sup> + 2 VOH<sup>+2</sup> + 2 H<sup>+</sup>"
    },
    {
        "question": "S<sub>4</sub>O<sub>6</sub><sup>-2</sup> + O<sub>2</sub> \u2192 S<sub>2</sub>O<sub>3</sub><sup>-2</sup> + O<sub>3</sub> (acid)",
        "answer": "&nbsp&nbsp&nbsp1x&nbsp&nbsp&nbsp&nbsp&nbsp&nbspS<sub>4</sub>O<sub>6</sub><sup>-2</sup> + 2 e<sup>-</sup> \u2192 2 S<sub>2</sub>O<sub>3</sub><sup>-2</sup><br> + 1x&nbsp&nbsp&nbsp&nbsp&nbsp&nbspO<sub>2</sub> + H<sub>2</sub>O \u2192 O<sub>3</sub> + 2 H<sup>+</sup> + 2 e<sup>-</sup> <br> <hr>S<sub>4</sub>O<sub>6</sub><sup>-2</sup> + O<sub>2</sub> + H<sub>2</sub>O \u2192 2 S<sub>2</sub>O<sub>3</sub><sup>-2</sup> + O<sub>3</sub> + 2 H<sup>+</sup>"
    },
    {
        "question": "Pb<sup>+2</sup> + MnO<sub>2</sub> \u2192 Pb + HMnO<sub>4</sub><sup>-</sup> (acid)",
        "answer": "&nbsp&nbsp&nbsp1x&nbsp&nbsp&nbsp&nbsp&nbsp&nbspPb<sup>+2</sup> + 2 e<sup>-</sup> \u2192 Pb<br> + 1x&nbsp&nbsp&nbsp&nbsp&nbsp&nbspMnO<sub>2</sub> + 2 H<sub>2</sub>O \u2192 HMnO<sub>4</sub><sup>-</sup> + 3 H<sup>+</sup> + 2 e<sup>-</sup> <br> <hr>Pb<sup>+2</sup> + MnO<sub>2</sub> + 2 H<sub>2</sub>O \u2192 Pb + HMnO<sub>4</sub><sup>-</sup> + 3 H<sup>+</sup>"
    },
    {
        "question": "AgCl + W \u2192 Ag + WO<sub>2</sub> + HCl (acid)",
        "answer": "&nbsp&nbsp&nbsp4x&nbsp&nbsp&nbsp&nbsp&nbsp&nbspAgCl + e<sup>-</sup> \u2192 Ag + Cl<sup>-</sup><br> + 1x&nbsp&nbsp&nbsp&nbsp&nbsp&nbspW + 2 H<sub>2</sub>O \u2192 WO<sub>2</sub> + 4 H<sup>+</sup> + 4 e<sup>-</sup> <br> <hr>4 AgCl + W + 2 H<sub>2</sub>O \u2192 4 Ag + 4 Cl<sup>-</sup> + WO<sub>2</sub> + 4 H<sup>+</sup><br>&nbsp&nbsp&nbsp or<br>4 AgCl + W + 2 H<sub>2</sub>O \u2192 4 Ag + WO<sub>2</sub> + 4 HCl"
    },
    {
        "question": "F<sub>2</sub> + V<sup>+3</sup> \u2192 F<sup>-</sup> + VO<sup>+2</sup> (acid)",
        "answer": "&nbsp&nbsp&nbsp1x&nbsp&nbsp&nbsp&nbsp&nbsp&nbspF<sub>2</sub> + 2 e<sup>-</sup> \u2192 2 F<sup>-</sup><br> + 2x&nbsp&nbsp&nbsp&nbsp&nbsp&nbspV<sup>+3</sup> + H<sub>2</sub>O \u2192 VO<sup>+2</sup> + 2 H<sup>+</sup> + e<sup>-</sup> <br> <hr>F<sub>2</sub> + 2 V<sup>+3</sup> + 2 H<sub>2</sub>O \u2192 2 F<sup>-</sup> + 2 VO<sup>+2</sup> + 4 H<sup>+</sup>"
    },
    {
        "question": "Be<sup>+2</sup> + VO<sup>+2</sup> \u2192 Be + VO<sub>2</sub><sup>+</sup> (acid)",
        "answer": "&nbsp&nbsp&nbsp1x&nbsp&nbsp&nbsp&nbsp&nbsp&nbspBe<sup>+2</sup> + 2 e<sup>-</sup> \u2192 Be<br> + 2x&nbsp&nbsp&nbsp&nbsp&nbsp&nbspVO<sup>+2</sup> + H<sub>2</sub>O \u2192 VO<sub>2</sub><sup>+</sup> + 2 H<sup>+</sup> + e<sup>-</sup> <br> <hr>Be<sup>+2</sup> + 2 VO<sup>+2</sup> + 2 H<sub>2</sub>O \u2192 Be + 2 VO<sub>2</sub><sup>+</sup> + 4 H<sup>+</sup>"
    },
    {
        "question": "Li<sup>+</sup> + Ti<sup>+3</sup> \u2192 Li + TiO<sup>+2</sup> (acid)",
        "answer": "&nbsp&nbsp&nbsp1x&nbsp&nbsp&nbsp&nbsp&nbsp&nbspLi<sup>+</sup> + e<sup>-</sup> \u2192 Li<br> + 1x&nbsp&nbsp&nbsp&nbsp&nbsp&nbspTi<sup>+3</sup> + H<sub>2</sub>O \u2192 TiO<sup>+2</sup> + 2 H<sup>+</sup> + e<sup>-</sup> <br> <hr>Li<sup>+</sup> + Ti<sup>+3</sup> + H<sub>2</sub>O \u2192 Li + TiO<sup>+2</sup> + 2 H<sup>+</sup>"
    },
    {
        "question": "Cu<sup>+2</sup> + H<sub>3</sub>PO<sub>2</sub> \u2192 Cu<sup>+</sup> + H<sub>3</sub>PO<sub>3</sub> (acid)",
        "answer": "&nbsp&nbsp&nbsp2x&nbsp&nbsp&nbsp&nbsp&nbsp&nbspCu<sup>+2</sup> + e<sup>-</sup> \u2192 Cu<sup>+</sup><br> + 1x&nbsp&nbsp&nbsp&nbsp&nbsp&nbspH<sub>3</sub>PO<sub>2</sub> + H<sub>2</sub>O \u2192 H<sub>3</sub>PO<sub>3</sub> + 2 H<sup>+</sup> + 2 e<sup>-</sup> <br> <hr>2 Cu<sup>+2</sup> + H<sub>3</sub>PO<sub>2</sub> + H<sub>2</sub>O \u2192 2 Cu<sup>+</sup> + H<sub>3</sub>PO<sub>3</sub> + 2 H<sup>+</sup>"
    },
    {
        "question": "Cu<sup>+2</sup> + H<sub>2</sub> \u2192 Cu (acid)",
        "answer": "&nbsp&nbsp&nbsp1x&nbsp&nbsp&nbsp&nbsp&nbsp&nbspCu<sup>+2</sup> + 2 e<sup>-</sup> \u2192 Cu<br> + 1x&nbsp&nbsp&nbsp&nbsp&nbsp&nbspH<sub>2</sub> \u2192 2 H<sup>+</sup> + 2 e<sup>-</sup> <br> <hr>Cu<sup>+2</sup> + H<sub>2</sub> \u2192 Cu + 2 H<sup>+</sup>"
    },
    {
        "question": "Ag<sup>+</sup> + P \u2192 Ag + H<sub>3</sub>PO<sub>3</sub> (acid)",
        "answer": "&nbsp&nbsp&nbsp3x&nbsp&nbsp&nbsp&nbsp&nbsp&nbspAg<sup>+</sup> + e<sup>-</sup> \u2192 Ag<br> + 1x&nbsp&nbsp&nbsp&nbsp&nbsp&nbspP + 3 H<sub>2</sub>O \u2192 H<sub>3</sub>PO<sub>3</sub> + 3 H<sup>+</sup> + 3 e<sup>-</sup> <br> <hr>3 Ag<sup>+</sup> + P + 3 H<sub>2</sub>O \u2192 3 Ag + H<sub>3</sub>PO<sub>3</sub> + 3 H<sup>+</sup>"
    },
    {
        "question": "V<sup>+2</sup> + P \u2192 V + H<sub>3</sub>PO<sub>3</sub> (acid)",
        "answer": "&nbsp&nbsp&nbsp3x&nbsp&nbsp&nbsp&nbsp&nbsp&nbspV<sup>+2</sup> + 2 e<sup>-</sup> \u2192 V<br> + 2x&nbsp&nbsp&nbsp&nbsp&nbsp&nbspP + 3 H<sub>2</sub>O \u2192 H<sub>3</sub>PO<sub>3</sub> + 3 H<sup>+</sup> + 3 e<sup>-</sup> <br> <hr>3 V<sup>+2</sup> + 2 P + 6 H<sub>2</sub>O \u2192 3 V + 2 H<sub>3</sub>PO<sub>3</sub> + 6 H<sup>+</sup>"
    },
    {
        "question": "Pb<sup>+2</sup> + MnO<sub>2</sub> \u2192 Pb + HMnO<sub>4</sub><sup>-</sup> (acid)",
        "answer": "&nbsp&nbsp&nbsp1x&nbsp&nbsp&nbsp&nbsp&nbsp&nbspPb<sup>+2</sup> + 2 e<sup>-</sup> \u2192 Pb<br> + 1x&nbsp&nbsp&nbsp&nbsp&nbsp&nbspMnO<sub>2</sub> + 2 H<sub>2</sub>O \u2192 HMnO<sub>4</sub><sup>-</sup> + 3 H<sup>+</sup> + 2 e<sup>-</sup> <br> <hr>Pb<sup>+2</sup> + MnO<sub>2</sub> + 2 H<sub>2</sub>O \u2192 Pb + HMnO<sub>4</sub><sup>-</sup> + 3 H<sup>+</sup>"
    },
    {
        "question": "Ti<sup>+3</sup> + V<sup>+2</sup> \u2192 Ti<sup>+2</sup> + VOH<sup>+2</sup> (acid)",
        "answer": "&nbsp&nbsp&nbsp1x&nbsp&nbsp&nbsp&nbsp&nbsp&nbspTi<sup>+3</sup> + e<sup>-</sup> \u2192 Ti<sup>+2</sup><br> + 1x&nbsp&nbsp&nbsp&nbsp&nbsp&nbspV<sup>+2</sup> + H<sub>2</sub>O \u2192 VOH<sup>+2</sup> + H<sup>+</sup> + e<sup>-</sup> <br> <hr>Ti<sup>+3</sup> + V<sup>+2</sup> + H<sub>2</sub>O \u2192 Ti<sup>+2</sup> + VOH<sup>+2</sup> + H<sup>+</sup>"
    },
    {
        "question": "Mn<sup>+2</sup> + PH<sub>3</sub> \u2192 Mn + P (acid)",
        "answer": "&nbsp&nbsp&nbsp3x&nbsp&nbsp&nbsp&nbsp&nbsp&nbspMn<sup>+2</sup> + 2 e<sup>-</sup> \u2192 Mn<br> + 2x&nbsp&nbsp&nbsp&nbsp&nbsp&nbspPH<sub>3</sub> \u2192 P + 3 H<sup>+</sup> + 3 e<sup>-</sup> <br> <hr>3 Mn<sup>+2</sup> + 2 PH<sub>3</sub> \u2192 3 Mn + 2 P + 6 H<sup>+</sup>"
    },
    {
        "question": "I<sub>2</sub> + NH<sub>4</sub>(OH) \u2192 N<sub>2</sub> + HI (acid)",
        "answer": "&nbsp&nbsp&nbsp3x&nbsp&nbsp&nbsp&nbsp&nbsp&nbspI<sub>2</sub> + 2 e<sup>-</sup> \u2192 2 I<sup>-</sup><br> + 1x&nbsp&nbsp&nbsp&nbsp&nbsp&nbsp2 NH<sub>4</sub>(OH) \u2192 N<sub>2</sub> + 2 H<sub>2</sub>O + 6 H<sup>+</sup> + 6 e<sup>-</sup> <br> <hr>3 I<sub>2</sub> + 2 NH<sub>4</sub>(OH) \u2192 6 I<sup>-</sup> + N<sub>2</sub> + 2 H<sub>2</sub>O + 6 H<sup>+</sup><br>&nbsp&nbsp&nbsp or<br>3 I<sub>2</sub> + 2 NH<sub>4</sub>(OH) \u2192 N<sub>2</sub> + 2 H<sub>2</sub>O + 6 HI"
    },
    {
        "question": "Mn<sup>+2</sup> + V<sup>+3</sup> \u2192 Mn + VO<sup>+2</sup> (acid)",
        "answer": "&nbsp&nbsp&nbsp1x&nbsp&nbsp&nbsp&nbsp&nbsp&nbspMn<sup>+2</sup> + 2 e<sup>-</sup> \u2192 Mn<br> + 2x&nbsp&nbsp&nbsp&nbsp&nbsp&nbspV<sup>+3</sup> + H<sub>2</sub>O \u2192 VO<sup>+2</sup> + 2 H<sup>+</sup> + e<sup>-</sup> <br> <hr>Mn<sup>+2</sup> + 2 V<sup>+3</sup> + 2 H<sub>2</sub>O \u2192 Mn + 2 VO<sup>+2</sup> + 4 H<sup>+</sup>"
    },
    {
        "question": "PbSO<sub>4</sub> + V<sup>+3</sup> \u2192 Pb + SO<sub>4</sub><sup>-2</sup> + VO<sup>+2</sup> (acid)",
        "answer": "&nbsp&nbsp&nbsp1x&nbsp&nbsp&nbsp&nbsp&nbsp&nbspPbSO<sub>4</sub> + 2 e<sup>-</sup> \u2192 Pb + SO<sub>4</sub><sup>-2</sup><br> + 2x&nbsp&nbsp&nbsp&nbsp&nbsp&nbspV<sup>+3</sup> + H<sub>2</sub>O \u2192 VO<sup>+2</sup> + 2 H<sup>+</sup> + e<sup>-</sup> <br> <hr>PbSO<sub>4</sub> + 2 V<sup>+3</sup> + 2 H<sub>2</sub>O \u2192 Pb + SO<sub>4</sub><sup>-2</sup> + 2 VO<sup>+2</sup> + 4 H<sup>+</sup>"
    },
    {
        "question": "AgI + SnH<sub>4</sub> \u2192 Ag + Sn + HI (acid)",
        "answer": "&nbsp&nbsp&nbsp4x&nbsp&nbsp&nbsp&nbsp&nbsp&nbspAgI + e<sup>-</sup> \u2192 Ag + I<sup>-</sup><br> + 1x&nbsp&nbsp&nbsp&nbsp&nbsp&nbspSnH<sub>4</sub> \u2192 Sn + 4 H<sup>+</sup> + 4 e<sup>-</sup> <br> <hr>4 AgI + SnH<sub>4</sub> \u2192 4 Ag + 4 I<sup>-</sup> + Sn + 4 H<sup>+</sup><br>&nbsp&nbsp&nbsp or<br>4 AgI + SnH<sub>4</sub> \u2192 4 Ag + Sn + 4 HI"
    },
    {
        "question": "Ag<sub>2</sub>S + Mn<sup>+3</sup> \u2192 Ag + S<sup>-2</sup> + MnO<sub>2</sub> (acid)",
        "answer": "&nbsp&nbsp&nbsp1x&nbsp&nbsp&nbsp&nbsp&nbsp&nbspAg<sub>2</sub>S + 2 e<sup>-</sup> \u2192 2 Ag + S<sup>-2</sup><br> + 2x&nbsp&nbsp&nbsp&nbsp&nbsp&nbspMn<sup>+3</sup> + 2 H<sub>2</sub>O \u2192 MnO<sub>2</sub> + 4 H<sup>+</sup> + e<sup>-</sup> <br> <hr>Ag<sub>2</sub>S + 2 Mn<sup>+3</sup> + 4 H<sub>2</sub>O \u2192 2 Ag + S<sup>-2</sup> + 2 MnO<sub>2</sub> + 8 H<sup>+</sup>"
    },
    {
        "question": "Tl<sup>+3</sup> \u2192 Tl<sup>+</sup> + O<sub>2</sub> (acid)",
        "answer": "&nbsp&nbsp&nbsp2x&nbsp&nbsp&nbsp&nbsp&nbsp&nbspTl<sup>+3</sup> + 2 e<sup>-</sup> \u2192 Tl<sup>+</sup><br> + 1x&nbsp&nbsp&nbsp&nbsp&nbsp&nbsp2 H<sub>2</sub>O \u2192 O<sub>2</sub> + 4 H<sup>+</sup> + 4 e<sup>-</sup> <br> <hr>2 Tl<sup>+3</sup> + 2 H<sub>2</sub>O \u2192 2 Tl<sup>+</sup> + O<sub>2</sub> + 4 H<sup>+</sup>"
    },
    {
        "question": "PbSO<sub>4</sub> + SnO \u2192 Pb + SnO<sub>2</sub> + H<sub>2</sub>SO<sub>4</sub> (acid)",
        "answer": "&nbsp&nbsp&nbsp1x&nbsp&nbsp&nbsp&nbsp&nbsp&nbspPbSO<sub>4</sub> + 2 e<sup>-</sup> \u2192 Pb + SO<sub>4</sub><sup>-2</sup><br> + 1x&nbsp&nbsp&nbsp&nbsp&nbsp&nbspSnO + H<sub>2</sub>O \u2192 SnO<sub>2</sub> + 2 H<sup>+</sup> + 2 e<sup>-</sup> <br> <hr>PbSO<sub>4</sub> + SnO + H<sub>2</sub>O \u2192 Pb + SO<sub>4</sub><sup>-2</sup> + SnO<sub>2</sub> + 2 H<sup>+</sup><br>&nbsp&nbsp&nbsp or<br>PbSO<sub>4</sub> + SnO + H<sub>2</sub>O \u2192 Pb + SnO<sub>2</sub> + H<sub>2</sub>SO<sub>4</sub>"
    },
    {
        "question": "PbSO<sub>4</sub> + H<sub>2</sub> \u2192 Pb + H<sub>2</sub>SO<sub>4</sub> (acid)",
        "answer": "&nbsp&nbsp&nbsp1x&nbsp&nbsp&nbsp&nbsp&nbsp&nbspPbSO<sub>4</sub> + 2 e<sup>-</sup> \u2192 Pb + SO<sub>4</sub><sup>-2</sup><br> + 1x&nbsp&nbsp&nbsp&nbsp&nbsp&nbspH<sub>2</sub> \u2192 2 H<sup>+</sup> + 2 e<sup>-</sup> <br> <hr>PbSO<sub>4</sub> + H<sub>2</sub> \u2192 Pb + SO<sub>4</sub><sup>-2</sup> + 2 H<sup>+</sup><br>&nbsp&nbsp&nbsp or<br>PbSO<sub>4</sub> + H<sub>2</sub> \u2192 Pb + H<sub>2</sub>SO<sub>4</sub>"
    },
    {
        "question": "U<sup>+4</sup> \u2192 U<sup>+3</sup> + H<sub>2</sub>O<sub>2</sub> (acid)",
        "answer": "&nbsp&nbsp&nbsp2x&nbsp&nbsp&nbsp&nbsp&nbsp&nbspU<sup>+4</sup> + e<sup>-</sup> \u2192 U<sup>+3</sup><br> + 1x&nbsp&nbsp&nbsp&nbsp&nbsp&nbsp2 H<sub>2</sub>O \u2192 H<sub>2</sub>O<sub>2</sub> + 2 H<sup>+</sup> + 2 e<sup>-</sup> <br> <hr>2 U<sup>+4</sup> + 2 H<sub>2</sub>O \u2192 2 U<sup>+3</sup> + H<sub>2</sub>O<sub>2</sub> + 2 H<sup>+</sup>"
    },
    {
        "question": "Ac<sup>+3</sup> + W \u2192 Ac + WO<sub>3</sub> (acid)",
        "answer": "&nbsp&nbsp&nbsp2x&nbsp&nbsp&nbsp&nbsp&nbsp&nbspAc<sup>+3</sup> + 3 e<sup>-</sup> \u2192 Ac<br> + 1x&nbsp&nbsp&nbsp&nbsp&nbsp&nbspW + 3 H<sub>2</sub>O \u2192 WO<sub>3</sub> + 6 H<sup>+</sup> + 6 e<sup>-</sup> <br> <hr>2 Ac<sup>+3</sup> + W + 3 H<sub>2</sub>O \u2192 2 Ac + WO<sub>3</sub> + 6 H<sup>+</sup>"
    },
    {
        "question": "U<sup>+4</sup> + VO(OH)<sup>+</sup> \u2192 U<sup>+3</sup> + H<sub>2</sub>V<sub>10</sub>O<sub>28</sub><sup>-4</sup> (acid)",
        "answer": "&nbsp&nbsp&nbsp10x&nbsp&nbsp&nbsp&nbsp&nbsp&nbspU<sup>+4</sup> + e<sup>-</sup> \u2192 U<sup>+3</sup><br> + 1x&nbsp&nbsp&nbsp&nbsp&nbsp&nbsp10 VO(OH)<sup>+</sup> + 8 H<sub>2</sub>O \u2192 H<sub>2</sub>V<sub>10</sub>O<sub>28</sub><sup>-4</sup> + 24 H<sup>+</sup> + 10 e<sup>-</sup> <br> <hr>10 U<sup>+4</sup> + 10 VO(OH)<sup>+</sup> + 8 H<sub>2</sub>O \u2192 10 U<sup>+3</sup> + H<sub>2</sub>V<sub>10</sub>O<sub>28</sub><sup>-4</sup> + 24 H<sup>+</sup>"
    },
    {
        "question": "Cr<sup>+2</sup> + Ti<sub>2</sub>O<sub>3</sub> \u2192 Cr + TiO<sub>2</sub> (acid)",
        "answer": "&nbsp&nbsp&nbsp1x&nbsp&nbsp&nbsp&nbsp&nbsp&nbspCr<sup>+2</sup> + 2 e<sup>-</sup> \u2192 Cr<br> + 1x&nbsp&nbsp&nbsp&nbsp&nbsp&nbspTi<sub>2</sub>O<sub>3</sub> + H<sub>2</sub>O \u2192 2 TiO<sub>2</sub> + 2 H<sup>+</sup> + 2 e<sup>-</sup> <br> <hr>Cr<sup>+2</sup> + Ti<sub>2</sub>O<sub>3</sub> + H<sub>2</sub>O \u2192 Cr + 2 TiO<sub>2</sub> + 2 H<sup>+</sup>"
    },
    {
        "question": "I<sub>2</sub> + O<sub>2</sub> \u2192 O<sub>3</sub> + HI (acid)",
        "answer": "&nbsp&nbsp&nbsp1x&nbsp&nbsp&nbsp&nbsp&nbsp&nbspI<sub>2</sub> + 2 e<sup>-</sup> \u2192 2 I<sup>-</sup><br> + 1x&nbsp&nbsp&nbsp&nbsp&nbsp&nbspO<sub>2</sub> + H<sub>2</sub>O \u2192 O<sub>3</sub> + 2 H<sup>+</sup> + 2 e<sup>-</sup> <br> <hr>I<sub>2</sub> + O<sub>2</sub> + H<sub>2</sub>O \u2192 2 I<sup>-</sup> + O<sub>3</sub> + 2 H<sup>+</sup><br>&nbsp&nbsp&nbsp or<br>I<sub>2</sub> + O<sub>2</sub> + H<sub>2</sub>O \u2192 O<sub>3</sub> + 2 HI"
    },
    {
        "question": "Ac<sup>+3</sup> + TiO \u2192 Ac + Ti<sub>2</sub>O<sub>3</sub> (acid)",
        "answer": "&nbsp&nbsp&nbsp2x&nbsp&nbsp&nbsp&nbsp&nbsp&nbspAc<sup>+3</sup> + 3 e<sup>-</sup> \u2192 Ac<br> + 3x&nbsp&nbsp&nbsp&nbsp&nbsp&nbsp2 TiO + H<sub>2</sub>O \u2192 Ti<sub>2</sub>O<sub>3</sub> + 2 H<sup>+</sup> + 2 e<sup>-</sup> <br> <hr>2 Ac<sup>+3</sup> + 6 TiO + 3 H<sub>2</sub>O \u2192 2 Ac + 3 Ti<sub>2</sub>O<sub>3</sub> + 6 H<sup>+</sup>"
    },
    {
        "question": "Ti<sup>+3</sup> + SO<sub>2</sub> \u2192 Ti<sup>+2</sup> + HSO<sub>4</sub><sup>-</sup> (acid)",
        "answer": "&nbsp&nbsp&nbsp2x&nbsp&nbsp&nbsp&nbsp&nbsp&nbspTi<sup>+3</sup> + e<sup>-</sup> \u2192 Ti<sup>+2</sup><br> + 1x&nbsp&nbsp&nbsp&nbsp&nbsp&nbspSO<sub>2</sub> + 2 H<sub>2</sub>O \u2192 HSO<sub>4</sub><sup>-</sup> + 3 H<sup>+</sup> + 2 e<sup>-</sup> <br> <hr>2 Ti<sup>+3</sup> + SO<sub>2</sub> + 2 H<sub>2</sub>O \u2192 2 Ti<sup>+2</sup> + HSO<sub>4</sub><sup>-</sup> + 3 H<sup>+</sup>"
    },
    {
        "question": "V<sup>+3</sup> + Mo<sup>+3</sup> \u2192 V<sup>+2</sup> + H<sub>2</sub>MoO<sub>4</sub> (acid)",
        "answer": "&nbsp&nbsp&nbsp3x&nbsp&nbsp&nbsp&nbsp&nbsp&nbspV<sup>+3</sup> + e<sup>-</sup> \u2192 V<sup>+2</sup><br> + 1x&nbsp&nbsp&nbsp&nbsp&nbsp&nbspMo<sup>+3</sup> + 4 H<sub>2</sub>O \u2192 H<sub>2</sub>MoO<sub>4</sub> + 6 H<sup>+</sup> + 3 e<sup>-</sup> <br> <hr>3 V<sup>+3</sup> + Mo<sup>+3</sup> + 4 H<sub>2</sub>O \u2192 3 V<sup>+2</sup> + H<sub>2</sub>MoO<sub>4</sub> + 6 H<sup>+</sup>"
    },
    {
        "question": "Sn<sup>+2</sup> + Mn<sup>+2</sup> \u2192 Sn + MnO<sub>2</sub> (acid)",
        "answer": "&nbsp&nbsp&nbsp1x&nbsp&nbsp&nbsp&nbsp&nbsp&nbspSn<sup>+2</sup> + 2 e<sup>-</sup> \u2192 Sn<br> + 1x&nbsp&nbsp&nbsp&nbsp&nbsp&nbspMn<sup>+2</sup> + 2 H<sub>2</sub>O \u2192 MnO<sub>2</sub> + 4 H<sup>+</sup> + 2 e<sup>-</sup> <br> <hr>Sn<sup>+2</sup> + Mn<sup>+2</sup> + 2 H<sub>2</sub>O \u2192 Sn + MnO<sub>2</sub> + 4 H<sup>+</sup>"
    },
    {
        "question": "Tl<sup>+3</sup> + U<sup>+4</sup> \u2192 Tl<sup>+</sup> + UO<sub>2</sub><sup>+</sup> (acid)",
        "answer": "&nbsp&nbsp&nbsp1x&nbsp&nbsp&nbsp&nbsp&nbsp&nbspTl<sup>+3</sup> + 2 e<sup>-</sup> \u2192 Tl<sup>+</sup><br> + 2x&nbsp&nbsp&nbsp&nbsp&nbsp&nbspU<sup>+4</sup> + 2 H<sub>2</sub>O \u2192 UO<sub>2</sub><sup>+</sup> + 4 H<sup>+</sup> + e<sup>-</sup> <br> <hr>Tl<sup>+3</sup> + 2 U<sup>+4</sup> + 4 H<sub>2</sub>O \u2192 Tl<sup>+</sup> + 2 UO<sub>2</sub><sup>+</sup> + 8 H<sup>+</sup>"
    },
    {
        "question": "Zn<sup>+2</sup> + H<sub>3</sub>PO<sub>2</sub> \u2192 Zn + H<sub>3</sub>PO<sub>3</sub> (acid)",
        "answer": "&nbsp&nbsp&nbsp1x&nbsp&nbsp&nbsp&nbsp&nbsp&nbspZn<sup>+2</sup> + 2 e<sup>-</sup> \u2192 Zn<br> + 1x&nbsp&nbsp&nbsp&nbsp&nbsp&nbspH<sub>3</sub>PO<sub>2</sub> + H<sub>2</sub>O \u2192 H<sub>3</sub>PO<sub>3</sub> + 2 H<sup>+</sup> + 2 e<sup>-</sup> <br> <hr>Zn<sup>+2</sup> + H<sub>3</sub>PO<sub>2</sub> + H<sub>2</sub>O \u2192 Zn + H<sub>3</sub>PO<sub>3</sub> + 2 H<sup>+</sup>"
    },
    {
        "question": "U<sup>+4</sup> + SnO \u2192 U<sup>+3</sup> + SnO<sub>2</sub> (acid)",
        "answer": "&nbsp&nbsp&nbsp2x&nbsp&nbsp&nbsp&nbsp&nbsp&nbspU<sup>+4</sup> + e<sup>-</sup> \u2192 U<sup>+3</sup><br> + 1x&nbsp&nbsp&nbsp&nbsp&nbsp&nbspSnO + H<sub>2</sub>O \u2192 SnO<sub>2</sub> + 2 H<sup>+</sup> + 2 e<sup>-</sup> <br> <hr>2 U<sup>+4</sup> + SnO + H<sub>2</sub>O \u2192 2 U<sup>+3</sup> + SnO<sub>2</sub> + 2 H<sup>+</sup>"
    },
    {
        "question": "Ag<sup>+</sup> + O<sub>2</sub> \u2192 Ag + O<sub>3</sub> (acid)",
        "answer": "&nbsp&nbsp&nbsp2x&nbsp&nbsp&nbsp&nbsp&nbsp&nbspAg<sup>+</sup> + e<sup>-</sup> \u2192 Ag<br> + 1x&nbsp&nbsp&nbsp&nbsp&nbsp&nbspO<sub>2</sub> + H<sub>2</sub>O \u2192 O<sub>3</sub> + 2 H<sup>+</sup> + 2 e<sup>-</sup> <br> <hr>2 Ag<sup>+</sup> + O<sub>2</sub> + H<sub>2</sub>O \u2192 2 Ag + O<sub>3</sub> + 2 H<sup>+</sup>"
    },
    {
        "question": "Ni<sup>+2</sup> + S \u2192 Ni + S<sub>2</sub>O<sub>3</sub><sup>-2</sup> (acid)",
        "answer": "&nbsp&nbsp&nbsp2x&nbsp&nbsp&nbsp&nbsp&nbsp&nbspNi<sup>+2</sup> + 2 e<sup>-</sup> \u2192 Ni<br> + 1x&nbsp&nbsp&nbsp&nbsp&nbsp&nbsp2 S + 3 H<sub>2</sub>O \u2192 S<sub>2</sub>O<sub>3</sub><sup>-2</sup> + 6 H<sup>+</sup> + 4 e<sup>-</sup> <br> <hr>2 Ni<sup>+2</sup> + 2 S + 3 H<sub>2</sub>O \u2192 2 Ni + S<sub>2</sub>O<sub>3</sub><sup>-2</sup> + 6 H<sup>+</sup>"
    },
    {
        "question": "Tl<sup>+</sup> + Pb<sup>+2</sup> \u2192 Tl + PbO<sub>2</sub> (acid)",
        "answer": "&nbsp&nbsp&nbsp2x&nbsp&nbsp&nbsp&nbsp&nbsp&nbspTl<sup>+</sup> + e<sup>-</sup> \u2192 Tl<br> + 1x&nbsp&nbsp&nbsp&nbsp&nbsp&nbspPb<sup>+2</sup> + 2 H<sub>2</sub>O \u2192 PbO<sub>2</sub> + 4 H<sup>+</sup> + 2 e<sup>-</sup> <br> <hr>2 Tl<sup>+</sup> + Pb<sup>+2</sup> + 2 H<sub>2</sub>O \u2192 2 Tl + PbO<sub>2</sub> + 4 H<sup>+</sup>"
    },
    {
        "question": "Ni<sup>+2</sup> + H<sub>2</sub>O<sub>2</sub> \u2192 Ni + O<sub>2</sub> (acid)",
        "answer": "&nbsp&nbsp&nbsp1x&nbsp&nbsp&nbsp&nbsp&nbsp&nbspNi<sup>+2</sup> + 2 e<sup>-</sup> \u2192 Ni<br> + 1x&nbsp&nbsp&nbsp&nbsp&nbsp&nbspH<sub>2</sub>O<sub>2</sub> \u2192 O<sub>2</sub> + 2 H<sup>+</sup> + 2 e<sup>-</sup> <br> <hr>Ni<sup>+2</sup> + H<sub>2</sub>O<sub>2</sub> \u2192 Ni + O<sub>2</sub> + 2 H<sup>+</sup>"
    },
    {
        "question": "Mn<sup>+2</sup> + SO<sub>2</sub> \u2192 Mn + SO<sub>4</sub><sup>-2</sup> (acid)",
        "answer": "&nbsp&nbsp&nbsp1x&nbsp&nbsp&nbsp&nbsp&nbsp&nbspMn<sup>+2</sup> + 2 e<sup>-</sup> \u2192 Mn<br> + 1x&nbsp&nbsp&nbsp&nbsp&nbsp&nbspSO<sub>2</sub> + 2 H<sub>2</sub>O \u2192 SO<sub>4</sub><sup>-2</sup> + 4 H<sup>+</sup> + 2 e<sup>-</sup> <br> <hr>Mn<sup>+2</sup> + SO<sub>2</sub> + 2 H<sub>2</sub>O \u2192 Mn + SO<sub>4</sub><sup>-2</sup> + 4 H<sup>+</sup>"
    },
    {
        "question": "I<sub>2</sub> + S \u2192 SO<sub>2</sub> + HI (acid)",
        "answer": "&nbsp&nbsp&nbsp2x&nbsp&nbsp&nbsp&nbsp&nbsp&nbspI<sub>2</sub> + 2 e<sup>-</sup> \u2192 2 I<sup>-</sup><br> + 1x&nbsp&nbsp&nbsp&nbsp&nbsp&nbspS + 2 H<sub>2</sub>O \u2192 SO<sub>2</sub> + 4 H<sup>+</sup> + 4 e<sup>-</sup> <br> <hr>2 I<sub>2</sub> + S + 2 H<sub>2</sub>O \u2192 4 I<sup>-</sup> + SO<sub>2</sub> + 4 H<sup>+</sup><br>&nbsp&nbsp&nbsp or<br>2 I<sub>2</sub> + S + 2 H<sub>2</sub>O \u2192 SO<sub>2</sub> + 4 HI"
    },
    {
        "question": "PbSO<sub>4</sub> + Mn<sup>+2</sup> \u2192 Pb + SO<sub>4</sub><sup>-2</sup> + MnO<sub>4</sub><sup>-</sup> (acid)",
        "answer": "&nbsp&nbsp&nbsp5x&nbsp&nbsp&nbsp&nbsp&nbsp&nbspPbSO<sub>4</sub> + 2 e<sup>-</sup> \u2192 Pb + SO<sub>4</sub><sup>-2</sup><br> + 2x&nbsp&nbsp&nbsp&nbsp&nbsp&nbspMn<sup>+2</sup> + 4 H<sub>2</sub>O \u2192 MnO<sub>4</sub><sup>-</sup> + 8 H<sup>+</sup> + 5 e<sup>-</sup> <br> <hr>5 PbSO<sub>4</sub> + 2 Mn<sup>+2</sup> + 8 H<sub>2</sub>O \u2192 5 Pb + 5 SO<sub>4</sub><sup>-2</sup> + 2 MnO<sub>4</sub><sup>-</sup> + 16 H<sup>+</sup>"
    },
    {
        "question": "Cr<sup>+2</sup> + Mn<sup>+2</sup> \u2192 Cr + MnO<sub>2</sub> (acid)",
        "answer": "&nbsp&nbsp&nbsp1x&nbsp&nbsp&nbsp&nbsp&nbsp&nbspCr<sup>+2</sup> + 2 e<sup>-</sup> \u2192 Cr<br> + 1x&nbsp&nbsp&nbsp&nbsp&nbsp&nbspMn<sup>+2</sup> + 2 H<sub>2</sub>O \u2192 MnO<sub>2</sub> + 4 H<sup>+</sup> + 2 e<sup>-</sup> <br> <hr>Cr<sup>+2</sup> + Mn<sup>+2</sup> + 2 H<sub>2</sub>O \u2192 Cr + MnO<sub>2</sub> + 4 H<sup>+</sup>"
    },
    {
        "question": "Tl<sup>+3</sup> + Mn<sup>+2</sup> \u2192 Tl<sup>+</sup> + MnO<sub>4</sub><sup>-</sup> (acid)",
        "answer": "&nbsp&nbsp&nbsp5x&nbsp&nbsp&nbsp&nbsp&nbsp&nbspTl<sup>+3</sup> + 2 e<sup>-</sup> \u2192 Tl<sup>+</sup><br> + 2x&nbsp&nbsp&nbsp&nbsp&nbsp&nbspMn<sup>+2</sup> + 4 H<sub>2</sub>O \u2192 MnO<sub>4</sub><sup>-</sup> + 8 H<sup>+</sup> + 5 e<sup>-</sup> <br> <hr>5 Tl<sup>+3</sup> + 2 Mn<sup>+2</sup> + 8 H<sub>2</sub>O \u2192 5 Tl<sup>+</sup> + 2 MnO<sub>4</sub><sup>-</sup> + 16 H<sup>+</sup>"
    },
    {
        "question": "AgI + Mo<sup>+3</sup> \u2192 Ag + I<sup>-</sup> + H<sub>2</sub>MoO<sub>4</sub> (acid)",
        "answer": "&nbsp&nbsp&nbsp3x&nbsp&nbsp&nbsp&nbsp&nbsp&nbspAgI + e<sup>-</sup> \u2192 Ag + I<sup>-</sup><br> + 1x&nbsp&nbsp&nbsp&nbsp&nbsp&nbspMo<sup>+3</sup> + 4 H<sub>2</sub>O \u2192 H<sub>2</sub>MoO<sub>4</sub> + 6 H<sup>+</sup> + 3 e<sup>-</sup> <br> <hr>3 AgI + Mo<sup>+3</sup> + 4 H<sub>2</sub>O \u2192 3 Ag + 3 I<sup>-</sup> + H<sub>2</sub>MoO<sub>4</sub> + 6 H<sup>+</sup>"
    },
    {
        "question": "Be<sup>+2</sup> + Ag \u2192 Be + Ag<sub>2</sub>O (acid)",
        "answer": "&nbsp&nbsp&nbsp1x&nbsp&nbsp&nbsp&nbsp&nbsp&nbspBe<sup>+2</sup> + 2 e<sup>-</sup> \u2192 Be<br> + 1x&nbsp&nbsp&nbsp&nbsp&nbsp&nbsp2 Ag + H<sub>2</sub>O \u2192 Ag<sub>2</sub>O + 2 H<sup>+</sup> + 2 e<sup>-</sup> <br> <hr>Be<sup>+2</sup> + 2 Ag + H<sub>2</sub>O \u2192 Be + Ag<sub>2</sub>O + 2 H<sup>+</sup>"
    },
    {
        "question": "Zn<sup>+2</sup> + Mo \u2192 Zn + H<sub>2</sub>MoO<sub>4</sub> (acid)",
        "answer": "&nbsp&nbsp&nbsp3x&nbsp&nbsp&nbsp&nbsp&nbsp&nbspZn<sup>+2</sup> + 2 e<sup>-</sup> \u2192 Zn<br> + 1x&nbsp&nbsp&nbsp&nbsp&nbsp&nbspMo + 4 H<sub>2</sub>O \u2192 H<sub>2</sub>MoO<sub>4</sub> + 6 H<sup>+</sup> + 6 e<sup>-</sup> <br> <hr>3 Zn<sup>+2</sup> + Mo + 4 H<sub>2</sub>O \u2192 3 Zn + H<sub>2</sub>MoO<sub>4</sub> + 6 H<sup>+</sup>"
    },
    {
        "question": "Mn<sup>+2</sup> + V<sup>+2</sup> \u2192 Mn + VOH<sup>+2</sup> (acid)",
        "answer": "&nbsp&nbsp&nbsp1x&nbsp&nbsp&nbsp&nbsp&nbsp&nbspMn<sup>+2</sup> + 2 e<sup>-</sup> \u2192 Mn<br> + 2x&nbsp&nbsp&nbsp&nbsp&nbsp&nbspV<sup>+2</sup> + H<sub>2</sub>O \u2192 VOH<sup>+2</sup> + H<sup>+</sup> + e<sup>-</sup> <br> <hr>Mn<sup>+2</sup> + 2 V<sup>+2</sup> + 2 H<sub>2</sub>O \u2192 Mn + 2 VOH<sup>+2</sup> + 2 H<sup>+</sup>"
    },
    {
        "question": "UO<sub>2</sub><sup>+2</sup> + Sn \u2192 UO<sub>2</sub><sup>+</sup> + SnO (acid)",
        "answer": "&nbsp&nbsp&nbsp2x&nbsp&nbsp&nbsp&nbsp&nbsp&nbspUO<sub>2</sub><sup>+2</sup> + e<sup>-</sup> \u2192 UO<sub>2</sub><sup>+</sup><br> + 1x&nbsp&nbsp&nbsp&nbsp&nbsp&nbspSn + H<sub>2</sub>O \u2192 SnO + 2 H<sup>+</sup> + 2 e<sup>-</sup> <br> <hr>2 UO<sub>2</sub><sup>+2</sup> + Sn + H<sub>2</sub>O \u2192 2 UO<sub>2</sub><sup>+</sup> + SnO + 2 H<sup>+</sup>"
    },
    {
        "question": "Ni<sup>+2</sup> \u2192 Ni + H<sub>2</sub>O<sub>2</sub> (acid)",
        "answer": "&nbsp&nbsp&nbsp1x&nbsp&nbsp&nbsp&nbsp&nbsp&nbspNi<sup>+2</sup> + 2 e<sup>-</sup> \u2192 Ni<br> + 1x&nbsp&nbsp&nbsp&nbsp&nbsp&nbsp2 H<sub>2</sub>O \u2192 H<sub>2</sub>O<sub>2</sub> + 2 H<sup>+</sup> + 2 e<sup>-</sup> <br> <hr>Ni<sup>+2</sup> + 2 H<sub>2</sub>O \u2192 Ni + H<sub>2</sub>O<sub>2</sub> + 2 H<sup>+</sup>"
    },
    {
        "question": "Sn<sup>+2</sup> + Se \u2192 Sn + H<sub>2</sub>SeO<sub>3</sub> (acid)",
        "answer": "&nbsp&nbsp&nbsp2x&nbsp&nbsp&nbsp&nbsp&nbsp&nbspSn<sup>+2</sup> + 2 e<sup>-</sup> \u2192 Sn<br> + 1x&nbsp&nbsp&nbsp&nbsp&nbsp&nbspSe + 3 H<sub>2</sub>O \u2192 H<sub>2</sub>SeO<sub>3</sub> + 4 H<sup>+</sup> + 4 e<sup>-</sup> <br> <hr>2 Sn<sup>+2</sup> + Se + 3 H<sub>2</sub>O \u2192 2 Sn + H<sub>2</sub>SeO<sub>3</sub> + 4 H<sup>+</sup>"
    },
    {
        "question": "Fe<sup>+2</sup> + VO(OH)<sup>+</sup> \u2192 Fe + H<sub>2</sub>V<sub>10</sub>O<sub>28</sub><sup>-4</sup> (acid)",
        "answer": "&nbsp&nbsp&nbsp5x&nbsp&nbsp&nbsp&nbsp&nbsp&nbspFe<sup>+2</sup> + 2 e<sup>-</sup> \u2192 Fe<br> + 1x&nbsp&nbsp&nbsp&nbsp&nbsp&nbsp10 VO(OH)<sup>+</sup> + 8 H<sub>2</sub>O \u2192 H<sub>2</sub>V<sub>10</sub>O<sub>28</sub><sup>-4</sup> + 24 H<sup>+</sup> + 10 e<sup>-</sup> <br> <hr>5 Fe<sup>+2</sup> + 10 VO(OH)<sup>+</sup> + 8 H<sub>2</sub>O \u2192 5 Fe + H<sub>2</sub>V<sub>10</sub>O<sub>28</sub><sup>-4</sup> + 24 H<sup>+</sup>"
    },
    {
        "question": "U<sup>+4</sup> + NH<sub>4</sub>(OH) \u2192 U<sup>+3</sup> + N<sub>2</sub> + H<sup>+</sup> (acid)",
        "answer": "&nbsp&nbsp&nbsp6x&nbsp&nbsp&nbsp&nbsp&nbsp&nbspU<sup>+4</sup> + e<sup>-</sup> \u2192 U<sup>+3</sup><br> + 1x&nbsp&nbsp&nbsp&nbsp&nbsp&nbsp2 NH<sub>4</sub>(OH) \u2192 N<sub>2</sub> + 2 H<sub>2</sub>O + 6 H<sup>+</sup> + 6 e<sup>-</sup> <br> <hr>6 U<sup>+4</sup> + 2 NH<sub>4</sub>(OH) \u2192 6 U<sup>+3</sup> + N<sub>2</sub> + 2 H<sub>2</sub>O + 6 H<sup>+</sup>"
    },
    {
        "question": "Al<sup>+3</sup> + H<sub>2</sub>S \u2192 Al + S (acid)",
        "answer": "&nbsp&nbsp&nbsp2x&nbsp&nbsp&nbsp&nbsp&nbsp&nbspAl<sup>+3</sup> + 3 e<sup>-</sup> \u2192 Al<br> + 3x&nbsp&nbsp&nbsp&nbsp&nbsp&nbspH<sub>2</sub>S \u2192 S + 2 H<sup>+</sup> + 2 e<sup>-</sup> <br> <hr>2 Al<sup>+3</sup> + 3 H<sub>2</sub>S \u2192 2 Al + 3 S + 6 H<sup>+</sup>"
    },
    {
        "question": "F<sub>2</sub> + V<sup>+3</sup> \u2192 F<sup>-</sup> + VO<sup>+2</sup> (acid)",
        "answer": "&nbsp&nbsp&nbsp1x&nbsp&nbsp&nbsp&nbsp&nbsp&nbspF<sub>2</sub> + 2 e<sup>-</sup> \u2192 2 F<sup>-</sup><br> + 2x&nbsp&nbsp&nbsp&nbsp&nbsp&nbspV<sup>+3</sup> + H<sub>2</sub>O \u2192 VO<sup>+2</sup> + 2 H<sup>+</sup> + e<sup>-</sup> <br> <hr>F<sub>2</sub> + 2 V<sup>+3</sup> + 2 H<sub>2</sub>O \u2192 2 F<sup>-</sup> + 2 VO<sup>+2</sup> + 4 H<sup>+</sup>"
    },
    {
        "question": "Zn<sup>+2</sup> + S \u2192 Zn + H<sub>2</sub>SO<sub>3</sub> (acid)",
        "answer": "&nbsp&nbsp&nbsp2x&nbsp&nbsp&nbsp&nbsp&nbsp&nbspZn<sup>+2</sup> + 2 e<sup>-</sup> \u2192 Zn<br> + 1x&nbsp&nbsp&nbsp&nbsp&nbsp&nbspS + 3 H<sub>2</sub>O \u2192 H<sub>2</sub>SO<sub>3</sub> + 4 H<sup>+</sup> + 4 e<sup>-</sup> <br> <hr>2 Zn<sup>+2</sup> + S + 3 H<sub>2</sub>O \u2192 2 Zn + H<sub>2</sub>SO<sub>3</sub> + 4 H<sup>+</sup>"
    },
    {
        "question": "Be<sup>+2</sup> \u2192 Be + O<sub>2</sub> (acid)",
        "answer": "&nbsp&nbsp&nbsp2x&nbsp&nbsp&nbsp&nbsp&nbsp&nbspBe<sup>+2</sup> + 2 e<sup>-</sup> \u2192 Be<br> + 1x&nbsp&nbsp&nbsp&nbsp&nbsp&nbsp2 H<sub>2</sub>O \u2192 O<sub>2</sub> + 4 H<sup>+</sup> + 4 e<sup>-</sup> <br> <hr>2 Be<sup>+2</sup> + 2 H<sub>2</sub>O \u2192 2 Be + O<sub>2</sub> + 4 H<sup>+</sup>"
    },
    {
        "question": "V<sup>+3</sup> + Ag \u2192 V<sup>+2</sup> + Ag<sub>2</sub>O<sub>3</sub> (acid)",
        "answer": "&nbsp&nbsp&nbsp6x&nbsp&nbsp&nbsp&nbsp&nbsp&nbspV<sup>+3</sup> + e<sup>-</sup> \u2192 V<sup>+2</sup><br> + 1x&nbsp&nbsp&nbsp&nbsp&nbsp&nbsp2 Ag + 3 H<sub>2</sub>O \u2192 Ag<sub>2</sub>O<sub>3</sub> + 6 H<sup>+</sup> + 6 e<sup>-</sup> <br> <hr>6 V<sup>+3</sup> + 2 Ag + 3 H<sub>2</sub>O \u2192 6 V<sup>+2</sup> + Ag<sub>2</sub>O<sub>3</sub> + 6 H<sup>+</sup>"
    },
    {
        "question": "AgI + Se \u2192 Ag + H<sub>2</sub>SeO<sub>3</sub> + HI (acid)",
        "answer": "&nbsp&nbsp&nbsp4x&nbsp&nbsp&nbsp&nbsp&nbsp&nbspAgI + e<sup>-</sup> \u2192 Ag + I<sup>-</sup><br> + 1x&nbsp&nbsp&nbsp&nbsp&nbsp&nbspSe + 3 H<sub>2</sub>O \u2192 H<sub>2</sub>SeO<sub>3</sub> + 4 H<sup>+</sup> + 4 e<sup>-</sup> <br> <hr>4 AgI + Se + 3 H<sub>2</sub>O \u2192 4 Ag + 4 I<sup>-</sup> + H<sub>2</sub>SeO<sub>3</sub> + 4 H<sup>+</sup><br>&nbsp&nbsp&nbsp or<br>4 AgI + Se + 3 H<sub>2</sub>O \u2192 4 Ag + H<sub>2</sub>SeO<sub>3</sub> + 4 HI"
    },
    {
        "question": "Cd<sup>+2</sup> + NH<sub>4</sub>(OH) \u2192 Cd + N<sub>2</sub> + H<sup>+</sup> (acid)",
        "answer": "&nbsp&nbsp&nbsp3x&nbsp&nbsp&nbsp&nbsp&nbsp&nbspCd<sup>+2</sup> + 2 e<sup>-</sup> \u2192 Cd<br> + 1x&nbsp&nbsp&nbsp&nbsp&nbsp&nbsp2 NH<sub>4</sub>(OH) \u2192 N<sub>2</sub> + 2 H<sub>2</sub>O + 6 H<sup>+</sup> + 6 e<sup>-</sup> <br> <hr>3 Cd<sup>+2</sup> + 2 NH<sub>4</sub>(OH) \u2192 3 Cd + N<sub>2</sub> + 2 H<sub>2</sub>O + 6 H<sup>+</sup>"
    },
    {
        "question": "Mn<sup>+2</sup> + H<sub>2</sub>SO<sub>3</sub> \u2192 Mn + S<sub>2</sub>O<sub>6</sub><sup>-2</sup> (acid)",
        "answer": "&nbsp&nbsp&nbsp1x&nbsp&nbsp&nbsp&nbsp&nbsp&nbspMn<sup>+2</sup> + 2 e<sup>-</sup> \u2192 Mn<br> + 1x&nbsp&nbsp&nbsp&nbsp&nbsp&nbsp2 H<sub>2</sub>SO<sub>3</sub> \u2192 S<sub>2</sub>O<sub>6</sub><sup>-2</sup> + 4 H<sup>+</sup> + 2 e<sup>-</sup> <br> <hr>Mn<sup>+2</sup> + 2 H<sub>2</sub>SO<sub>3</sub> \u2192 Mn + S<sub>2</sub>O<sub>6</sub><sup>-2</sup> + 4 H<sup>+</sup>"
    }
]